<?xml version="1.0" standalone="no"?>
<!DOCTYPE svg PUBLIC "-//W3C//DTD SVG 1.1//EN" "http://www.w3.org/Graphics/SVG/1.1/DTD/svg11.dtd" >
<svg xmlns="http://www.w3.org/2000/svg" xmlns:xlink="http://www.w3.org/1999/xlink" version="1.1">
<metadata>
Created by FontForge 20161013 at Wed Nov 28 12:10:33 2001
 By ,,,
Copyright (c) 1989 Adobe Systems Incorporated.  All Rights Reserved.Avenir is a registered trademark of Linotype AG and/or its subsidiaries.
</metadata>
<defs>
<font id="Avenir-Black" horiz-adv-x="260" >
  <font-face 
    font-family="Avenir 95 Black"
    font-weight="400"
    font-stretch="normal"
    units-per-em="1000"
    panose-1="2 0 10 3 2 0 0 2 0 3"
    ascent="800"
    descent="-200"
    x-height="486"
    cap-height="708"
    bbox="-161 -240 1135 953"
    underline-thickness="50"
    underline-position="-175"
    unicode-range="U+0020-FB02"
  />
<missing-glyph horiz-adv-x="296" 
 />
    <glyph glyph-name=".notdef" horiz-adv-x="296" 
 />
    <glyph glyph-name=".null" horiz-adv-x="0" 
 />
    <glyph glyph-name="nonmarkingreturn" horiz-adv-x="333" 
 />
    <glyph glyph-name="space" unicode=" " horiz-adv-x="296" 
 />
    <glyph glyph-name="space" unicode="&#xa0;" horiz-adv-x="296" 
 />
    <glyph glyph-name="exclam" unicode="!" horiz-adv-x="444" 
d="M130 86q0 19 7 36t19.5 29.5t29.5 19.5t36 7t36 -7t29.5 -19.5t19.5 -29.5t7 -36t-7 -36t-19.5 -29.5t-29.5 -19.5t-36 -7t-36 7t-29.5 19.5t-19.5 29.5t-7 36zM297 234h-150v474h150v-474z" />
    <glyph glyph-name="quotedbl" unicode="&#x22;" horiz-adv-x="520" 
d="M81 708h126v-282h-126v282zM313 708h126v-282h-126v282z" />
    <glyph glyph-name="numbersign" unicode="#" horiz-adv-x="592" 
d="M354 417h-99l-17 -126h99zM129 201h-84v90h96l17 126h-84v90h96l28 201h97l-28 -201h99l28 201h97l-28 -201h84v-90h-96l-17 -126h84v-90h-96l-28 -201h-97l28 201h-99l-28 -201h-97z" />
    <glyph glyph-name="dollar" unicode="$" horiz-adv-x="592" 
d="M328 128q15 3 30.5 8.5t27.5 14.5t19.5 21.5t7.5 29.5q0 16 -5.5 27t-14.5 18.5t-21 13t-25 10.5l-19 7v-150zM262 579q-28 -6 -50 -21t-22 -47q0 -23 9 -36t21 -20.5t24 -10.5t18 -5v140zM328 720q54 0 112 -14t102 -49l-96 -117q-24 21 -55 30.5t-63 11.5v-159l96 -28
q66 -20 105.5 -65.5t39.5 -115.5q0 -53 -19 -93t-52 -68t-77 -44t-93 -21v-70h-66v70q-66 0 -131.5 18t-115.5 63l106 119q26 -32 63 -45.5t78 -16.5v169l-73 22q-76 24 -115.5 67.5t-39.5 119.5q0 47 19 85t50.5 65t73 44t85.5 22v70h66v-70z" />
    <glyph glyph-name="percent" unicode="%" horiz-adv-x="907" 
d="M615 740l84 -47l-413 -725l-76 43zM297 522q0 40 -27.5 68t-67.5 28t-67.5 -28t-27.5 -68t27.5 -68t67.5 -28t67.5 28t27.5 68zM5 522q0 41 15.5 77t42 63t62.5 42.5t77 15.5t77 -15.5t62.5 -42.5t42 -63t15.5 -77t-15.5 -77t-42 -63t-62.5 -42.5t-77 -15.5t-77 15.5
t-62.5 42.5t-42 63t-15.5 77zM800 187q0 40 -27.5 68t-67.5 28t-67.5 -28t-27.5 -68q0 -41 27.5 -69t67.5 -28t67.5 28t27.5 69zM508 187q0 41 15.5 77t42 63t62.5 42.5t77 15.5t77 -15.5t62.5 -42.5t42 -63t15.5 -77t-15.5 -77.5t-42 -63.5t-62.5 -42.5t-77 -15.5t-77 15.5
t-62.5 42.5t-42 63.5t-15.5 77.5z" />
    <glyph glyph-name="ampersand" unicode="&#x26;" horiz-adv-x="759" 
d="M285 302q-15 -9 -29.5 -18.5t-26 -21t-18.5 -26.5t-7 -35t8 -36t21 -27t30.5 -17.5t35.5 -6.5q35 0 60.5 15t50.5 37zM333 606q-29 0 -49 -18t-20 -48q0 -13 6 -25.5t14.5 -24t19 -21.5t19.5 -18q12 7 26 16.5t26 21t20 25t8 28.5q0 31 -20.5 47.5t-49.5 16.5zM595 167
l158 -167h-193l-59 67q-44 -45 -94.5 -65t-113.5 -20q-48 0 -93 13t-80.5 39.5t-56.5 66.5t-21 93q0 34 11.5 64.5t32 55.5t47.5 43.5t59 29.5q-17 19 -31.5 36t-25 36t-16 40t-5.5 47q0 48 18.5 82t49.5 56t71 32t82 10q41 0 78 -10.5t65.5 -32t45.5 -54t17 -77.5
q0 -32 -10.5 -59t-28.5 -50.5t-41.5 -42t-50.5 -32.5l91 -97l69 94h174z" />
    <glyph glyph-name="quotesingle" unicode="'" horiz-adv-x="296" 
d="M85 708h126v-282h-126v282z" />
    <glyph glyph-name="parenleft" unicode="(" horiz-adv-x="314" 
d="M293 672q-30 -48 -54 -92t-40.5 -89.5t-25.5 -95t-9 -107.5t9 -107.5t25.5 -95t40.5 -89.5t54 -92l-103 -60l-2 4q-69 103 -106.5 209.5t-37.5 230.5t37.5 230.5t106.5 209.5l2 4z" />
    <glyph glyph-name="parenright" unicode=")" horiz-adv-x="314" 
d="M21 -96q30 48 54 92t40.5 89.5t25.5 95t9 107.5t-9 107.5t-25.5 95t-40.5 89.5t-54 92l103 60l2 -4q69 -103 106.5 -209.5t37.5 -230.5t-37.5 -230.5t-106.5 -209.5l-2 -4z" />
    <glyph glyph-name="asterisk" unicode="*" horiz-adv-x="482" 
d="M293 570l131 43l30 -95l-131 -42l83 -114l-83 -61l-84 115l-81 -110l-81 61l84 109l-133 46l32 95l131 -47v138h102v-138z" />
    <glyph glyph-name="plus" unicode="+" horiz-adv-x="666" 
d="M59 366h211v211h126v-211h211v-126h-211v-211h-126v211h-211v126z" />
    <glyph glyph-name="comma" unicode="," horiz-adv-x="296" 
d="M91 162h144l-90 -282h-128z" />
    <glyph glyph-name="hyphen" unicode="-" horiz-adv-x="296" 
d="M271 189h-246v120h246v-120z" />
    <glyph glyph-name="hyphen" unicode="&#xad;" horiz-adv-x="296" 
d="M271 189h-246v120h246v-120z" />
    <glyph glyph-name="period" unicode="." horiz-adv-x="296" 
d="M56 86q0 19 7 36t19.5 29.5t29.5 19.5t36 7t36 -7t29.5 -19.5t19.5 -29.5t7 -36t-7 -36t-19.5 -29.5t-29.5 -19.5t-36 -7t-36 7t-29.5 19.5t-19.5 29.5t-7 36z" />
    <glyph glyph-name="slash" unicode="/" horiz-adv-x="407" 
d="M296 761l114 -35l-300 -779l-113 35z" />
    <glyph glyph-name="zero" unicode="0" horiz-adv-x="592" 
d="M183 354q0 -28 2.5 -67t13.5 -75t33.5 -61t63.5 -25q40 0 63 25t34 61t13.5 75t2.5 67t-2.5 67t-13.5 75t-34 61t-63 25q-41 0 -63.5 -25t-33.5 -61t-13.5 -75t-2.5 -67zM33 354q0 63 11.5 128t41 118t80.5 86.5t130 33.5t130 -33.5t80.5 -86.5t41 -118t11.5 -128
t-11.5 -128t-41 -118t-80.5 -86.5t-130 -33.5t-130 33.5t-80.5 86.5t-41 118t-11.5 128z" />
    <glyph glyph-name="one" unicode="1" horiz-adv-x="592" 
d="M288 540l-142 -125l-85 98l231 195h140v-708h-144v540z" />
    <glyph glyph-name="two" unicode="2" horiz-adv-x="592" 
d="M49 159l275 247q21 19 42 43t21 56q0 36 -26 56.5t-61 20.5q-42 0 -65.5 -26t-26.5 -64l-150 11q3 55 23 95.5t53 67.5t77.5 40.5t96.5 13.5q48 0 90 -13.5t73 -40t48.5 -66.5t17.5 -93q0 -34 -7 -61.5t-19.5 -50t-29.5 -41.5t-37 -37l-215 -185h314v-132h-494v159z" />
    <glyph glyph-name="three" unicode="3" horiz-adv-x="592" 
d="M216 429h49q21 0 41 3t36.5 11.5t26.5 24t10 40.5q0 32 -25.5 53t-62.5 21q-35 0 -58 -19t-30 -47l-165 34q12 46 36 78.5t57 52.5t73.5 29.5t85.5 9.5q47 0 90.5 -11.5t76.5 -36t52.5 -61.5t19.5 -88q0 -59 -31 -101t-90 -54v-3q32 -4 56.5 -19t41.5 -37t26 -50t9 -59
q0 -53 -20.5 -93t-55 -66.5t-81 -39.5t-98.5 -13q-95 0 -163.5 44t-90.5 139l158 37q8 -38 32.5 -60t72.5 -22q49 0 72.5 25.5t23.5 65.5q0 30 -12.5 46.5t-32.5 24.5t-45 9.5t-50 1.5h-35v130z" />
    <glyph glyph-name="four" unicode="4" horiz-adv-x="592" 
d="M333 510v2h-2l-157 -244h159v242zM333 142h-309v126l289 440h164v-440h91v-126h-91v-142h-144v142z" />
    <glyph glyph-name="five" unicode="5" horiz-adv-x="592" 
d="M517 576h-281l-3 -109q23 8 63 8q54 0 99 -16t77.5 -46.5t50.5 -74t18 -97.5q0 -60 -20.5 -107t-56.5 -79.5t-85.5 -49.5t-107.5 -17q-92 0 -154 45t-85 136l157 36q6 -38 32 -61.5t65 -23.5q48 0 76.5 30t28.5 76q0 35 -14.5 57.5t-38 36t-52.5 18.5t-58 5
q-37 0 -74.5 -7t-72.5 -19l8 391h428v-132z" />
    <glyph glyph-name="six" unicode="6" horiz-adv-x="592" 
d="M408 237q0 48 -31.5 79.5t-82.5 31.5t-82.5 -31.5t-31.5 -79.5t31.5 -79.5t82.5 -31.5t82.5 31.5t31.5 79.5zM287 455q12 3 24 5t25 2q50 0 91 -18t70 -49t45 -73.5t16 -90.5q0 -55 -20.5 -99.5t-56 -76.5t-84 -49.5t-103.5 -17.5q-56 0 -104 17.5t-83.5 49.5t-56 76.5
t-20.5 99.5q0 38 7 69.5t18.5 59.5t27 53.5t32.5 52.5l155 242h183z" />
    <glyph glyph-name="seven" unicode="7" horiz-adv-x="592" 
d="M387 570h-350v138h518v-132l-283 -576h-175z" />
    <glyph glyph-name="eight" unicode="8" horiz-adv-x="592" 
d="M197 215q0 -37 27 -63t72 -26t72 26t27 63q0 38 -27 64t-72 26t-72 -26t-27 -64zM209 504q0 -33 24 -56t63 -23t63 23t24 56q0 32 -24 55t-63 23t-63 -23t-24 -55zM59 525q0 49 18.5 85.5t51 61t75.5 36.5t92 12t92 -12t75 -36.5t51 -61t19 -85.5q0 -58 -31.5 -99
t-88.5 -58v-2q64 -17 98 -61.5t34 -110.5q0 -51 -20.5 -90t-55 -64.5t-79.5 -38.5t-94 -13t-94 13t-79.5 38.5t-55 64.5t-20.5 90q0 66 34 110.5t98 61.5v2q-57 17 -88.5 58t-31.5 99z" />
    <glyph glyph-name="nine" unicode="9" horiz-adv-x="592" 
d="M184 471q0 -48 31.5 -79.5t82.5 -31.5t82.5 31.5t31.5 79.5t-31.5 79.5t-82.5 31.5t-82.5 -31.5t-31.5 -79.5zM305 253q-12 -3 -24 -5t-25 -2q-50 0 -91 18t-70 49t-45 73.5t-16 90.5q0 55 20.5 99.5t56 76.5t83.5 49.5t104 17.5q55 0 103.5 -17.5t84 -49.5t56 -76.5
t20.5 -99.5q0 -38 -7 -69.5t-18.5 -59.5t-27 -53.5t-32.5 -52.5l-155 -242h-183z" />
    <glyph glyph-name="colon" unicode=":" horiz-adv-x="296" 
d="M56 406q0 19 7 36t19.5 29.5t29.5 19.5t36 7t36 -7t29.5 -19.5t19.5 -29.5t7 -36t-7 -36t-19.5 -29.5t-29.5 -19.5t-36 -7t-36 7t-29.5 19.5t-19.5 29.5t-7 36zM56 86q0 19 7 36t19.5 29.5t29.5 19.5t36 7t36 -7t29.5 -19.5t19.5 -29.5t7 -36t-7 -36t-19.5 -29.5
t-29.5 -19.5t-36 -7t-36 7t-29.5 19.5t-19.5 29.5t-7 36z" />
    <glyph glyph-name="semicolon" unicode=";" horiz-adv-x="296" 
d="M56 406q0 19 7 36t19.5 29.5t29.5 19.5t36 7t36 -7t29.5 -19.5t19.5 -29.5t7 -36t-7 -36t-19.5 -29.5t-29.5 -19.5t-36 -7t-36 7t-29.5 19.5t-19.5 29.5t-7 36zM91 162h144l-90 -282h-128z" />
    <glyph glyph-name="semicolon" unicode="&#x37e;" horiz-adv-x="296" 
d="M56 406q0 19 7 36t19.5 29.5t29.5 19.5t36 7t36 -7t29.5 -19.5t19.5 -29.5t7 -36t-7 -36t-19.5 -29.5t-29.5 -19.5t-36 -7t-36 7t-29.5 19.5t-19.5 29.5t-7 36zM91 162h144l-90 -282h-128z" />
    <glyph glyph-name="less" unicode="&#x3c;" horiz-adv-x="666" 
d="M586 428l-317 -124v-2l317 -124v-136l-506 198v126l506 198v-136z" />
    <glyph glyph-name="equal" unicode="=" horiz-adv-x="666" 
d="M59 270h548v-126h-548v126zM59 462h548v-126h-548v126z" />
    <glyph glyph-name="greater" unicode="&#x3e;" horiz-adv-x="666" 
d="M80 178l317 124v2l-317 124v136l506 -198v-126l-506 -198v136z" />
    <glyph glyph-name="question" unicode="?" horiz-adv-x="556" 
d="M199 86q0 19 7 36t19.5 29.5t29.5 19.5t36 7t36 -7t29.5 -19.5t19.5 -29.5t7 -36t-7 -36t-19.5 -29.5t-29.5 -19.5t-36 -7t-36 7t-29.5 19.5t-19.5 29.5t-7 36zM216 278q0 30 8 51t27 39q28 27 51.5 47t40.5 37.5t26.5 33t9.5 32.5q0 33 -20.5 51.5t-51.5 18.5
q-47 0 -71.5 -26t-27.5 -63l-154 10q11 106 78 161.5t172 55.5q46 0 86.5 -12.5t71.5 -37.5t49 -62t18 -85q0 -29 -6 -52.5t-20.5 -46.5t-38 -46.5t-59.5 -51.5q-23 -18 -31 -35t-8 -34v-29h-150v44z" />
    <glyph glyph-name="at" unicode="@" horiz-adv-x="800" 
d="M568 337q-3 -14 -6 -33t-3 -33q0 -11 5.5 -19.5t21.5 -8.5t31.5 8.5t27.5 27t19.5 46.5t7.5 67q0 60 -19.5 105.5t-54 76.5t-82.5 46.5t-105 15.5q-62 0 -113 -21t-87.5 -59t-56.5 -90t-20 -113q0 -66 22 -118t61.5 -88t93.5 -55.5t117 -19.5q57 0 104.5 16t84.5 45h110
q-54 -74 -134.5 -112.5t-172.5 -38.5q-80 0 -150.5 27.5t-123.5 76.5t-83.5 117.5t-30.5 149.5q0 80 30 148t82 118t121.5 78.5t148.5 28.5q66 0 129.5 -21.5t113.5 -63.5t80.5 -103.5t30.5 -140.5q0 -53 -12.5 -92t-32 -66t-44 -44t-49 -26t-47 -12.5t-37.5 -3.5
q-42 0 -60 17t-19 37h-2q-20 -20 -50 -37t-78 -17q-32 0 -58.5 12.5t-45.5 34.5t-29.5 53t-10.5 68q0 44 14 84.5t39.5 72t62.5 50t84 18.5q40 0 66.5 -13t41.5 -44h2l8 45h94zM475 364q0 40 -18 66t-56 26q-46 0 -73 -36t-27 -88q0 -16 3 -32t10.5 -28.5t21 -20.5t34.5 -8
q31 0 51.5 11t32.5 28.5t16.5 39t4.5 42.5z" />
    <glyph glyph-name="A" unicode="A" horiz-adv-x="741" 
d="M365 502l-86 -220h173zM305 708h129l308 -708h-176l-61 150h-275l-59 -150h-172z" />
    <glyph glyph-name="B" unicode="B" horiz-adv-x="648" 
d="M228 132h140q18 0 36.5 4t33.5 14t24.5 26t9.5 39q0 25 -12.5 40.5t-31.5 23.5t-41 11t-41 3h-118v-161zM228 425h113q18 0 35.5 4t31.5 13t22.5 24t8.5 36q0 22 -9.5 36.5t-24.5 22.5t-34 11.5t-37 3.5h-106v-151zM72 708h264q46 0 92.5 -6.5t83.5 -26t60 -54.5t23 -93
q0 -60 -33.5 -99.5t-88.5 -56.5v-2q35 -5 63.5 -19.5t49 -37t31.5 -52.5t11 -64q0 -56 -24 -93.5t-62 -60.5t-85.5 -33t-94.5 -10h-290v708z" />
    <glyph glyph-name="C" unicode="C" horiz-adv-x="685" 
d="M535 524q-23 28 -56.5 43t-77.5 15t-81.5 -17t-65 -47.5t-43 -72.5t-15.5 -91q0 -50 15.5 -91.5t42.5 -72t63.5 -47.5t78.5 -17q48 0 85 20t61 56l130 -97q-45 -63 -114 -93t-142 -30q-83 0 -153 26t-121 74.5t-79.5 117.5t-28.5 154t28.5 154t79.5 117.5t121 74.5
t153 26q30 0 62.5 -5.5t64 -17.5t60.5 -32t52 -49z" />
    <glyph glyph-name="D" unicode="D" horiz-adv-x="759" 
d="M228 144h81q54 0 100.5 11t80.5 36.5t53.5 67t19.5 101.5q0 52 -19.5 90.5t-52.5 63.5t-77.5 37.5t-93.5 12.5h-92v-420zM72 708h234q85 0 161.5 -19t133.5 -61.5t90.5 -110.5t33.5 -165q0 -86 -32.5 -151.5t-87.5 -110t-127 -67.5t-151 -23h-255v708z" />
    <glyph glyph-name="E" unicode="E" horiz-adv-x="630" 
d="M78 708h481v-144h-325v-132h307v-144h-307v-144h343v-144h-499v708z" />
    <glyph glyph-name="F" unicode="F" horiz-adv-x="593" 
d="M78 708h475v-144h-319v-144h295v-144h-295v-276h-156v708z" />
    <glyph glyph-name="G" unicode="G" horiz-adv-x="778" 
d="M713 50q-69 -36 -144 -52t-153 -16q-83 0 -153 26t-121 74.5t-79.5 117.5t-28.5 154t28.5 154t79.5 117.5t121 74.5t153 26q85 0 156.5 -20.5t125.5 -70.5l-110 -120q-32 33 -72 50t-100 17q-50 0 -90.5 -17t-69.5 -47.5t-44.5 -72.5t-15.5 -91q0 -50 15.5 -91.5
t44.5 -72t69.5 -47.5t90.5 -17q51 0 88 11.5t59 23.5v115h-127v144h277v-370z" />
    <glyph glyph-name="H" unicode="H" horiz-adv-x="759" 
d="M72 708h156v-264h303v264h156v-708h-156v306h-303v-306h-156v708z" />
    <glyph glyph-name="I" unicode="I" horiz-adv-x="296" 
d="M70 708h156v-708h-156v708z" />
    <glyph glyph-name="J" unicode="J" horiz-adv-x="500" 
d="M438 237q0 -49 -8.5 -95t-32.5 -81.5t-68.5 -57t-116.5 -21.5q-84 0 -142 40t-75 125l143 35q3 -26 23.5 -44t46.5 -18q27 0 42 13.5t22 33.5t8.5 43.5t1.5 43.5v454h156v-471z" />
    <glyph glyph-name="K" unicode="K" horiz-adv-x="722" 
d="M78 708h156v-294l275 294h204l-315 -329l342 -379h-218l-288 336v-336h-156v708z" />
    <glyph glyph-name="L" unicode="L" horiz-adv-x="537" 
d="M78 708h156v-564h289v-144h-445v708z" />
    <glyph glyph-name="M" unicode="M" horiz-adv-x="944" 
d="M72 708h236l163 -462h2l164 462h235v-708h-156v543h-2l-186 -543h-119l-179 543h-2v-543h-156v708z" />
    <glyph glyph-name="N" unicode="N" horiz-adv-x="815" 
d="M72 708h212l301 -492h2v492h156v-708h-204l-309 504h-2v-504h-156v708z" />
    <glyph glyph-name="O" unicode="O" horiz-adv-x="832" 
d="M196 354q0 -50 15.5 -91.5t44.5 -72t69.5 -47.5t90.5 -17t90.5 17t69.5 47.5t44.5 72t15.5 91.5q0 49 -15.5 91t-44.5 72.5t-69.5 47.5t-90.5 17t-90.5 -17t-69.5 -47.5t-44.5 -72.5t-15.5 -91zM34 354q0 85 28.5 154t79.5 117.5t121 74.5t153 26t153 -26t121 -74.5
t79.5 -117.5t28.5 -154t-28.5 -154t-79.5 -117.5t-121 -74.5t-153 -26t-153 26t-121 74.5t-79.5 117.5t-28.5 154z" />
    <glyph glyph-name="P" unicode="P" horiz-adv-x="630" 
d="M228 408h104q21 0 40.5 4t35 13.5t25 26t9.5 41.5q0 27 -12.5 43.5t-32 25.5t-43.5 11.5t-46 2.5h-80v-168zM72 708h263q55 0 104 -10t85.5 -34.5t58 -66t21.5 -104.5q0 -62 -20 -104t-55 -67t-83 -35.5t-104 -10.5h-114v-276h-156v708z" />
    <glyph glyph-name="Q" unicode="Q" horiz-adv-x="852" 
d="M196 363q0 -46 17 -86t46.5 -69.5t68.5 -46.5t84 -17t84 17t68.5 46.5t46.5 69.5t17 86t-17 86t-46.5 69.5t-68.5 46.5t-84 17t-84 -17t-68.5 -46.5t-46.5 -69.5t-17 -86zM847 0h-429q-83 0 -153.5 24.5t-121.5 71.5t-80 114t-29 153q0 80 29.5 147t80.5 115t120 74.5
t148 26.5t148 -27t120 -75t80.5 -114.5t29.5 -146.5q0 -38 -8.5 -74t-25.5 -68t-44 -57.5t-63 -41.5v-2h198v-120z" />
    <glyph glyph-name="R" unicode="R" horiz-adv-x="648" 
d="M228 415h92q21 0 44.5 1.5t42.5 9t31.5 23.5t12.5 45q0 27 -11 43t-28 24.5t-39 11.5t-43 3h-102v-161zM72 708h274q54 0 102.5 -10.5t85 -35t58 -66t21.5 -103.5q0 -75 -39 -127.5t-114 -66.5l180 -299h-187l-148 283h-77v-283h-156v708z" />
    <glyph glyph-name="S" unicode="S" horiz-adv-x="574" 
d="M422 535q-19 24 -51.5 35.5t-61.5 11.5q-17 0 -35 -4t-34 -12.5t-26 -22.5t-10 -34q0 -32 24 -49t60.5 -29t78.5 -24t78.5 -34t60.5 -59t24 -99q0 -59 -22 -103t-59.5 -73t-87 -43t-104.5 -14q-69 0 -128 21t-110 68l111 122q24 -32 60.5 -49.5t75.5 -17.5q19 0 38.5 4.5
t35 13.5t25 23t9.5 33q0 32 -24.5 50.5t-61.5 31.5t-80 26t-80 35t-61.5 58t-24.5 95q0 57 22.5 100t60 72t86.5 43.5t101 14.5q60 0 116 -17t101 -57z" />
    <glyph glyph-name="T" unicode="T" horiz-adv-x="574" 
d="M209 570h-202v138h560v-138h-202v-570h-156v570z" />
    <glyph glyph-name="U" unicode="U" horiz-adv-x="741" 
d="M669 273q0 -63 -19 -116t-56.5 -92t-93.5 -61t-129 -22q-74 0 -130 22t-93.5 61t-56.5 92t-19 116v435h156v-429q0 -33 10.5 -61t29.5 -48.5t45.5 -32t57.5 -11.5t57 11.5t45 32t29.5 48.5t10.5 61v429h156v-435z" />
    <glyph glyph-name="V" unicode="V" horiz-adv-x="704" 
d="M2 708h178l175 -464h2l178 464h167l-292 -708h-125z" />
    <glyph glyph-name="W" unicode="W" horiz-adv-x="1000" 
d="M-2 708h170l113 -454h2l148 454h145l147 -466h2l119 466h158l-207 -708h-139l-156 490h-2l-156 -490h-134z" />
    <glyph glyph-name="X" unicode="X" horiz-adv-x="722" 
d="M248 370l-234 338h196l151 -248l145 248h189l-229 -335l256 -373h-196l-173 285l-168 -285h-185z" />
    <glyph glyph-name="Y" unicode="Y" horiz-adv-x="648" 
d="M246 302l-266 406h194l150 -265l159 265h185l-266 -406v-302h-156v302z" />
    <glyph glyph-name="Z" unicode="Z" horiz-adv-x="630" 
d="M35 144l359 426h-346v138h535v-138l-352 -426h364v-144h-560v144z" />
    <glyph glyph-name="bracketleft" unicode="[" horiz-adv-x="296" 
d="M276 642h-90v-708h90v-90h-210v888h210v-90z" />
    <glyph glyph-name="backslash" unicode="\" horiz-adv-x="407" 
d="M297 -53l-300 779l114 35l299 -779z" />
    <glyph glyph-name="bracketright" unicode="]" horiz-adv-x="296" 
d="M20 -66h90v354v354h-90v90h210v-888h-210v90z" />
    <glyph glyph-name="asciicircum" unicode="^" horiz-adv-x="666" 
d="M260 708h146l180 -365h-142l-111 238l-112 -238h-141z" />
    <glyph glyph-name="underscore" unicode="_" horiz-adv-x="500" 
d="M0 -125v50h500v-50h-500z" />
    <glyph glyph-name="grave" unicode="`" 
d="M232 564h-132l-173 144h204z" />
    <glyph glyph-name="a" unicode="a" horiz-adv-x="537" 
d="M321 213q-17 0 -42.5 -1.5t-49 -8.5t-40 -21t-16.5 -39q0 -27 23 -40t48 -13q22 0 42.5 6t36.5 17t25.5 28t9.5 40v32h-37zM358 61h-2q-25 -39 -66.5 -56t-87.5 -17q-34 0 -65.5 9.5t-55.5 28.5t-38 47t-14 65q0 42 15.5 71t42 48t60.5 29.5t70.5 15.5t73 6t67.5 1
q0 40 -28.5 63.5t-67.5 23.5q-37 0 -67.5 -15.5t-54.5 -42.5l-80 82q42 39 98 58.5t116 19.5q66 0 108.5 -16.5t68 -48.5t35.5 -78.5t10 -107.5v-247h-138v61z" />
    <glyph glyph-name="b" unicode="b" horiz-adv-x="630" 
d="M205 243q0 -55 31.5 -89t88.5 -34t88.5 34t31.5 89t-31.5 89t-88.5 34t-88.5 -34t-31.5 -89zM67 756h150v-322h2q26 35 66.5 49.5t87.5 14.5q52 0 93 -21.5t69.5 -57.5t44 -82.5t15.5 -97.5q0 -55 -17 -101t-48.5 -79.5t-75.5 -52t-98 -18.5q-26 0 -49 7t-42.5 18
t-34 24.5t-23.5 26.5h-2v-64h-138v756z" />
    <glyph glyph-name="c" unicode="c" horiz-adv-x="482" 
d="M382 329q-11 16 -31 26.5t-43 10.5q-57 0 -88.5 -34t-31.5 -89t31.5 -89t88.5 -34q25 0 43 11t31 26l99 -104q-35 -36 -82.5 -50.5t-90.5 -14.5q-56 0 -105.5 18t-86 51.5t-57.5 80.5t-21 105t21 105t57.5 80.5t86 51.5t105.5 18q43 0 90.5 -14.5t82.5 -50.5z" />
    <glyph glyph-name="d" unicode="d" horiz-adv-x="630" 
d="M425 243q0 55 -31.5 89t-88.5 34t-88.5 -34t-31.5 -89t31.5 -89t88.5 -34t88.5 34t31.5 89zM563 0h-138v64h-2q-9 -13 -23.5 -26.5t-34 -24.5t-43 -18t-48.5 -7q-54 0 -98 18.5t-75.5 52t-48.5 79.5t-17 101q0 51 15.5 97.5t44 82.5t69.5 57.5t93 21.5q47 0 87.5 -14.5
t66.5 -49.5h2v322h150v-756z" />
    <glyph glyph-name="e" unicode="e" horiz-adv-x="574" 
d="M386 298q1 38 -25 65t-67 27q-25 0 -44 -8t-32.5 -20.5t-21 -29t-8.5 -34.5h198zM513 84q-36 -46 -91 -71t-114 -25q-56 0 -105.5 18t-86 51.5t-57.5 80.5t-21 105t21 105t57.5 80.5t86 51.5t105.5 18q52 0 94.5 -18t72 -51.5t45.5 -80.5t16 -105v-47h-348
q9 -43 39 -68.5t74 -25.5q37 0 62.5 16.5t44.5 42.5z" />
    <glyph glyph-name="f" unicode="f" horiz-adv-x="370" 
d="M105 366h-99v120h99v86q0 40 7 75.5t27 62.5t57.5 42.5t98.5 15.5q23 0 45 -2t43 -7l-7 -127q-13 5 -24 7.5t-25 2.5q-36 0 -54 -15.5t-18 -63.5v-77h111v-120h-111v-366h-150v366z" />
    <glyph glyph-name="g" unicode="g" horiz-adv-x="630" 
d="M185 246q0 -24 9 -45.5t25.5 -38t38 -26.5t47.5 -10q25 0 47 10t38.5 26.5t25.5 38t9 45.5t-9 45.5t-25.5 38t-38.5 26.5t-47 10q-26 0 -47.5 -10t-38 -26.5t-25.5 -38t-9 -45.5zM563 41q0 -138 -69.5 -209.5t-211.5 -71.5q-65 0 -128 14.5t-116 56.5l83 124
q35 -29 73.5 -46t84.5 -17q69 0 101.5 33.5t32.5 85.5v47h-2q-26 -35 -64.5 -49.5t-72.5 -14.5q-54 0 -98 18.5t-75.5 52t-48.5 79.5t-17 101q0 48 15.5 94t44 81t69.5 56.5t93 21.5q32 0 58.5 -7t47.5 -18t36 -24.5t24 -26.5h2v64h138v-445z" />
    <glyph glyph-name="h" unicode="h" horiz-adv-x="574" 
d="M203 756v-336h2q5 14 17 28t29 25t40 18t50 7q57 0 92 -17.5t54.5 -48.5t26.5 -73t7 -91v-268h-150v238q0 21 -1.5 43.5t-9 41.5t-23 31t-44.5 12t-47 -10.5t-27.5 -28t-12.5 -39.5t-3 -46v-242h-150v756h150z" />
    <glyph glyph-name="i" unicode="i" 
d="M43 639q0 36 25.5 61.5t61.5 25.5t61.5 -25.5t25.5 -61.5t-25.5 -61.5t-61.5 -25.5t-61.5 25.5t-25.5 61.5zM55 486h150v-486h-150v486z" />
    <glyph glyph-name="j" unicode="j" 
d="M43 639q0 36 25.5 61.5t61.5 25.5t61.5 -25.5t25.5 -61.5t-25.5 -61.5t-61.5 -25.5t-61.5 25.5t-25.5 61.5zM205 -36q0 -47 -9 -84.5t-30 -64t-55.5 -41t-85.5 -14.5q-17 0 -35 1.5t-35 6.5l8 133q18 -9 39 -9q19 0 30 10t16 25t6 32t1 31v496h150v-522z" />
    <glyph glyph-name="k" unicode="k" horiz-adv-x="556" 
d="M53 756h150v-462l166 192h184l-193 -219l198 -267h-189l-164 246h-2v-246h-150v756z" />
    <glyph glyph-name="l" unicode="l" 
d="M55 756h150v-756h-150v756z" />
    <glyph glyph-name="m" unicode="m" horiz-adv-x="870" 
d="M53 486h144v-66h2q7 14 20 28t31 25t41 18t50 7q51 0 90.5 -21t59.5 -66q26 47 63 67t91 20q49 0 82.5 -16.5t53 -45t28 -67t8.5 -82.5v-287h-150v283q0 34 -14.5 58.5t-51.5 24.5q-26 0 -43.5 -8.5t-28 -23.5t-15 -35t-4.5 -42v-257h-150v257q0 13 -1 32t-7 36t-19.5 29
t-39.5 12q-29 0 -47 -10.5t-27.5 -28t-12.5 -39.5t-3 -46v-242h-150v486z" />
    <glyph glyph-name="n" unicode="n" horiz-adv-x="574" 
d="M53 486h144v-66h2q7 14 20 28t31 25t41 18t50 7q57 0 92 -17.5t54.5 -48.5t26.5 -73t7 -91v-268h-150v238q0 21 -1.5 43.5t-9 41.5t-23 31t-44.5 12t-47 -10.5t-27.5 -28t-12.5 -39.5t-3 -46v-242h-150v486z" />
    <glyph glyph-name="o" unicode="o" horiz-adv-x="610" 
d="M185 243q0 -55 31.5 -89t88.5 -34t88.5 34t31.5 89t-31.5 89t-88.5 34t-88.5 -34t-31.5 -89zM35 243q0 58 21 105t57.5 80.5t86 51.5t105.5 18t105.5 -18t86 -51.5t57.5 -80.5t21 -105t-21 -105t-57.5 -80.5t-86 -51.5t-105.5 -18t-105.5 18t-86 51.5t-57.5 80.5t-21 105
z" />
    <glyph glyph-name="p" unicode="p" horiz-adv-x="630" 
d="M205 243q0 -55 31.5 -89t88.5 -34t88.5 34t31.5 89t-31.5 89t-88.5 34t-88.5 -34t-31.5 -89zM67 486h138v-64h2q9 13 23.5 26.5t34 24.5t42.5 18t49 7q54 0 98 -18.5t75.5 -52t48.5 -79.5t17 -101q0 -51 -15.5 -97.5t-44 -82.5t-69.5 -57.5t-93 -21.5q-47 0 -87.5 14.5
t-66.5 49.5h-2v-280h-150v714z" />
    <glyph glyph-name="q" unicode="q" horiz-adv-x="630" 
d="M425 243q0 55 -31.5 89t-88.5 34t-88.5 -34t-31.5 -89t31.5 -89t88.5 -34t88.5 34t31.5 89zM563 -228h-150v280h-2q-26 -35 -66.5 -49.5t-87.5 -14.5q-52 0 -93 21.5t-69.5 57.5t-44 82.5t-15.5 97.5q0 55 17 101t48.5 79.5t75.5 52t98 18.5q25 0 48.5 -7t43 -18
t34 -24.5t23.5 -26.5h2v64h138v-714z" />
    <glyph glyph-name="r" unicode="r" horiz-adv-x="407" 
d="M53 486h150v-78h2q24 45 57 67.5t83 22.5q13 0 26 -1t24 -4v-137q-16 5 -31.5 7.5t-32.5 2.5q-43 0 -68 -12t-38.5 -33.5t-17.5 -51.5t-4 -66v-203h-150v486z" />
    <glyph glyph-name="s" unicode="s" horiz-adv-x="463" 
d="M328 343q-33 41 -87 41q-19 0 -37 -9t-18 -31q0 -18 18.5 -26.5t47 -15t61 -14t61 -23.5t47 -43.5t18.5 -73.5q0 -47 -20.5 -77.5t-52.5 -49t-72 -26t-79 -7.5q-51 0 -103 14.5t-88 51.5l91 101q21 -26 46.5 -39.5t59.5 -13.5q26 0 47 7.5t21 27.5q0 19 -18.5 28.5
t-47 16t-61 14t-61 22.5t-47 42.5t-18.5 73.5q0 43 17.5 74t46 51t65.5 29.5t75 9.5q48 0 97 -14t83 -50z" />
    <glyph glyph-name="t" unicode="t" horiz-adv-x="407" 
d="M384 366h-132v-162q0 -20 2 -36.5t9 -28.5t21.5 -18.5t38.5 -6.5q12 0 31.5 2.5t29.5 11.5v-125q-25 -9 -52 -12t-53 -3q-38 0 -70 8t-56 25.5t-37.5 45.5t-13.5 68v231h-96v120h96v144h150v-144h132v-120z" />
    <glyph glyph-name="u" unicode="u" horiz-adv-x="574" 
d="M521 0h-144v66h-2q-8 -14 -20.5 -28t-30.5 -25t-41 -18t-50 -7q-57 0 -92.5 17.5t-55 48.5t-26 73t-6.5 91v268h150v-238q0 -21 1.5 -43.5t9 -41.5t23 -31t44.5 -12t47 10.5t27.5 28t12.5 39.5t3 46v242h150v-486z" />
    <glyph glyph-name="v" unicode="v" horiz-adv-x="556" 
d="M2 486h162l123 -330h2l114 330h151l-192 -486h-159z" />
    <glyph glyph-name="w" unicode="w" horiz-adv-x="833" 
d="M-5 486h160l99 -305h2l83 305h164l90 -305h2l91 305h152l-173 -486h-148l-101 323h-2l-90 -323h-151z" />
    <glyph glyph-name="x" unicode="x" horiz-adv-x="556" 
d="M184 260l-162 226h177l86 -132l83 132h167l-158 -226l187 -260h-177l-106 162l-114 -162h-175z" />
    <glyph glyph-name="y" unicode="y" horiz-adv-x="556" 
d="M333 -79q-15 -39 -29 -69t-35.5 -50.5t-54.5 -31t-87 -10.5q-58 0 -112 18l20 123q34 -15 70 -15q25 0 41 5.5t26.5 16t17.5 25.5t15 35l11 28l-213 490h162l125 -321h2l107 321h154z" />
    <glyph glyph-name="z" unicode="z" horiz-adv-x="500" 
d="M34 150l252 216h-246v120h420v-144l-264 -222h270v-120h-432v150z" />
    <glyph glyph-name="braceleft" unicode="{" horiz-adv-x="370" 
d="M356 -156h-105q-27 0 -50.5 8t-41 26t-27.5 45.5t-10 66.5v172q0 23 -13.5 37t-31.5 21t-36 9t-27 2v114q9 0 27 2t36 9t31.5 21t13.5 37v173q0 39 9.5 66.5t27 45t41 25.5t51.5 8h105v-114h-49q-23 0 -36 -6t-19.5 -15.5t-8 -21t-1.5 -21.5v-161q0 -35 -10 -55
t-24.5 -30.5t-32 -14t-33.5 -4.5v-2q16 -1 33.5 -4t32 -13.5t24.5 -30.5t10 -55v-162q0 -10 1.5 -21.5t8 -21t19.5 -15.5t36 -6h49v-114z" />
    <glyph glyph-name="bar" unicode="|" horiz-adv-x="222" 
d="M48 756h126v-774h-126v774z" />
    <glyph glyph-name="braceright" unicode="}" horiz-adv-x="370" 
d="M14 732h108q25 0 48 -8t40.5 -26t27.5 -45.5t10 -66.5v-172q0 -23 13 -37t30.5 -21t35.5 -9t29 -2v-114q-11 0 -29 -2t-35.5 -9t-30.5 -21t-13 -37v-173q0 -39 -10 -66.5t-27 -45t-40.5 -25.5t-51.5 -8h-105v114h49q23 0 36 6t19.5 15.5t8 21t1.5 21.5v161q0 35 10 55
t24.5 30.5t32 13.5t33.5 5v2q-16 1 -33.5 4t-32 13.5t-24.5 30.5t-10 55v162q0 10 -1.5 21.5t-8 21t-19.5 15.5t-36 6h-49v114z" />
    <glyph glyph-name="asciitilde" unicode="~" horiz-adv-x="666" 
d="M564 292q-8 -16 -19.5 -31.5t-26.5 -27.5t-34.5 -19.5t-44.5 -7.5q-26 0 -54 9.5t-57 22.5q-28 12 -55 24t-47 12q-15 0 -27.5 -6.5t-23 -16t-19.5 -21.5l-18 -24l-36 108q8 16 19.5 31.5t26.5 27.5t34.5 19.5t44.5 7.5q26 0 54 -9.5t57 -22.5q28 -12 55 -24t47 -12
q15 0 27.5 6.5t23 16t19.5 21.5l18 24z" />
    <glyph glyph-name="Euro" horiz-adv-x="592" 
d="M578 75q-33 -39 -91 -63t-125 -24q-112 0 -180 60t-91 174h-81l28 90h42q-1 9 -1 18v19q0 13 0.5 25t1.5 24h-68l31 92h52q30 113 108.5 171.5t198.5 58.5q17 0 39.5 -2t45 -6t41.5 -9.5t29 -11.5l-46 -130q-15 10 -44.5 17.5t-64.5 7.5q-51 0 -89 -22.5t-60 -73.5h235
l-30 -92h-226q-1 -11 -1.5 -22t-0.5 -23v-21t1 -20h204l-29 -90h-160q15 -49 46.5 -76.5t82.5 -27.5q41 0 70 16t50 42z" />
    <glyph glyph-name="Euro" unicode="&#x20ac;" horiz-adv-x="592" 
d="M578 75q-33 -39 -91 -63t-125 -24q-112 0 -180 60t-91 174h-81l28 90h42q-1 9 -1 18v19q0 13 0.5 25t1.5 24h-68l31 92h52q30 113 108.5 171.5t198.5 58.5q17 0 39.5 -2t45 -6t41.5 -9.5t29 -11.5l-46 -130q-15 10 -44.5 17.5t-64.5 7.5q-51 0 -89 -22.5t-60 -73.5h235
l-30 -92h-226q-1 -11 -1.5 -22t-0.5 -23v-21t1 -20h204l-29 -90h-160q15 -49 46.5 -76.5t82.5 -27.5q41 0 70 16t50 42z" />
    <glyph glyph-name="Zcaron" horiz-adv-x="630" 
d="M35 144l359 426h-346v138h535v-138l-352 -426h364v-144h-560v144zM250 930l63 -78l62 78h135l-119 -144h-163l-116 144h138z" />
    <glyph glyph-name="Zcaron" unicode="&#x17d;" horiz-adv-x="630" 
d="M35 144l359 426h-346v138h535v-138l-352 -426h364v-144h-560v144zM250 930l63 -78l62 78h135l-119 -144h-163l-116 144h138z" />
    <glyph glyph-name="zcaron" horiz-adv-x="500" 
d="M34 150l252 216h-246v120h420v-144l-264 -222h270v-120h-432v150zM185 708l63 -78l62 78h135l-119 -144h-163l-116 144h138z" />
    <glyph glyph-name="zcaron" unicode="&#x17e;" horiz-adv-x="500" 
d="M34 150l252 216h-246v120h420v-144l-264 -222h270v-120h-432v150zM185 708l63 -78l62 78h135l-119 -144h-163l-116 144h138z" />
    <glyph glyph-name="exclamdown" unicode="&#xa1;" horiz-adv-x="444" 
d="M314 400q0 -19 -7 -36t-19.5 -29.5t-29.5 -19.5t-36 -7t-36 7t-29.5 19.5t-19.5 29.5t-7 36t7 36t19.5 29.5t29.5 19.5t36 7t36 -7t29.5 -19.5t19.5 -29.5t7 -36zM147 252h150v-474h-150v474z" />
    <glyph glyph-name="cent" unicode="&#xa2;" horiz-adv-x="592" 
d="M310 372q-47 -9 -68.5 -45t-21.5 -83q0 -46 21.5 -81t68.5 -49v258zM310 -12q-53 3 -96.5 24t-74 55t-47 79t-16.5 97q0 53 16.5 97t47 77t74 54t96.5 27v66h60v-66q51 0 92 -14.5t80 -47.5l-96 -102q-20 20 -39.5 29t-36.5 9v-258q6 0 13.5 1t18 5t23 13t28.5 24
l91 -107q-19 -18 -42 -30t-46.5 -19t-46 -10t-39.5 -3v-69h-60v69z" />
    <glyph glyph-name="sterling" unicode="&#xa3;" horiz-adv-x="592" 
d="M48 114h96v198h-96v102h96v71q0 45 16 87t47.5 75t77.5 53t107 20q57 0 112 -15t97 -53l-100 -107q-20 20 -45.5 31.5t-45.5 11.5q-33 0 -55.5 -11t-36 -28.5t-19 -40t-5.5 -45.5v-49h156v-102h-156v-198h253v-114h-499v114z" />
    <glyph glyph-name="currency" unicode="&#xa4;" horiz-adv-x="592" 
d="M168 354q0 -28 10 -52.5t27.5 -42.5t40.5 -28.5t50 -10.5t50 10.5t40.5 28.5t27.5 42.5t10 52.5t-10 52.5t-27.5 42.5t-40.5 28.5t-50 10.5t-50 -10.5t-40.5 -28.5t-27.5 -42.5t-10 -52.5zM85 202q-23 32 -36 70.5t-13 81.5t13 81.5t36 70.5l-49 49l60 59l49 -48
q32 23 70 35.5t81 12.5t81 -12.5t70 -35.5l49 48l60 -59l-49 -49q49 -67 49 -152t-49 -152l49 -49l-60 -59l-49 48q-32 -23 -70 -35.5t-81 -12.5t-81 12.5t-70 35.5l-49 -48l-60 59z" />
    <glyph glyph-name="yen" unicode="&#xa5;" horiz-adv-x="592" 
d="M218 158h-169v96h169v48l-12 20h-157v96h100l-185 290h182l150 -264l150 264h182l-185 -290h100v-96h-157l-12 -20v-48h169v-96h-169v-158h-156v158z" />
    <glyph glyph-name="brokenbar" unicode="&#xa6;" horiz-adv-x="222" 
d="M174 476h-126v280h126v-280zM48 262h126v-280h-126v280z" />
    <glyph glyph-name="section" unicode="&#xa7;" horiz-adv-x="592" 
d="M374 192q34 20 34 61q0 14 -6 25.5t-15.5 20t-21 15t-22.5 11.5l-116 55q-35 -20 -35 -59q0 -18 7.5 -30.5t19 -22t25.5 -16.5t28 -13zM391 545q-11 29 -36.5 45t-55.5 16q-24 0 -44.5 -13t-20.5 -40q0 -25 23 -42t58 -32t75 -30.5t75 -37.5t58 -53.5t23 -76.5
q0 -42 -24 -77t-60 -53q26 -21 40.5 -52.5t14.5 -66.5q0 -49 -23.5 -84t-59.5 -57t-79.5 -32t-83.5 -10q-37 0 -72 6t-65 21t-54.5 39t-41.5 60l128 63q4 -18 15.5 -31t26.5 -21.5t32.5 -12.5t34.5 -4q12 0 26 2.5t26 8.5t20 16t8 25q0 24 -22.5 39.5t-55.5 30t-72.5 29.5
t-72.5 37.5t-55.5 55t-22.5 80.5q0 51 22.5 86.5t64.5 61.5q-29 20 -46 49.5t-17 65.5q0 44 19.5 76t50.5 53t69 31t76 10q32 0 65 -5t63.5 -18t55.5 -34t40 -52z" />
    <glyph glyph-name="dieresis" unicode="&#xa8;" 
d="M233 558q-18 0 -33 7t-26 19t-17.5 27.5t-6.5 32.5q0 16 6.5 31t17.5 26t25.5 18t31.5 7q35 0 61 -23t26 -59t-24 -61t-61 -25zM25 558q-18 0 -33 7t-26 19t-17.5 27.5t-6.5 32.5q0 16 6.5 31t17.5 26t25.5 18t31.5 7q35 0 61 -23t26 -59t-24 -61t-61 -25z" />
    <glyph glyph-name="copyright" unicode="&#xa9;" horiz-adv-x="800" 
d="M130 354q0 -58 21 -109.5t58 -89.5t86 -60.5t105 -22.5t105 22.5t86 60.5t58 89.5t21 109.5t-21 109.5t-58 89.5t-86 60.5t-105 22.5t-105 -22.5t-86 -60.5t-58 -89.5t-21 -109.5zM28 354q0 77 29.5 144.5t80 118t118 80t144.5 29.5t144.5 -29.5t118 -80t80 -118
t29.5 -144.5t-29.5 -144.5t-80 -118t-118 -80t-144.5 -29.5t-144.5 29.5t-118 80t-80 118t-29.5 144.5zM588 300q-5 -39 -21.5 -68t-40.5 -49t-53.5 -30t-62.5 -10q-47 0 -84 16.5t-62.5 45.5t-39 68t-13.5 84q0 46 13 84.5t37.5 66.5t61.5 43.5t85 15.5q34 0 64 -9
t54 -27.5t40 -46.5t22 -65h-94q-7 32 -29 45t-49 13q-49 0 -73 -32t-24 -86q0 -56 25.5 -91t69.5 -35q32 0 55 15t25 52h94z" />
    <glyph glyph-name="ordfeminine" unicode="&#xaa;" horiz-adv-x="349" 
d="M236 559h-18q-11 0 -27 -1t-30.5 -5t-25 -12.5t-10.5 -22.5q0 -17 13.5 -22t29.5 -5q29 0 48.5 16t19.5 33v19zM230 468h-2q-11 -23 -37 -33t-56 -10q-22 0 -42.5 5.5t-36 17t-24.5 28t-9 38.5q0 38 22 59t53.5 31.5t67.5 12.5t64 2q0 18 -15 32.5t-41 14.5
q-24 0 -43.5 -10t-35.5 -26l-52 49q27 23 64 35t75 12q43 0 70.5 -10t44 -28.5t23 -46t6.5 -62.5v-148h-96v37z" />
    <glyph glyph-name="guillemotleft" unicode="&#xab;" horiz-adv-x="538" 
d="M394 249l116 -173l-91 -61l-159 234l159 234l91 -61zM152 249l116 -173l-91 -61l-159 234l159 234l91 -61z" />
    <glyph glyph-name="logicalnot" unicode="&#xac;" horiz-adv-x="666" 
d="M481 336h-422v126h548v-320h-126v194z" />
    <glyph glyph-name="registered" unicode="&#xae;" horiz-adv-x="800" 
d="M130 354q0 -58 21 -109.5t58 -89.5t86 -60.5t105 -22.5t105 22.5t86 60.5t58 89.5t21 109.5t-21 109.5t-58 89.5t-86 60.5t-105 22.5t-105 -22.5t-86 -60.5t-58 -89.5t-21 -109.5zM28 354q0 77 29.5 144.5t80 118t118 80t144.5 29.5t144.5 -29.5t118 -80t80 -118
t29.5 -144.5t-29.5 -144.5t-80 -118t-118 -80t-144.5 -29.5t-144.5 29.5t-118 80t-80 118t-29.5 144.5zM358 391h41q9 0 19.5 1t19.5 5t15 12.5t6 23.5t-6 23.5t-15 12.5t-19.5 5t-19.5 1h-41v-84zM257 553h138q16 0 44 -2t55 -14t47 -37.5t20 -72.5q0 -30 -8 -49.5
t-20.5 -32t-29 -19t-33.5 -8.5l100 -155h-105l-89 150h-17v-150h-102v390z" />
    <glyph glyph-name="macron" unicode="&#xaf;" 
d="M300 591h-340v96h340v-96z" />
    <glyph glyph-name="macron" unicode="&#x2c9;" 
d="M300 591h-340v96h340v-96z" />
    <glyph glyph-name="degree" unicode="&#xb0;" horiz-adv-x="400" 
d="M200 376q-36 0 -67 13.5t-54.5 37t-37 54.5t-13.5 67t13.5 67t37 54.5t54.5 37t67 13.5t67 -13.5t54.5 -37t37 -54.5t13.5 -67t-13.5 -67t-37 -54.5t-54.5 -37t-67 -13.5zM200 460q37 0 62.5 25.5t25.5 62.5t-25.5 62.5t-62.5 25.5t-62.5 -25.5t-25.5 -62.5t25.5 -62.5
t62.5 -25.5z" />
    <glyph glyph-name="plusminus" unicode="&#xb1;" horiz-adv-x="666" 
d="M59 155h548v-126h-548v126zM59 449h211v128h126v-128h211v-126h-211v-128h-126v128h-211v126z" />
    <glyph glyph-name="twosuperior" unicode="&#xb2;" horiz-adv-x="385" 
d="M24 378l186 158q14 12 28.5 26t14.5 29q0 21 -18 30t-41 9q-29 0 -46.5 -15.5t-19.5 -38.5l-102 6q5 71 53 104.5t120 33.5q35 0 64.5 -8t51.5 -23t34 -37.5t12 -51.5q0 -26 -4 -43t-12 -30t-19 -23t-26 -21l-140 -108v-2h201v-84h-337v89z" />
    <glyph glyph-name="threesuperior" unicode="&#xb3;" horiz-adv-x="385" 
d="M143 552h34q14 0 27.5 1.5t24 6.5t16.5 14t6 23q0 16 -15 24.5t-41 8.5q-24 0 -41.5 -11.5t-22.5 -32.5l-110 20q17 64 64.5 89t109.5 25q32 0 62 -7t52.5 -21t36 -35.5t13.5 -50.5q0 -35 -21 -60.5t-62 -32.5v-2q44 -5 68 -34t24 -66q0 -32 -14 -56t-38 -40t-56 -24
t-68 -8q-66 0 -113 27t-62 91l109 22q5 -23 21 -36.5t45 -13.5t48.5 11t19.5 37q0 17 -8 26.5t-21 14t-29.5 5.5t-33.5 1h-25v84z" />
    <glyph glyph-name="acute" unicode="&#xb4;" 
d="M131 708h204l-173 -144h-132z" />
    <glyph glyph-name="mu" unicode="&#xb5;" horiz-adv-x="574" 
d="M521 0h-144v66h-2q-8 -14 -20.5 -28t-30.5 -25t-41 -18t-50 -7q-17 0 -30 3v-219h-150v714h150v-238q0 -21 1.5 -43.5t9 -41.5t23 -31t44.5 -12t47 10.5t27.5 28t12.5 39.5t3 46v242h150v-486z" />
    <glyph glyph-name="mu" unicode="&#x3bc;" horiz-adv-x="574" 
d="M521 0h-144v66h-2q-8 -14 -20.5 -28t-30.5 -25t-41 -18t-50 -7q-17 0 -30 3v-219h-150v714h150v-238q0 -21 1.5 -43.5t9 -41.5t23 -31t44.5 -12t47 10.5t27.5 28t12.5 39.5t3 46v242h150v-486z" />
    <glyph glyph-name="paragraph" unicode="&#xb6;" horiz-adv-x="620" 
d="M236 359q-109 0 -166 45t-57 126q0 54 19 88.5t52 54.5t78 27.5t97 7.5h302v-841h-108v745h-109v-745h-108v492z" />
    <glyph glyph-name="periodcentered" unicode="&#xb7;" horiz-adv-x="296" 
d="M56 283q0 19 7 36t19.5 29.5t29.5 19.5t36 7t36 -7t29.5 -19.5t19.5 -29.5t7 -36t-7 -36t-19.5 -29.5t-29.5 -19.5t-36 -7t-36 7t-29.5 19.5t-19.5 29.5t-7 36z" />
    <glyph glyph-name="periodcentered" unicode="&#x2219;" horiz-adv-x="296" 
d="M56 283q0 19 7 36t19.5 29.5t29.5 19.5t36 7t36 -7t29.5 -19.5t19.5 -29.5t7 -36t-7 -36t-19.5 -29.5t-29.5 -19.5t-36 -7t-36 7t-29.5 19.5t-19.5 29.5t-7 36z" />
    <glyph glyph-name="cedilla" unicode="&#xb8;" 
d="M127 -60q22 0 44.5 -2.5t40.5 -11t29.5 -25t11.5 -44.5q0 -27 -14.5 -46t-36 -30t-45.5 -16t-43 -5q-30 0 -64.5 8.5t-60.5 21.5l25 47q12 -5 31.5 -11t45.5 -6q12 0 23.5 1.5t21 5t15.5 9.5t6 16q0 18 -17.5 26t-32.5 8q-17 0 -36 -8l-32 29l62 93h67z" />
    <glyph glyph-name="onesuperior" unicode="&#xb9;" horiz-adv-x="385" 
d="M183 606l-89 -75l-58 66l159 117h96v-425h-108v317z" />
    <glyph glyph-name="ordmasculine" unicode="&#xba;" horiz-adv-x="397" 
d="M125 575q1 -27 20 -46.5t53 -19.5t54 19.5t20 46.5q0 28 -20 47.5t-54 19.5t-53.5 -19.5t-19.5 -47.5zM23 575q0 34 13.5 62t37 47.5t55.5 30.5t69 11t69 -11t56 -30.5t37.5 -47.5t13.5 -62q0 -36 -13.5 -63.5t-37.5 -47t-56 -29.5t-69 -10t-69 10t-55.5 29.5t-37 47
t-13.5 63.5z" />
    <glyph glyph-name="guillemotright" unicode="&#xbb;" horiz-adv-x="538" 
d="M144 249l-116 173l91 61l159 -234l-159 -234l-91 61zM386 249l-116 173l91 61l159 -234l-159 -234l-91 61z" />
    <glyph glyph-name="onequarter" unicode="&#xbc;" horiz-adv-x="889" 
d="M594 740l84 -47l-413 -725l-76 43zM155 606l-89 -75l-58 66l159 117h96v-425h-108v317zM716 305h-2l-99 -136h101v136zM716 85h-209v78l199 262h118v-256h57v-84h-57v-85h-108v85z" />
    <glyph glyph-name="onehalf" unicode="&#xbd;" horiz-adv-x="889" 
d="M594 740l84 -47l-413 -725l-76 43zM544 89l186 158q14 12 28.5 26t14.5 29q0 21 -18 30t-41 9q-29 0 -46.5 -15.5t-19.5 -38.5l-102 6q5 71 53 104.5t120 33.5q35 0 64.5 -8t51.5 -23t34 -37.5t12 -51.5q0 -26 -4 -43t-12 -30t-19 -23t-26 -21l-140 -108v-2h201v-84h-337
v89zM155 606l-89 -75l-58 66l159 117h96v-425h-108v317z" />
    <glyph glyph-name="threequarters" unicode="&#xbe;" horiz-adv-x="889" 
d="M618 740l84 -47l-413 -725l-76 43zM720 305h-2l-99 -136h101v136zM720 85h-209v78l199 262h118v-256h57v-84h-57v-85h-108v85zM130 552h34q14 0 27.5 1.5t24 6.5t16.5 14t6 23q0 16 -15 24.5t-41 8.5q-24 0 -41.5 -11.5t-22.5 -32.5l-109 20q8 32 24.5 53.5t39 35
t50.5 19.5t59 6q32 0 62 -7t52.5 -21t36 -35.5t13.5 -50.5q0 -35 -21 -60.5t-62 -32.5v-2q44 -5 68 -34t24 -66q0 -32 -14 -56t-38 -40t-56 -24t-68 -8q-66 0 -113 27t-62 91l109 22q5 -23 21 -36.5t45 -13.5t48.5 11t19.5 37q0 17 -8 26.5t-21 14t-29.5 5.5t-33.5 1h-25v84
z" />
    <glyph glyph-name="questiondown" unicode="&#xbf;" horiz-adv-x="556" 
d="M357 400q0 -19 -7 -36t-19.5 -29.5t-29.5 -19.5t-36 -7t-36 7t-29.5 19.5t-19.5 29.5t-7 36t7 36t19.5 29.5t29.5 19.5t36 7t36 -7t29.5 -19.5t19.5 -29.5t7 -36zM340 208q0 -30 -8 -51t-27 -39q-28 -27 -51.5 -47t-40.5 -37.5t-26.5 -33t-9.5 -32.5q0 -33 20.5 -51.5
t51.5 -18.5q47 0 71.5 26t27.5 63l154 -10q-11 -106 -78 -161.5t-172 -55.5q-46 0 -87 12.5t-71.5 37.5t-48.5 62t-18 85q0 28 6 52t20.5 47t38 46.5t59.5 51.5q23 18 31 35t8 34v29h150v-44z" />
    <glyph glyph-name="Agrave" unicode="&#xc0;" horiz-adv-x="741" 
d="M365 502l-86 -220h173zM305 708h129l308 -708h-176l-61 150h-275l-59 -150h-172zM473 759h-132l-173 144h204z" />
    <glyph glyph-name="Aacute" unicode="&#xc1;" horiz-adv-x="741" 
d="M365 502l-86 -220h173zM305 708h129l308 -708h-176l-61 150h-275l-59 -150h-172zM372 903h204l-173 -144h-132z" />
    <glyph glyph-name="Acircumflex" unicode="&#xc2;" horiz-adv-x="741" 
d="M365 502l-86 -220h173zM305 708h129l308 -708h-176l-61 150h-275l-59 -150h-172zM432 759l-63 78l-62 -78h-135l119 144h163l116 -144h-138z" />
    <glyph glyph-name="Atilde" unicode="&#xc3;" horiz-adv-x="741" 
d="M365 502l-86 -220h173zM305 708h129l308 -708h-176l-61 150h-275l-59 -150h-172zM175 765q4 25 14 50t25.5 44.5t37.5 31.5t50 12q25 0 45 -6t42 -15q14 -5 27.5 -10t28.5 -5q17 0 27 10.5t17 25.5h78q-5 -29 -14 -54t-24.5 -43.5t-38 -29.5t-53.5 -11q-22 0 -41.5 6.5
t-36.5 14.5t-32.5 14.5t-30.5 6.5q-17 0 -27 -14t-15 -28h-79z" />
    <glyph glyph-name="Adieresis" unicode="&#xc4;" horiz-adv-x="741" 
d="M365 502l-86 -220h173zM305 708h129l308 -708h-176l-61 150h-275l-59 -150h-172zM474 753q-18 0 -33 7t-26 19t-17.5 27.5t-6.5 32.5q0 16 6.5 31t17.5 26t25.5 18t31.5 7q35 0 61 -23t26 -59t-24 -61t-61 -25zM266 753q-18 0 -33 7t-26 19t-17.5 27.5t-6.5 32.5
q0 16 6.5 31t17.5 26t25.5 18t31.5 7q35 0 61 -23t26 -59t-24 -61t-61 -25z" />
    <glyph glyph-name="Aring" unicode="&#xc5;" horiz-adv-x="741" 
d="M365 502l-86 -220h173zM305 708h129l308 -708h-176l-61 150h-275l-59 -150h-172zM320 842q0 -21 15 -36t36 -15t36 15t15 36t-15 36t-36 15t-36 -15t-15 -36zM371 731q-23 0 -43 9t-35 24t-24 35t-9 43t9 43t24 35t35 24t43 9t43 -9t35 -24t24 -35t9 -43t-9 -43t-24 -35
t-35 -24t-43 -9z" />
    <glyph glyph-name="AE" unicode="&#xc6;" horiz-adv-x="1037" 
d="M534 564h-17l-179 -282h196v282zM534 150h-263l-95 -150h-191l449 708h538v-144h-282v-132h258v-144h-258v-144h294v-144h-450v150z" />
    <glyph glyph-name="Ccedilla" unicode="&#xc7;" horiz-adv-x="685" 
d="M535 524q-23 28 -56.5 43t-77.5 15t-81.5 -17t-65 -47.5t-43 -72.5t-15.5 -91q0 -50 15.5 -91.5t42.5 -72t63.5 -47.5t78.5 -17q48 0 85 20t61 56l130 -97q-45 -63 -114 -93t-142 -30q-83 0 -153 26t-121 74.5t-79.5 117.5t-28.5 154t28.5 154t79.5 117.5t121 74.5
t153 26q30 0 62.5 -5.5t64 -17.5t60.5 -32t52 -49zM368 -60q22 0 44.5 -2.5t40.5 -11t29.5 -25t11.5 -44.5q0 -27 -14.5 -46t-36 -30t-45.5 -16t-43 -5q-30 0 -64.5 8.5t-60.5 21.5l25 47q12 -5 31.5 -11t45.5 -6q12 0 23.5 1.5t21 5t15.5 9.5t6 16q0 18 -17.5 26t-32.5 8
q-17 0 -36 -8l-32 29l62 93h67z" />
    <glyph glyph-name="Egrave" unicode="&#xc8;" horiz-adv-x="630" 
d="M78 708h481v-144h-325v-132h307v-144h-307v-144h343v-144h-499v708zM417 759h-132l-173 144h204z" />
    <glyph glyph-name="Eacute" unicode="&#xc9;" horiz-adv-x="630" 
d="M78 708h481v-144h-325v-132h307v-144h-307v-144h343v-144h-499v708zM316 903h204l-173 -144h-132z" />
    <glyph glyph-name="Ecircumflex" unicode="&#xca;" horiz-adv-x="630" 
d="M78 708h481v-144h-325v-132h307v-144h-307v-144h343v-144h-499v708zM376 759l-63 78l-62 -78h-135l119 144h163l116 -144h-138z" />
    <glyph glyph-name="Edieresis" unicode="&#xcb;" horiz-adv-x="630" 
d="M78 708h481v-144h-325v-132h307v-144h-307v-144h343v-144h-499v708zM418 753q-18 0 -33 7t-26 19t-17.5 27.5t-6.5 32.5q0 16 6.5 31t17.5 26t25.5 18t31.5 7q35 0 61 -23t26 -59t-24 -61t-61 -25zM210 753q-18 0 -33 7t-26 19t-17.5 27.5t-6.5 32.5q0 16 6.5 31t17.5 26
t25.5 18t31.5 7q35 0 61 -23t26 -59t-24 -61t-61 -25z" />
    <glyph glyph-name="Igrave" unicode="&#xcc;" horiz-adv-x="296" 
d="M70 708h156v-708h-156v708zM250 759h-132l-173 144h204z" />
    <glyph glyph-name="Iacute" unicode="&#xcd;" horiz-adv-x="296" 
d="M70 708h156v-708h-156v708zM149 903h204l-173 -144h-132z" />
    <glyph glyph-name="Icircumflex" unicode="&#xce;" horiz-adv-x="296" 
d="M70 708h156v-708h-156v708zM209 759l-63 78l-62 -78h-135l119 144h163l116 -144h-138z" />
    <glyph glyph-name="Idieresis" unicode="&#xcf;" horiz-adv-x="296" 
d="M70 708h156v-708h-156v708zM251 753q-18 0 -33 7t-26 19t-17.5 27.5t-6.5 32.5q0 16 6.5 31t17.5 26t25.5 18t31.5 7q35 0 61 -23t26 -59t-24 -61t-61 -25zM43 753q-18 0 -33 7t-26 19t-17.5 27.5t-6.5 32.5q0 16 6.5 31t17.5 26t25.5 18t31.5 7q35 0 61 -23t26 -59
t-24 -61t-61 -25z" />
    <glyph glyph-name="Eth" unicode="&#xd0;" horiz-adv-x="759" 
d="M72 318h-60v102h60v288h234q85 0 161.5 -19t133.5 -61.5t90.5 -110.5t33.5 -165q0 -86 -32.5 -151.5t-87.5 -110t-127 -67.5t-151 -23h-255v318zM228 420h198v-102h-198v-174h81q54 0 100.5 11t80.5 36.5t53.5 67t19.5 101.5q0 52 -19.5 90.5t-52.5 63.5t-77.5 37.5
t-93.5 12.5h-92v-144z" />
    <glyph glyph-name="Ntilde" unicode="&#xd1;" horiz-adv-x="815" 
d="M72 708h212l301 -492h2v492h156v-708h-204l-309 504h-2v-504h-156v708zM212 765q4 25 14 50t25.5 44.5t37.5 31.5t50 12q25 0 45 -6t42 -15q14 -5 27.5 -10t28.5 -5q17 0 27 10.5t17 25.5h78q-5 -29 -14 -54t-24.5 -43.5t-38 -29.5t-53.5 -11q-22 0 -41.5 6.5t-36.5 14.5
t-32.5 14.5t-30.5 6.5q-17 0 -27 -14t-15 -28h-79z" />
    <glyph glyph-name="Ograve" unicode="&#xd2;" horiz-adv-x="832" 
d="M196 354q0 -50 15.5 -91.5t44.5 -72t69.5 -47.5t90.5 -17t90.5 17t69.5 47.5t44.5 72t15.5 91.5q0 49 -15.5 91t-44.5 72.5t-69.5 47.5t-90.5 17t-90.5 -17t-69.5 -47.5t-44.5 -72.5t-15.5 -91zM34 354q0 85 28.5 154t79.5 117.5t121 74.5t153 26t153 -26t121 -74.5
t79.5 -117.5t28.5 -154t-28.5 -154t-79.5 -117.5t-121 -74.5t-153 -26t-153 26t-121 74.5t-79.5 117.5t-28.5 154zM518 759h-132l-173 144h204z" />
    <glyph glyph-name="Oacute" unicode="&#xd3;" horiz-adv-x="832" 
d="M196 354q0 -50 15.5 -91.5t44.5 -72t69.5 -47.5t90.5 -17t90.5 17t69.5 47.5t44.5 72t15.5 91.5q0 49 -15.5 91t-44.5 72.5t-69.5 47.5t-90.5 17t-90.5 -17t-69.5 -47.5t-44.5 -72.5t-15.5 -91zM34 354q0 85 28.5 154t79.5 117.5t121 74.5t153 26t153 -26t121 -74.5
t79.5 -117.5t28.5 -154t-28.5 -154t-79.5 -117.5t-121 -74.5t-153 -26t-153 26t-121 74.5t-79.5 117.5t-28.5 154zM417 903h204l-173 -144h-132z" />
    <glyph glyph-name="Ocircumflex" unicode="&#xd4;" horiz-adv-x="832" 
d="M196 354q0 -50 15.5 -91.5t44.5 -72t69.5 -47.5t90.5 -17t90.5 17t69.5 47.5t44.5 72t15.5 91.5q0 49 -15.5 91t-44.5 72.5t-69.5 47.5t-90.5 17t-90.5 -17t-69.5 -47.5t-44.5 -72.5t-15.5 -91zM34 354q0 85 28.5 154t79.5 117.5t121 74.5t153 26t153 -26t121 -74.5
t79.5 -117.5t28.5 -154t-28.5 -154t-79.5 -117.5t-121 -74.5t-153 -26t-153 26t-121 74.5t-79.5 117.5t-28.5 154zM477 759l-63 78l-62 -78h-135l119 144h163l116 -144h-138z" />
    <glyph glyph-name="Otilde" unicode="&#xd5;" horiz-adv-x="832" 
d="M196 354q0 -50 15.5 -91.5t44.5 -72t69.5 -47.5t90.5 -17t90.5 17t69.5 47.5t44.5 72t15.5 91.5q0 49 -15.5 91t-44.5 72.5t-69.5 47.5t-90.5 17t-90.5 -17t-69.5 -47.5t-44.5 -72.5t-15.5 -91zM34 354q0 85 28.5 154t79.5 117.5t121 74.5t153 26t153 -26t121 -74.5
t79.5 -117.5t28.5 -154t-28.5 -154t-79.5 -117.5t-121 -74.5t-153 -26t-153 26t-121 74.5t-79.5 117.5t-28.5 154zM220 765q4 25 14 50t25.5 44.5t37.5 31.5t50 12q25 0 45 -6t42 -15q14 -5 27.5 -10t28.5 -5q17 0 27 10.5t17 25.5h78q-5 -29 -14 -54t-24.5 -43.5t-38 -29.5
t-53.5 -11q-22 0 -41.5 6.5t-36.5 14.5t-32.5 14.5t-30.5 6.5q-17 0 -27 -14t-15 -28h-79z" />
    <glyph glyph-name="Odieresis" unicode="&#xd6;" horiz-adv-x="832" 
d="M196 354q0 -50 15.5 -91.5t44.5 -72t69.5 -47.5t90.5 -17t90.5 17t69.5 47.5t44.5 72t15.5 91.5q0 49 -15.5 91t-44.5 72.5t-69.5 47.5t-90.5 17t-90.5 -17t-69.5 -47.5t-44.5 -72.5t-15.5 -91zM34 354q0 85 28.5 154t79.5 117.5t121 74.5t153 26t153 -26t121 -74.5
t79.5 -117.5t28.5 -154t-28.5 -154t-79.5 -117.5t-121 -74.5t-153 -26t-153 26t-121 74.5t-79.5 117.5t-28.5 154zM519 753q-18 0 -33 7t-26 19t-17.5 27.5t-6.5 32.5q0 16 6.5 31t17.5 26t25.5 18t31.5 7q35 0 61 -23t26 -59t-24 -61t-61 -25zM311 753q-18 0 -33 7t-26 19
t-17.5 27.5t-6.5 32.5q0 16 6.5 31t17.5 26t25.5 18t31.5 7q35 0 61 -23t26 -59t-24 -61t-61 -25z" />
    <glyph glyph-name="multiply" unicode="&#xd7;" horiz-adv-x="666" 
d="M157 570l177 -175l172 174l89 -86l-173 -180l180 -173l-92 -93l-176 176l-177 -177l-89 86l174 181l-178 172z" />
    <glyph glyph-name="Oslash" unicode="&#xd8;" horiz-adv-x="832" 
d="M287 164q26 -18 58.5 -28t70.5 -10q50 0 90.5 17t69.5 47.5t44.5 72t15.5 91.5q0 42 -11.5 78.5t-32.5 64.5zM539 548q-53 34 -123 34q-50 0 -90.5 -17t-69.5 -47.5t-44.5 -72.5t-15.5 -91q0 -78 39 -137zM127 99q-45 48 -69 112.5t-24 142.5q0 85 28.5 154t79.5 117.5
t121 74.5t153 26q131 0 227 -64l92 100l55 -49l-90 -98q47 -48 72.5 -114t25.5 -147q0 -85 -28.5 -154t-79.5 -117.5t-121 -74.5t-153 -26q-69 0 -128 18t-105 50l-93 -101l-56 48z" />
    <glyph glyph-name="Ugrave" unicode="&#xd9;" horiz-adv-x="741" 
d="M669 273q0 -63 -19 -116t-56.5 -92t-93.5 -61t-129 -22q-74 0 -130 22t-93.5 61t-56.5 92t-19 116v435h156v-429q0 -33 10.5 -61t29.5 -48.5t45.5 -32t57.5 -11.5t57 11.5t45 32t29.5 48.5t10.5 61v429h156v-435zM473 759h-132l-173 144h204z" />
    <glyph glyph-name="Uacute" unicode="&#xda;" horiz-adv-x="741" 
d="M669 273q0 -63 -19 -116t-56.5 -92t-93.5 -61t-129 -22q-74 0 -130 22t-93.5 61t-56.5 92t-19 116v435h156v-429q0 -33 10.5 -61t29.5 -48.5t45.5 -32t57.5 -11.5t57 11.5t45 32t29.5 48.5t10.5 61v429h156v-435zM372 903h204l-173 -144h-132z" />
    <glyph glyph-name="Ucircumflex" unicode="&#xdb;" horiz-adv-x="741" 
d="M669 273q0 -63 -19 -116t-56.5 -92t-93.5 -61t-129 -22q-74 0 -130 22t-93.5 61t-56.5 92t-19 116v435h156v-429q0 -33 10.5 -61t29.5 -48.5t45.5 -32t57.5 -11.5t57 11.5t45 32t29.5 48.5t10.5 61v429h156v-435zM432 759l-63 78l-62 -78h-135l119 144h163l116 -144h-138
z" />
    <glyph glyph-name="Udieresis" unicode="&#xdc;" horiz-adv-x="741" 
d="M669 273q0 -63 -19 -116t-56.5 -92t-93.5 -61t-129 -22q-74 0 -130 22t-93.5 61t-56.5 92t-19 116v435h156v-429q0 -33 10.5 -61t29.5 -48.5t45.5 -32t57.5 -11.5t57 11.5t45 32t29.5 48.5t10.5 61v429h156v-435zM474 753q-18 0 -33 7t-26 19t-17.5 27.5t-6.5 32.5
q0 16 6.5 31t17.5 26t25.5 18t31.5 7q35 0 61 -23t26 -59t-24 -61t-61 -25zM266 753q-18 0 -33 7t-26 19t-17.5 27.5t-6.5 32.5q0 16 6.5 31t17.5 26t25.5 18t31.5 7q35 0 61 -23t26 -59t-24 -61t-61 -25z" />
    <glyph glyph-name="Yacute" unicode="&#xdd;" horiz-adv-x="648" 
d="M246 302l-266 406h194l150 -265l159 265h185l-266 -406v-302h-156v302zM325 930h204l-173 -144h-132z" />
    <glyph glyph-name="Thorn" unicode="&#xde;" horiz-adv-x="630" 
d="M228 282h104q21 0 40.5 4t35 13.5t25 26t9.5 41.5q0 27 -12.5 43.5t-32 25.5t-43.5 11.5t-46 2.5h-80v-168zM72 708h156v-126h107q55 0 104 -10t85.5 -34.5t58 -66t21.5 -104.5q0 -62 -20 -104t-55 -67t-83 -35.5t-104 -10.5h-114v-150h-156v708z" />
    <glyph glyph-name="germandbls" unicode="&#xdf;" horiz-adv-x="630" 
d="M53 513q0 255 256 255q42 0 83.5 -10.5t74.5 -33t53 -57t20 -82.5q0 -58 -24 -98t-78 -62v-2q79 -16 117.5 -72t38.5 -134q0 -53 -18 -95.5t-49.5 -72t-75 -45.5t-95.5 -16q-47 0 -93 12v122q26 -8 49 -8q28 0 53 7t44 21.5t30 36.5t11 52q0 64 -39 93t-98 29h-20v126h12
q38 0 64.5 20t26.5 59q0 19 -7.5 33.5t-20.5 24.5t-29 15t-34 5q-46 0 -74 -26.5t-28 -71.5v-538h-150v513z" />
    <glyph glyph-name="agrave" unicode="&#xe0;" horiz-adv-x="537" 
d="M321 213q-17 0 -42.5 -1.5t-49 -8.5t-40 -21t-16.5 -39q0 -27 23 -40t48 -13q22 0 42.5 6t36.5 17t25.5 28t9.5 40v32h-37zM358 61h-2q-25 -39 -66.5 -56t-87.5 -17q-34 0 -65.5 9.5t-55.5 28.5t-38 47t-14 65q0 42 15.5 71t42 48t60.5 29.5t70.5 15.5t73 6t67.5 1
q0 40 -28.5 63.5t-67.5 23.5q-37 0 -67.5 -15.5t-54.5 -42.5l-80 82q42 39 98 58.5t116 19.5q66 0 108.5 -16.5t68 -48.5t35.5 -78.5t10 -107.5v-247h-138v61zM371 564h-132l-173 144h204z" />
    <glyph glyph-name="aacute" unicode="&#xe1;" horiz-adv-x="537" 
d="M321 213q-17 0 -42.5 -1.5t-49 -8.5t-40 -21t-16.5 -39q0 -27 23 -40t48 -13q22 0 42.5 6t36.5 17t25.5 28t9.5 40v32h-37zM358 61h-2q-25 -39 -66.5 -56t-87.5 -17q-34 0 -65.5 9.5t-55.5 28.5t-38 47t-14 65q0 42 15.5 71t42 48t60.5 29.5t70.5 15.5t73 6t67.5 1
q0 40 -28.5 63.5t-67.5 23.5q-37 0 -67.5 -15.5t-54.5 -42.5l-80 82q42 39 98 58.5t116 19.5q66 0 108.5 -16.5t68 -48.5t35.5 -78.5t10 -107.5v-247h-138v61zM270 708h204l-173 -144h-132z" />
    <glyph glyph-name="acircumflex" unicode="&#xe2;" horiz-adv-x="537" 
d="M321 213q-17 0 -42.5 -1.5t-49 -8.5t-40 -21t-16.5 -39q0 -27 23 -40t48 -13q22 0 42.5 6t36.5 17t25.5 28t9.5 40v32h-37zM358 61h-2q-25 -39 -66.5 -56t-87.5 -17q-34 0 -65.5 9.5t-55.5 28.5t-38 47t-14 65q0 42 15.5 71t42 48t60.5 29.5t70.5 15.5t73 6t67.5 1
q0 40 -28.5 63.5t-67.5 23.5q-37 0 -67.5 -15.5t-54.5 -42.5l-80 82q42 39 98 58.5t116 19.5q66 0 108.5 -16.5t68 -48.5t35.5 -78.5t10 -107.5v-247h-138v61zM330 564l-63 78l-62 -78h-135l119 144h163l116 -144h-138z" />
    <glyph glyph-name="atilde" unicode="&#xe3;" horiz-adv-x="537" 
d="M321 213q-17 0 -42.5 -1.5t-49 -8.5t-40 -21t-16.5 -39q0 -27 23 -40t48 -13q22 0 42.5 6t36.5 17t25.5 28t9.5 40v32h-37zM358 61h-2q-25 -39 -66.5 -56t-87.5 -17q-34 0 -65.5 9.5t-55.5 28.5t-38 47t-14 65q0 42 15.5 71t42 48t60.5 29.5t70.5 15.5t73 6t67.5 1
q0 40 -28.5 63.5t-67.5 23.5q-37 0 -67.5 -15.5t-54.5 -42.5l-80 82q42 39 98 58.5t116 19.5q66 0 108.5 -16.5t68 -48.5t35.5 -78.5t10 -107.5v-247h-138v61zM73 570q4 25 14 50t25.5 44.5t37.5 31.5t50 12q25 0 45 -6t42 -15q14 -5 27.5 -10t28.5 -5q17 0 27 10.5t17 25.5
h78q-5 -29 -14 -54t-24.5 -43.5t-38 -29.5t-53.5 -11q-22 0 -41.5 6.5t-36.5 14.5t-32.5 14.5t-30.5 6.5q-17 0 -27 -14t-15 -28h-79z" />
    <glyph glyph-name="adieresis" unicode="&#xe4;" horiz-adv-x="537" 
d="M321 213q-17 0 -42.5 -1.5t-49 -8.5t-40 -21t-16.5 -39q0 -27 23 -40t48 -13q22 0 42.5 6t36.5 17t25.5 28t9.5 40v32h-37zM358 61h-2q-25 -39 -66.5 -56t-87.5 -17q-34 0 -65.5 9.5t-55.5 28.5t-38 47t-14 65q0 42 15.5 71t42 48t60.5 29.5t70.5 15.5t73 6t67.5 1
q0 40 -28.5 63.5t-67.5 23.5q-37 0 -67.5 -15.5t-54.5 -42.5l-80 82q42 39 98 58.5t116 19.5q66 0 108.5 -16.5t68 -48.5t35.5 -78.5t10 -107.5v-247h-138v61zM372 558q-18 0 -33 7t-26 19t-17.5 27.5t-6.5 32.5q0 16 6.5 31t17.5 26t25.5 18t31.5 7q35 0 61 -23t26 -59
t-24 -61t-61 -25zM164 558q-18 0 -33 7t-26 19t-17.5 27.5t-6.5 32.5q0 16 6.5 31t17.5 26t25.5 18t31.5 7q35 0 61 -23t26 -59t-24 -61t-61 -25z" />
    <glyph glyph-name="aring" unicode="&#xe5;" horiz-adv-x="537" 
d="M321 213q-17 0 -42.5 -1.5t-49 -8.5t-40 -21t-16.5 -39q0 -27 23 -40t48 -13q22 0 42.5 6t36.5 17t25.5 28t9.5 40v32h-37zM358 61h-2q-25 -39 -66.5 -56t-87.5 -17q-34 0 -65.5 9.5t-55.5 28.5t-38 47t-14 65q0 42 15.5 71t42 48t60.5 29.5t70.5 15.5t73 6t67.5 1
q0 40 -28.5 63.5t-67.5 23.5q-37 0 -67.5 -15.5t-54.5 -42.5l-80 82q42 39 98 58.5t116 19.5q66 0 108.5 -16.5t68 -48.5t35.5 -78.5t10 -107.5v-247h-138v61zM218 656q0 -21 15 -36t36 -15t36 15t15 36t-15 36t-36 15t-36 -15t-15 -36zM269 545q-23 0 -43 9t-35 24t-24 35
t-9 43t9 43t24 35t35 24t43 9t43 -9t35 -24t24 -35t9 -43t-9 -43t-24 -35t-35 -24t-43 -9z" />
    <glyph glyph-name="ae" unicode="&#xe6;" horiz-adv-x="852" 
d="M673 298q1 38 -25 65t-67 27q-25 0 -44 -8t-32.5 -20.5t-21 -29t-8.5 -34.5h198zM173 139q0 -17 7.5 -26.5t18.5 -14.5t25 -6.5t26 -1.5q54 0 76.5 29t22.5 77h-18q-17 0 -44 -1t-52.5 -6t-43.5 -17t-18 -33zM60 420q42 39 98 58.5t116 19.5q43 0 84.5 -14t73.5 -45
q30 29 72.5 44t90.5 15q52 0 94.5 -18t72 -51.5t45.5 -80.5t16 -105v-47h-348q9 -43 39 -68.5t74 -25.5q37 0 62.5 16.5t44.5 42.5l105 -77q-36 -46 -91 -71t-114 -25q-60 0 -111 17t-83 62q-32 -44 -83.5 -61.5t-115.5 -17.5q-34 0 -65.5 9.5t-55.5 28.5t-38 47t-14 65
q0 39 15 66t39.5 45t56 27.5t65 14.5t66.5 6t60 1h18q0 44 -23 71t-64 27q-37 0 -67.5 -15.5t-54.5 -42.5z" />
    <glyph glyph-name="ccedilla" unicode="&#xe7;" horiz-adv-x="482" 
d="M382 329q-11 16 -31 26.5t-43 10.5q-57 0 -88.5 -34t-31.5 -89t31.5 -89t88.5 -34q25 0 43 11t31 26l99 -104q-35 -36 -82.5 -50.5t-90.5 -14.5q-56 0 -105.5 18t-86 51.5t-57.5 80.5t-21 105t21 105t57.5 80.5t86 51.5t105.5 18q43 0 90.5 -14.5t82.5 -50.5zM266 -60
q22 0 44.5 -2.5t40.5 -11t29.5 -25t11.5 -44.5q0 -27 -14.5 -46t-36 -30t-45.5 -16t-43 -5q-30 0 -64.5 8.5t-60.5 21.5l25 47q12 -5 31.5 -11t45.5 -6q12 0 23.5 1.5t21 5t15.5 9.5t6 16q0 18 -17.5 26t-32.5 8q-17 0 -36 -8l-32 29l62 93h67z" />
    <glyph glyph-name="egrave" unicode="&#xe8;" horiz-adv-x="574" 
d="M386 298q1 38 -25 65t-67 27q-25 0 -44 -8t-32.5 -20.5t-21 -29t-8.5 -34.5h198zM513 84q-36 -46 -91 -71t-114 -25q-56 0 -105.5 18t-86 51.5t-57.5 80.5t-21 105t21 105t57.5 80.5t86 51.5t105.5 18q52 0 94.5 -18t72 -51.5t45.5 -80.5t16 -105v-47h-348
q9 -43 39 -68.5t74 -25.5q37 0 62.5 16.5t44.5 42.5zM389 564h-132l-173 144h204z" />
    <glyph glyph-name="eacute" unicode="&#xe9;" horiz-adv-x="574" 
d="M386 298q1 38 -25 65t-67 27q-25 0 -44 -8t-32.5 -20.5t-21 -29t-8.5 -34.5h198zM513 84q-36 -46 -91 -71t-114 -25q-56 0 -105.5 18t-86 51.5t-57.5 80.5t-21 105t21 105t57.5 80.5t86 51.5t105.5 18q52 0 94.5 -18t72 -51.5t45.5 -80.5t16 -105v-47h-348
q9 -43 39 -68.5t74 -25.5q37 0 62.5 16.5t44.5 42.5zM288 708h204l-173 -144h-132z" />
    <glyph glyph-name="ecircumflex" unicode="&#xea;" horiz-adv-x="574" 
d="M386 298q1 38 -25 65t-67 27q-25 0 -44 -8t-32.5 -20.5t-21 -29t-8.5 -34.5h198zM513 84q-36 -46 -91 -71t-114 -25q-56 0 -105.5 18t-86 51.5t-57.5 80.5t-21 105t21 105t57.5 80.5t86 51.5t105.5 18q52 0 94.5 -18t72 -51.5t45.5 -80.5t16 -105v-47h-348
q9 -43 39 -68.5t74 -25.5q37 0 62.5 16.5t44.5 42.5zM348 564l-63 78l-62 -78h-135l119 144h163l116 -144h-138z" />
    <glyph glyph-name="edieresis" unicode="&#xeb;" horiz-adv-x="574" 
d="M386 298q1 38 -25 65t-67 27q-25 0 -44 -8t-32.5 -20.5t-21 -29t-8.5 -34.5h198zM513 84q-36 -46 -91 -71t-114 -25q-56 0 -105.5 18t-86 51.5t-57.5 80.5t-21 105t21 105t57.5 80.5t86 51.5t105.5 18q52 0 94.5 -18t72 -51.5t45.5 -80.5t16 -105v-47h-348
q9 -43 39 -68.5t74 -25.5q37 0 62.5 16.5t44.5 42.5zM390 558q-18 0 -33 7t-26 19t-17.5 27.5t-6.5 32.5q0 16 6.5 31t17.5 26t25.5 18t31.5 7q35 0 61 -23t26 -59t-24 -61t-61 -25zM182 558q-18 0 -33 7t-26 19t-17.5 27.5t-6.5 32.5q0 16 6.5 31t17.5 26t25.5 18t31.5 7
q35 0 61 -23t26 -59t-24 -61t-61 -25z" />
    <glyph glyph-name="igrave" unicode="&#xec;" 
d="M55 486h150v-486h-150v486zM232 564h-132l-173 144h204z" />
    <glyph glyph-name="iacute" unicode="&#xed;" 
d="M55 486h150v-486h-150v486zM131 708h204l-173 -144h-132z" />
    <glyph glyph-name="icircumflex" unicode="&#xee;" 
d="M55 486h150v-486h-150v486zM191 564l-63 78l-62 -78h-135l119 144h163l116 -144h-138z" />
    <glyph glyph-name="idieresis" unicode="&#xef;" 
d="M55 486h150v-486h-150v486zM233 558q-18 0 -33 7t-26 19t-17.5 27.5t-6.5 32.5q0 16 6.5 31t17.5 26t25.5 18t31.5 7q35 0 61 -23t26 -59t-24 -61t-61 -25zM25 558q-18 0 -33 7t-26 19t-17.5 27.5t-6.5 32.5q0 16 6.5 31t17.5 26t25.5 18t31.5 7q35 0 61 -23t26 -59
t-24 -61t-61 -25z" />
    <glyph glyph-name="eth" unicode="&#xf0;" horiz-adv-x="610" 
d="M185 243q0 -55 31.5 -89t88.5 -34t88.5 34t31.5 89t-31.5 89t-88.5 34t-88.5 -34t-31.5 -89zM526 710l-123 -51q24 -25 53.5 -60t56 -81.5t44.5 -104.5t18 -129q0 -68 -17.5 -123t-52 -93.5t-84.5 -59.5t-116 -20q-56 0 -105.5 18t-86 51.5t-57.5 80.5t-21 105t21.5 105
t56.5 80.5t79.5 51.5t90.5 18q26 0 52 -4.5t46 -21.5l2 2q-10 14 -24 31.5t-29 35.5t-30.5 34.5t-27.5 27.5l-106 -45l-72 68l108 46q-5 5 -13 12.5t-17.5 16t-19.5 16.5t-19 14l122 70q23 -17 42.5 -35t37.5 -37l114 48z" />
    <glyph glyph-name="ntilde" unicode="&#xf1;" horiz-adv-x="574" 
d="M53 486h144v-66h2q7 14 20 28t31 25t41 18t50 7q57 0 92 -17.5t54.5 -48.5t26.5 -73t7 -91v-268h-150v238q0 21 -1.5 43.5t-9 41.5t-23 31t-44.5 12t-47 -10.5t-27.5 -28t-12.5 -39.5t-3 -46v-242h-150v486zM91 570q4 25 14 50t25.5 44.5t37.5 31.5t50 12q25 0 45 -6
t42 -15q14 -5 27.5 -10t28.5 -5q17 0 27 10.5t17 25.5h78q-5 -29 -14 -54t-24.5 -43.5t-38 -29.5t-53.5 -11q-22 0 -41.5 6.5t-36.5 14.5t-32.5 14.5t-30.5 6.5q-17 0 -27 -14t-15 -28h-79z" />
    <glyph glyph-name="ograve" unicode="&#xf2;" horiz-adv-x="610" 
d="M185 243q0 -55 31.5 -89t88.5 -34t88.5 34t31.5 89t-31.5 89t-88.5 34t-88.5 -34t-31.5 -89zM35 243q0 58 21 105t57.5 80.5t86 51.5t105.5 18t105.5 -18t86 -51.5t57.5 -80.5t21 -105t-21 -105t-57.5 -80.5t-86 -51.5t-105.5 -18t-105.5 18t-86 51.5t-57.5 80.5t-21 105
zM407 564h-132l-173 144h204z" />
    <glyph glyph-name="oacute" unicode="&#xf3;" horiz-adv-x="610" 
d="M185 243q0 -55 31.5 -89t88.5 -34t88.5 34t31.5 89t-31.5 89t-88.5 34t-88.5 -34t-31.5 -89zM35 243q0 58 21 105t57.5 80.5t86 51.5t105.5 18t105.5 -18t86 -51.5t57.5 -80.5t21 -105t-21 -105t-57.5 -80.5t-86 -51.5t-105.5 -18t-105.5 18t-86 51.5t-57.5 80.5t-21 105
zM306 708h204l-173 -144h-132z" />
    <glyph glyph-name="ocircumflex" unicode="&#xf4;" horiz-adv-x="610" 
d="M185 243q0 -55 31.5 -89t88.5 -34t88.5 34t31.5 89t-31.5 89t-88.5 34t-88.5 -34t-31.5 -89zM35 243q0 58 21 105t57.5 80.5t86 51.5t105.5 18t105.5 -18t86 -51.5t57.5 -80.5t21 -105t-21 -105t-57.5 -80.5t-86 -51.5t-105.5 -18t-105.5 18t-86 51.5t-57.5 80.5t-21 105
zM366 564l-63 78l-62 -78h-135l119 144h163l116 -144h-138z" />
    <glyph glyph-name="otilde" unicode="&#xf5;" horiz-adv-x="610" 
d="M185 243q0 -55 31.5 -89t88.5 -34t88.5 34t31.5 89t-31.5 89t-88.5 34t-88.5 -34t-31.5 -89zM35 243q0 58 21 105t57.5 80.5t86 51.5t105.5 18t105.5 -18t86 -51.5t57.5 -80.5t21 -105t-21 -105t-57.5 -80.5t-86 -51.5t-105.5 -18t-105.5 18t-86 51.5t-57.5 80.5t-21 105
zM109 570q4 25 14 50t25.5 44.5t37.5 31.5t50 12q25 0 45 -6t42 -15q14 -5 27.5 -10t28.5 -5q17 0 27 10.5t17 25.5h78q-5 -29 -14 -54t-24.5 -43.5t-38 -29.5t-53.5 -11q-22 0 -41.5 6.5t-36.5 14.5t-32.5 14.5t-30.5 6.5q-17 0 -27 -14t-15 -28h-79z" />
    <glyph glyph-name="odieresis" unicode="&#xf6;" horiz-adv-x="610" 
d="M185 243q0 -55 31.5 -89t88.5 -34t88.5 34t31.5 89t-31.5 89t-88.5 34t-88.5 -34t-31.5 -89zM35 243q0 58 21 105t57.5 80.5t86 51.5t105.5 18t105.5 -18t86 -51.5t57.5 -80.5t21 -105t-21 -105t-57.5 -80.5t-86 -51.5t-105.5 -18t-105.5 18t-86 51.5t-57.5 80.5t-21 105
zM408 558q-18 0 -33 7t-26 19t-17.5 27.5t-6.5 32.5q0 16 6.5 31t17.5 26t25.5 18t31.5 7q35 0 61 -23t26 -59t-24 -61t-61 -25zM200 558q-18 0 -33 7t-26 19t-17.5 27.5t-6.5 32.5q0 16 6.5 31t17.5 26t25.5 18t31.5 7q35 0 61 -23t26 -59t-24 -61t-61 -25z" />
    <glyph glyph-name="divide" unicode="&#xf7;" horiz-adv-x="666" 
d="M247 492q0 18 7 33.5t18.5 27t27 18.5t33.5 7t33.5 -7t27 -18.5t18.5 -27t7 -33.5t-7 -33.5t-18.5 -27t-27 -18.5t-33.5 -7t-33.5 7t-27 18.5t-18.5 27t-7 33.5zM247 114q0 18 7 33.5t18.5 27t27 18.5t33.5 7t33.5 -7t27 -18.5t18.5 -27t7 -33.5t-7 -33.5t-18.5 -27
t-27 -18.5t-33.5 -7t-33.5 7t-27 18.5t-18.5 27t-7 33.5zM59 366h548v-126h-548v126z" />
    <glyph glyph-name="oslash" unicode="&#xf8;" horiz-adv-x="610" 
d="M246 134q26 -14 59 -14q57 0 88.5 34t31.5 89q0 31 -12 57zM370 350q-27 16 -65 16q-57 0 -88.5 -34t-31.5 -89q0 -36 15 -63zM96 76q-29 32 -45 74t-16 93q0 58 21 105t57.5 80.5t86 51.5t105.5 18q48 0 89.5 -13t75.5 -36l67 67l47 -45l-66 -66q27 -32 42 -73t15 -89
q0 -58 -21 -105t-57.5 -80.5t-86 -51.5t-105.5 -18q-90 0 -159 46l-73 -73l-47 45z" />
    <glyph glyph-name="ugrave" unicode="&#xf9;" horiz-adv-x="574" 
d="M521 0h-144v66h-2q-8 -14 -20.5 -28t-30.5 -25t-41 -18t-50 -7q-57 0 -92.5 17.5t-55 48.5t-26 73t-6.5 91v268h150v-238q0 -21 1.5 -43.5t9 -41.5t23 -31t44.5 -12t47 10.5t27.5 28t12.5 39.5t3 46v242h150v-486zM389 564h-132l-173 144h204z" />
    <glyph glyph-name="uacute" unicode="&#xfa;" horiz-adv-x="574" 
d="M521 0h-144v66h-2q-8 -14 -20.5 -28t-30.5 -25t-41 -18t-50 -7q-57 0 -92.5 17.5t-55 48.5t-26 73t-6.5 91v268h150v-238q0 -21 1.5 -43.5t9 -41.5t23 -31t44.5 -12t47 10.5t27.5 28t12.5 39.5t3 46v242h150v-486zM288 708h204l-173 -144h-132z" />
    <glyph glyph-name="ucircumflex" unicode="&#xfb;" horiz-adv-x="574" 
d="M521 0h-144v66h-2q-8 -14 -20.5 -28t-30.5 -25t-41 -18t-50 -7q-57 0 -92.5 17.5t-55 48.5t-26 73t-6.5 91v268h150v-238q0 -21 1.5 -43.5t9 -41.5t23 -31t44.5 -12t47 10.5t27.5 28t12.5 39.5t3 46v242h150v-486zM348 564l-63 78l-62 -78h-135l119 144h163l116 -144
h-138z" />
    <glyph glyph-name="udieresis" unicode="&#xfc;" horiz-adv-x="574" 
d="M521 0h-144v66h-2q-8 -14 -20.5 -28t-30.5 -25t-41 -18t-50 -7q-57 0 -92.5 17.5t-55 48.5t-26 73t-6.5 91v268h150v-238q0 -21 1.5 -43.5t9 -41.5t23 -31t44.5 -12t47 10.5t27.5 28t12.5 39.5t3 46v242h150v-486zM390 558q-18 0 -33 7t-26 19t-17.5 27.5t-6.5 32.5
q0 16 6.5 31t17.5 26t25.5 18t31.5 7q35 0 61 -23t26 -59t-24 -61t-61 -25zM182 558q-18 0 -33 7t-26 19t-17.5 27.5t-6.5 32.5q0 16 6.5 31t17.5 26t25.5 18t31.5 7q35 0 61 -23t26 -59t-24 -61t-61 -25z" />
    <glyph glyph-name="yacute" unicode="&#xfd;" horiz-adv-x="556" 
d="M333 -79q-15 -39 -29 -69t-35.5 -50.5t-54.5 -31t-87 -10.5q-58 0 -112 18l20 123q34 -15 70 -15q25 0 41 5.5t26.5 16t17.5 25.5t15 35l11 28l-213 490h162l125 -321h2l107 321h154zM279 708h204l-173 -144h-132z" />
    <glyph glyph-name="thorn" unicode="&#xfe;" horiz-adv-x="630" 
d="M205 243q0 -55 31.5 -89t88.5 -34t88.5 34t31.5 89t-31.5 89t-88.5 34t-88.5 -34t-31.5 -89zM67 756h150v-322h2q9 15 23.5 26.5t33 20t39 13t41.5 4.5q54 0 98 -18.5t75.5 -52t48.5 -79.5t17 -101q0 -51 -15.5 -97.5t-44 -82.5t-69.5 -57.5t-93 -21.5q-47 0 -87.5 14.5
t-66.5 49.5h-2v-280h-150v984z" />
    <glyph glyph-name="ydieresis" unicode="&#xff;" horiz-adv-x="556" 
d="M333 -79q-15 -39 -29 -69t-35.5 -50.5t-54.5 -31t-87 -10.5q-58 0 -112 18l20 123q34 -15 70 -15q25 0 41 5.5t26.5 16t17.5 25.5t15 35l11 28l-213 490h162l125 -321h2l107 321h154zM381 558q-18 0 -33 7t-26 19t-17.5 27.5t-6.5 32.5q0 16 6.5 31t17.5 26t25.5 18
t31.5 7q35 0 61 -23t26 -59t-24 -61t-61 -25zM173 558q-18 0 -33 7t-26 19t-17.5 27.5t-6.5 32.5q0 16 6.5 31t17.5 26t25.5 18t31.5 7q35 0 61 -23t26 -59t-24 -61t-61 -25z" />
    <glyph glyph-name="dotlessi" unicode="&#x131;" 
d="M55 486h150v-486h-150v486z" />
    <glyph glyph-name="Lslash" unicode="&#x141;" horiz-adv-x="537" 
d="M78 160l-60 -52v132l60 52v416h156v-281l210 185v-130l-210 -184v-154h289v-144h-445v160z" />
    <glyph glyph-name="lslash" unicode="&#x142;" 
d="M55 248l-60 -61v129l60 61v379h150v-229l60 61v-129l-60 -61v-398h-150v248z" />
    <glyph glyph-name="OE" unicode="&#x152;" horiz-adv-x="1018" 
d="M509 564h-51q-58 0 -106 -13t-82.5 -39.5t-54 -66t-19.5 -91.5q0 -53 19.5 -92t54 -65.5t82.5 -39.5t106 -13h51v420zM665 432h264v-144h-264v-144h300v-144h-531q-71 0 -142.5 20.5t-128.5 63.5t-93 110t-36 160q0 86 30.5 152t83.5 111t124.5 68t153.5 23h527v-144
h-288v-132z" />
    <glyph glyph-name="oe" unicode="&#x153;" horiz-adv-x="944" 
d="M756 298q1 38 -25 65t-67 27q-25 0 -44 -8t-32.5 -20.5t-21 -29t-8.5 -34.5h198zM306 366q-57 0 -89 -34t-32 -89t32 -89t89 -34t88.5 34t31.5 89t-31.5 89t-88.5 34zM883 84q-36 -46 -91 -71t-114 -25q-63 0 -109 15.5t-81 53.5q-38 -39 -84.5 -54t-97.5 -15
q-57 0 -106 18t-86 51.5t-58 80.5t-21 105t21 105t58 80.5t86 51.5t106 18q54 0 100 -18t82 -55q32 34 78 53.5t112 19.5q52 0 94.5 -18t72 -51.5t45.5 -80.5t16 -105v-47h-348q9 -43 39 -68.5t74 -25.5q37 0 62.5 16.5t44.5 42.5z" />
    <glyph glyph-name="Scaron" unicode="&#x160;" horiz-adv-x="574" 
d="M422 535q-19 24 -51.5 35.5t-61.5 11.5q-17 0 -35 -4t-34 -12.5t-26 -22.5t-10 -34q0 -32 24 -49t60.5 -29t78.5 -24t78.5 -34t60.5 -59t24 -99q0 -59 -22 -103t-59.5 -73t-87 -43t-104.5 -14q-69 0 -128 21t-110 68l111 122q24 -32 60.5 -49.5t75.5 -17.5q19 0 38.5 4.5
t35 13.5t25 23t9.5 33q0 32 -24.5 50.5t-61.5 31.5t-80 26t-80 35t-61.5 58t-24.5 95q0 57 22.5 100t60 72t86.5 43.5t101 14.5q60 0 116 -17t101 -57zM222 930l63 -78l62 78h135l-119 -144h-163l-116 144h138z" />
    <glyph glyph-name="scaron" unicode="&#x161;" horiz-adv-x="463" 
d="M328 343q-33 41 -87 41q-19 0 -37 -9t-18 -31q0 -18 18.5 -26.5t47 -15t61 -14t61 -23.5t47 -43.5t18.5 -73.5q0 -47 -20.5 -77.5t-52.5 -49t-72 -26t-79 -7.5q-51 0 -103 14.5t-88 51.5l91 101q21 -26 46.5 -39.5t59.5 -13.5q26 0 47 7.5t21 27.5q0 19 -18.5 28.5
t-47 16t-61 14t-61 22.5t-47 42.5t-18.5 73.5q0 43 17.5 74t46 51t65.5 29.5t75 9.5q48 0 97 -14t83 -50zM167 708l63 -78l62 78h135l-119 -144h-163l-116 144h138z" />
    <glyph glyph-name="Ydieresis" unicode="&#x178;" horiz-adv-x="648" 
d="M246 302l-266 406h194l150 -265l159 265h185l-266 -406v-302h-156v302zM427 780q-18 0 -33 7t-26 19t-17.5 27.5t-6.5 32.5q0 16 6.5 31t17.5 26t25.5 18t31.5 7q35 0 61 -23t26 -59t-24 -61t-61 -25zM219 780q-18 0 -33 7t-26 19t-17.5 27.5t-6.5 32.5q0 16 6.5 31
t17.5 26t25.5 18t31.5 7q35 0 61 -23t26 -59t-24 -61t-61 -25z" />
    <glyph glyph-name="florin" unicode="&#x192;" horiz-adv-x="592" 
d="M496 332h-146l-58 -292q-8 -41 -23 -74t-39 -56.5t-58 -36t-81 -12.5q-28 0 -56.5 6.5t-54.5 17.5l52 119q11 -6 22.5 -8.5t23.5 -2.5q32 0 48 21.5t27 73.5l50 244h-114v102h134l18 91q11 55 26 92.5t38 60.5t55.5 32.5t78.5 9.5q35 0 66.5 -7.5t63.5 -22.5l-53 -113
q-25 11 -52 11q-36 0 -53 -19.5t-26 -63.5l-15 -71h126v-102z" />
    <glyph glyph-name="circumflex" unicode="&#x2c6;" 
d="M191 564l-63 78l-62 -78h-135l119 144h163l116 -144h-138z" />
    <glyph glyph-name="caron" unicode="&#x2c7;" 
d="M65 708l63 -78l62 78h135l-119 -144h-163l-116 144h138z" />
    <glyph glyph-name="breve" unicode="&#x2d8;" 
d="M26 708q3 -15 13.5 -24t25 -14.5t31.5 -7.5t34 -2q39 0 66.5 7.5t38.5 40.5h79q-4 -38 -20 -65.5t-40.5 -45t-56 -25.5t-67.5 -8t-68 7.5t-57 25t-41 45t-18 66.5h80z" />
    <glyph glyph-name="dotaccent" unicode="&#x2d9;" 
d="M129 558q-18 0 -33 7t-26 19t-17.5 27.5t-6.5 32.5q0 16 6.5 31t17.5 26t25.5 18t31.5 7q35 0 61 -23t26 -59t-24 -61t-61 -25z" />
    <glyph glyph-name="ring" unicode="&#x2da;" 
d="M79 656q0 -21 15 -36t36 -15t36 15t15 36t-15 36t-36 15t-36 -15t-15 -36zM130 545q-23 0 -43 9t-35 24t-24 35t-9 43t9 43t24 35t35 24t43 9t43 -9t35 -24t24 -35t9 -43t-9 -43t-24 -35t-35 -24t-43 -9z" />
    <glyph glyph-name="ogonek" unicode="&#x2db;" 
d="M205 -198q-25 -19 -51 -30.5t-58 -11.5q-21 0 -40 6t-33.5 18t-23 29.5t-8.5 39.5t10 44.5t26 44t34 39.5t35 31h68q-12 -11 -26.5 -26.5t-27 -34t-21 -37.5t-8.5 -36t12 -31.5t30 -14.5q14 0 28.5 7t25.5 16z" />
    <glyph glyph-name="tilde" unicode="&#x2dc;" 
d="M-66 570q4 25 14 50t25.5 44.5t37.5 31.5t50 12q25 0 45 -6t42 -15q14 -5 27.5 -10t28.5 -5q17 0 27 10.5t17 25.5h78q-5 -29 -14 -54t-24.5 -43.5t-38 -29.5t-53.5 -11q-22 0 -41.5 6.5t-36.5 14.5t-32.5 14.5t-30.5 6.5q-17 0 -27 -14t-15 -28h-79z" />
    <glyph glyph-name="hungarumlaut" unicode="&#x2dd;" 
d="M263 708h204l-173 -144h-132zM-1 708h204l-173 -144h-132z" />
    <glyph glyph-name="endash" unicode="&#x2013;" horiz-adv-x="500" 
d="M0 309h500v-120h-500v120z" />
    <glyph glyph-name="emdash" unicode="&#x2014;" horiz-adv-x="1000" 
d="M0 309h1000v-120h-1000v120z" />
    <glyph glyph-name="quoteleft" unicode="&#x2018;" horiz-adv-x="296" 
d="M129 708h128l-74 -282h-144z" />
    <glyph glyph-name="quoteright" unicode="&#x2019;" horiz-adv-x="296" 
d="M167 426h-128l74 282h144z" />
    <glyph glyph-name="quotesinglbase" unicode="&#x201a;" horiz-adv-x="296" 
d="M167 -126h-128l74 282h144z" />
    <glyph glyph-name="quotedblleft" unicode="&#x201c;" horiz-adv-x="520" 
d="M348 708h128l-74 -282h-144zM134 708h128l-74 -282h-144z" />
    <glyph glyph-name="quotedblright" unicode="&#x201d;" horiz-adv-x="520" 
d="M172 426h-128l74 282h144zM386 426h-128l74 282h144z" />
    <glyph glyph-name="quotedblbase" unicode="&#x201e;" horiz-adv-x="520" 
d="M172 -126h-128l74 282h144zM386 -126h-128l74 282h144z" />
    <glyph glyph-name="dagger" unicode="&#x2020;" horiz-adv-x="592" 
d="M224 372h-190v126h190v210h138v-210h196v-126h-196v-505h-138v505z" />
    <glyph glyph-name="daggerdbl" unicode="&#x2021;" horiz-adv-x="592" 
d="M227 47h-193v120h193v241h-193v120h193v180h138v-180h193v-120h-193v-241h193v-120h-193v-180h-138v180z" />
    <glyph glyph-name="bullet" unicode="&#x2022;" horiz-adv-x="500" 
d="M73 354q0 37 14 69t38 56t56 38t69 14t69 -14t56 -38t38 -56t14 -69t-14 -69t-38 -56t-56 -38t-69 -14t-69 14t-56 38t-38 56t-14 69z" />
    <glyph glyph-name="ellipsis" unicode="&#x2026;" horiz-adv-x="1000" 
d="M741 86q0 19 7 36t19.5 29.5t29.5 19.5t36 7t36 -7t29.5 -19.5t19.5 -29.5t7 -36t-7 -36t-19.5 -29.5t-29.5 -19.5t-36 -7t-36 7t-29.5 19.5t-19.5 29.5t-7 36zM408 86q0 19 7 36t19.5 29.5t29.5 19.5t36 7t36 -7t29.5 -19.5t19.5 -29.5t7 -36t-7 -36t-19.5 -29.5
t-29.5 -19.5t-36 -7t-36 7t-29.5 19.5t-19.5 29.5t-7 36zM75 86q0 19 7 36t19.5 29.5t29.5 19.5t36 7t36 -7t29.5 -19.5t19.5 -29.5t7 -36t-7 -36t-19.5 -29.5t-29.5 -19.5t-36 -7t-36 7t-29.5 19.5t-19.5 29.5t-7 36z" />
    <glyph glyph-name="perthousand" unicode="&#x2030;" horiz-adv-x="1167" 
d="M552 740l84 -47l-413 -725l-76 43zM878 165q0 -33 23.5 -57t56.5 -24t57 24t24 57t-24 56.5t-57 23.5t-56.5 -23.5t-23.5 -56.5zM491 165q0 -33 23.5 -57t56.5 -24t56.5 24t23.5 57t-23.5 56.5t-56.5 23.5t-56.5 -23.5t-23.5 -56.5zM128 544q0 -33 23.5 -57t56.5 -24
t57 24t24 57t-24 56.5t-57 23.5t-56.5 -23.5t-23.5 -56.5zM32 544q0 36 13.5 68t37.5 56t56 38t69 14q36 0 68.5 -14t56.5 -38t38 -56t14 -68t-14 -68.5t-38 -56.5t-56.5 -38t-68.5 -14q-37 0 -69 14t-56 38t-37.5 56.5t-13.5 68.5zM782 165q0 36 14 68t38 56t56 38t68 14
t68.5 -14t56.5 -38t38 -56t14 -68t-14 -68.5t-38 -56.5t-56.5 -38t-68.5 -14t-68 14t-56 38t-38 56.5t-14 68.5zM395 165q0 36 13.5 68t37.5 56t56 38t69 14q36 0 68 -14t56 -38t38 -56t14 -68t-14 -68.5t-38 -56.5t-56 -38t-68 -14q-37 0 -69 14t-56 38t-37.5 56.5
t-13.5 68.5z" />
    <glyph glyph-name="guilsinglleft" unicode="&#x2039;" horiz-adv-x="296" 
d="M152 249l116 -173l-91 -61l-159 234l159 234l91 -61z" />
    <glyph glyph-name="guilsinglright" unicode="&#x203a;" horiz-adv-x="296" 
d="M144 249l-116 173l91 61l159 -234l-159 -234l-91 61z" />
    <glyph glyph-name="trademark" unicode="&#x2122;" horiz-adv-x="1000" 
d="M474 708h145l98 -268l98 268h145v-412h-108v268h-2l-98 -268h-70l-98 268h-2v-268h-108v412zM159 612h-119v96h346v-96h-119v-316h-108v316z" />
    <glyph glyph-name="minus" unicode="&#x2212;" horiz-adv-x="666" 
d="M59 366h548v-126h-548v126z" />
    <glyph glyph-name="fraction" unicode="&#x2215;" horiz-adv-x="167" 
d="M244 740l84 -47l-413 -725l-76 43z" />
    <glyph glyph-name="fi" unicode="&#xfb01;" horiz-adv-x="630" 
d="M105 366h-99v120h99v86q0 40 7 75.5t27 62.5t57.5 42.5t98.5 15.5q23 0 45 -2t43 -7l-7 -127q-13 5 -24 7.5t-25 2.5q-36 0 -54 -15.5t-18 -63.5v-77h111v-120h-111v-366h-150v366zM413 639q0 36 25.5 61.5t61.5 25.5t61.5 -25.5t25.5 -61.5t-25.5 -61.5t-61.5 -25.5
t-61.5 25.5t-25.5 61.5zM425 486h150v-486h-150v486z" />
    <glyph glyph-name="fl" unicode="&#xfb02;" horiz-adv-x="630" 
d="M105 366h-99v120h99v86q0 40 7 75.5t27 62.5t57.5 42.5t98.5 15.5q23 0 45 -2t43 -7l-7 -127q-13 5 -24 7.5t-25 2.5q-36 0 -54 -15.5t-18 -63.5v-77h111v-120h-111v-366h-150v366zM425 756h150v-756h-150v756z" />
    <glyph glyph-name="nonbreakingspace" horiz-adv-x="296" 
 />
    <hkern u1="A" u2="&#x2019;" k="74" />
    <hkern u1="A" u2="y" k="25" />
    <hkern u1="A" u2="w" k="25" />
    <hkern u1="A" u2="v" k="37" />
    <hkern u1="A" u2="Y" k="92" />
    <hkern u1="A" u2="W" k="25" />
    <hkern u1="A" u2="V" k="62" />
    <hkern u1="A" u2="T" k="92" />
    <hkern u1="F" u2="A" k="55" />
    <hkern u1="F" u2="&#x2e;" k="129" />
    <hkern u1="F" u2="&#x2c;" k="129" />
    <hkern u1="L" u2="&#x2019;" k="74" />
    <hkern u1="L" u2="y" k="37" />
    <hkern u1="L" u2="Y" k="111" />
    <hkern u1="L" u2="W" k="55" />
    <hkern u1="L" u2="V" k="92" />
    <hkern u1="L" u2="T" k="92" />
    <hkern u1="P" u2="A" k="92" />
    <hkern u1="P" u2="&#x2e;" k="169" />
    <hkern u1="P" u2="&#x2c;" k="169" />
    <hkern u1="R" u2="Y" k="18" />
    <hkern u1="R" u2="T" k="18" />
    <hkern u1="T" u2="y" k="111" />
    <hkern u1="T" u2="w" k="111" />
    <hkern u1="T" u2="u" k="92" />
    <hkern u1="T" u2="s" k="111" />
    <hkern u1="T" u2="r" k="92" />
    <hkern u1="T" u2="o" k="111" />
    <hkern u1="T" u2="e" k="111" />
    <hkern u1="T" u2="c" k="111" />
    <hkern u1="T" u2="a" k="100" />
    <hkern u1="T" u2="A" k="92" />
    <hkern u1="T" u2="&#x3b;" k="83" />
    <hkern u1="T" u2="&#x3a;" k="83" />
    <hkern u1="T" u2="&#x2e;" k="111" />
    <hkern u1="T" u2="&#x2d;" k="129" />
    <hkern u1="T" u2="&#x2c;" k="111" />
    <hkern u1="V" u2="y" k="18" />
    <hkern u1="V" u2="u" k="37" />
    <hkern u1="V" u2="r" k="37" />
    <hkern u1="V" u2="o" k="74" />
    <hkern u1="V" u2="i" k="-10" />
    <hkern u1="V" u2="e" k="74" />
    <hkern u1="V" u2="a" k="55" />
    <hkern u1="V" u2="A" k="62" />
    <hkern u1="V" u2="&#x3b;" k="46" />
    <hkern u1="V" u2="&#x3a;" k="46" />
    <hkern u1="V" u2="&#x2e;" k="129" />
    <hkern u1="V" u2="&#x2d;" k="55" />
    <hkern u1="V" u2="&#x2c;" k="129" />
    <hkern u1="W" u2="u" k="18" />
    <hkern u1="W" u2="r" k="18" />
    <hkern u1="W" u2="o" k="55" />
    <hkern u1="W" u2="e" k="55" />
    <hkern u1="W" u2="a" k="37" />
    <hkern u1="W" u2="A" k="25" />
    <hkern u1="W" u2="&#x3b;" k="18" />
    <hkern u1="W" u2="&#x3a;" k="18" />
    <hkern u1="W" u2="&#x2e;" k="92" />
    <hkern u1="W" u2="&#x2d;" k="28" />
    <hkern u1="W" u2="&#x2c;" k="92" />
    <hkern u1="Y" u2="v" k="55" />
    <hkern u1="Y" u2="u" k="86" />
    <hkern u1="Y" u2="q" k="104" />
    <hkern u1="Y" u2="p" k="86" />
    <hkern u1="Y" u2="o" k="111" />
    <hkern u1="Y" u2="i" k="9" />
    <hkern u1="Y" u2="e" k="111" />
    <hkern u1="Y" u2="a" k="111" />
    <hkern u1="Y" u2="A" k="92" />
    <hkern u1="Y" u2="&#x3b;" k="92" />
    <hkern u1="Y" u2="&#x3a;" k="92" />
    <hkern u1="Y" u2="&#x2e;" k="111" />
    <hkern u1="Y" u2="&#x2d;" k="111" />
    <hkern u1="Y" u2="&#x2c;" k="111" />
    <hkern u1="f" u2="&#x2019;" k="-18" />
    <hkern u1="f" u2="f" k="18" />
    <hkern u1="r" u2="q" k="18" />
    <hkern u1="r" u2="o" k="18" />
    <hkern u1="r" u2="n" k="-18" />
    <hkern u1="r" u2="e" k="18" />
    <hkern u1="r" u2="d" k="18" />
    <hkern u1="r" u2="c" k="18" />
    <hkern u1="r" u2="&#x2e;" k="92" />
    <hkern u1="r" u2="&#x2d;" k="55" />
    <hkern u1="r" u2="&#x2c;" k="92" />
    <hkern u1="v" u2="&#x2e;" k="74" />
    <hkern u1="v" u2="&#x2c;" k="92" />
    <hkern u1="w" u2="&#x2e;" k="74" />
    <hkern u1="w" u2="&#x2c;" k="74" />
    <hkern u1="y" u2="&#x2e;" k="92" />
    <hkern u1="y" u2="&#x2c;" k="92" />
    <hkern u1="&#x2018;" u2="&#x2018;" k="79" />
    <hkern u1="&#x2019;" u2="&#x2019;" k="79" />
    <hkern u1="&#x2019;" u2="t" k="18" />
    <hkern u1="&#x2019;" u2="s" k="74" />
  </font>
</defs></svg>
