<?xml version="1.0" standalone="no"?>
<!DOCTYPE svg PUBLIC "-//W3C//DTD SVG 1.1//EN" "http://www.w3.org/Graphics/SVG/1.1/DTD/svg11.dtd" >
<svg xmlns="http://www.w3.org/2000/svg" xmlns:xlink="http://www.w3.org/1999/xlink" version="1.1">
<metadata>
Created by FontForge 20161013 at Fri Nov  9 14:36:10 2001
 By ,,,
Copyright (c) 1989, 1995 Adobe Systems Incorporated.  All Rights Reserved.Avenir is a trademark of Linotype-Hell AG and/or its subsidiaries.
</metadata>
<defs>
<font id="Avenir-Roman" horiz-adv-x="556" >
  <font-face 
    font-family="Avenir 55 Roman"
    font-weight="400"
    font-stretch="normal"
    units-per-em="1000"
    panose-1="2 0 5 3 4 0 0 2 0 3"
    ascent="800"
    descent="-200"
    x-height="468"
    cap-height="708"
    bbox="-166 -250 1000 928"
    underline-thickness="50"
    underline-position="-175"
    unicode-range="U+0020-FB02"
  />
<missing-glyph horiz-adv-x="278" 
 />
    <glyph glyph-name=".notdef" horiz-adv-x="278" 
 />
    <glyph glyph-name=".null" horiz-adv-x="0" 
 />
    <glyph glyph-name="nonmarkingreturn" horiz-adv-x="333" 
 />
    <glyph glyph-name="space" unicode=" " horiz-adv-x="278" 
 />
    <glyph glyph-name="space" unicode="&#xa0;" horiz-adv-x="278" 
 />
    <glyph glyph-name="exclam" unicode="!" horiz-adv-x="278" 
d="M139 114q25 0 42.5 -17.5t17.5 -42.5t-18.5 -42.5t-41.5 -17.5t-41.5 17.5t-18.5 42.5t17.5 42.5t42.5 17.5zM181 198h-84v510h84v-510z" />
    <glyph glyph-name="quotedbl" unicode="&#x22;" horiz-adv-x="519" 
d="M297 708h72v-240h-72v240zM150 708h72v-240h-72v240z" />
    <glyph glyph-name="numbersign" unicode="#" 
d="M352 431h-126l-21 -152h126zM128 213h-98v66h108l20 152h-98v66h108l30 211h67l-30 -211h126l30 211h67l-30 -211h98v-66h-107l-21 -152h98v-66h-108l-30 -213h-67l30 213h-126l-30 -213h-67z" />
    <glyph glyph-name="dollar" unicode="$" 
d="M304 66q51 6 85.5 39t34.5 81q0 27 -10 47t-27 34t-38.5 23.5t-44.5 16.5v-241zM256 642q-49 -9 -78.5 -40.5t-29.5 -79.5q0 -26 8.5 -44t23 -31t34 -22.5t42.5 -18.5v236zM256 -12q-63 0 -119.5 21t-94.5 72l70 61q22 -34 61.5 -54t82.5 -22v254q-39 10 -75 26.5
t-63.5 40.5t-43.5 57.5t-16 78.5q0 42 16 77t43.5 60.5t63.5 41t75 18.5v66h48v-66q54 0 106.5 -20t87.5 -61l-66 -60q-23 30 -56 46.5t-72 16.5v-249q40 -13 78 -28t67.5 -37.5t47 -55.5t17.5 -82q0 -45 -17 -81t-45.5 -62t-66.5 -41t-81 -18v-71h-48v71z" />
    <glyph glyph-name="percent" unicode="%" horiz-adv-x="833" 
d="M614 740l55 -32l-444 -740l-55 32zM517 163q0 -21 8.5 -39.5t22.5 -33t32.5 -22.5t39.5 -8t39.5 8t32.5 22.5t22.5 33t8.5 39.5t-8.5 39.5t-22.5 33t-32.5 22.5t-39.5 8t-39.5 -8t-32.5 -22.5t-22.5 -33t-8.5 -39.5zM445 163q0 37 13.5 69t37 55.5t55.5 37t69 13.5
t69 -13.5t55.5 -37t37 -55.5t13.5 -69t-13.5 -69t-37 -55.5t-55.5 -37t-69 -13.5t-69 13.5t-55.5 37t-37 55.5t-13.5 69zM110 545q0 -21 8.5 -39.5t22.5 -33t32.5 -22.5t39.5 -8t39.5 8t32.5 22.5t22.5 33t8.5 39.5t-8.5 39.5t-22.5 33t-32.5 22.5t-39.5 8t-39.5 -8
t-32.5 -22.5t-22.5 -33t-8.5 -39.5zM38 545q0 37 13.5 69t37 55.5t55.5 37t69 13.5t69 -13.5t55.5 -37t37 -55.5t13.5 -69t-13.5 -69t-37 -55.5t-55.5 -37t-69 -13.5t-69 13.5t-55.5 37t-37 55.5t-13.5 69z" />
    <glyph glyph-name="ampersand" unicode="&#x26;" horiz-adv-x="722" 
d="M269 344q-23 -12 -45 -26.5t-40 -32.5t-29 -41t-11 -51q0 -29 11 -53t30 -42t44 -28t53 -10q27 0 50 8t42.5 21.5t37 31t34.5 37.5zM290 435q20 11 41 23t38 27t28 35t11 46q0 39 -26.5 61t-63.5 22q-42 0 -72 -25.5t-30 -69.5q0 -29 15.5 -51.5t33.5 -41.5zM497 102
q-43 -54 -92 -84t-120 -30q-45 0 -86 13.5t-71.5 39.5t-49 63.5t-18.5 85.5q0 37 12.5 68.5t34 57t50 45t60.5 34.5q-35 35 -60 74t-25 90q0 39 15 69.5t40 51t58 31t70 10.5q36 0 68 -10t56.5 -29.5t38.5 -49t14 -68.5q0 -33 -13.5 -60.5t-35 -49t-48 -39t-53.5 -31.5
l150 -159l95 159h95l-136 -218l162 -166h-115z" />
    <glyph glyph-name="quotesingle" unicode="'" horiz-adv-x="278" 
d="M103 708h72v-240h-72v240z" />
    <glyph glyph-name="parenleft" unicode="(" horiz-adv-x="278" 
d="M201 -156q-72 99 -109 214t-37 230q0 124 38.5 237t107.5 207l54 -40q-64 -88 -96 -191t-32 -213q0 -60 8 -112t24 -100.5t40 -95.5t56 -98z" />
    <glyph glyph-name="parenright" unicode=")" horiz-adv-x="278" 
d="M77 732q72 -99 109 -214t37 -230q0 -124 -38.5 -237t-107.5 -207l-54 40q64 88 96 191t32 213q0 60 -8 112t-24 100.5t-40 95.5t-56 98z" />
    <glyph glyph-name="asterisk" unicode="*" horiz-adv-x="444" 
d="M252 559l142 48l19 -58l-141 -48l89 -119l-49 -38l-90 123l-87 -123l-50 38l87 119l-141 48l19 58l142 -48v149h60v-149z" />
    <glyph glyph-name="plus" unicode="+" horiz-adv-x="666" 
d="M72 336h228v228h66v-228h228v-66h-228v-228h-66v228h-228v66z" />
    <glyph glyph-name="comma" unicode="," horiz-adv-x="278" 
d="M129 -138h-77l68 240h91z" />
    <glyph glyph-name="hyphen" unicode="-" horiz-adv-x="333" 
d="M44 276h245v-72h-245v72z" />
    <glyph glyph-name="hyphen" unicode="&#xad;" horiz-adv-x="333" 
d="M44 276h245v-72h-245v72z" />
    <glyph glyph-name="period" unicode="." horiz-adv-x="278" 
d="M139 114q25 0 42.5 -17.5t17.5 -42.5t-18.5 -42.5t-41.5 -17.5t-41.5 17.5t-18.5 42.5t17.5 42.5t42.5 17.5z" />
    <glyph glyph-name="slash" unicode="/" horiz-adv-x="370" 
d="M66 -43l-63 25l301 768l63 -24z" />
    <glyph glyph-name="zero" unicode="0" 
d="M122 354q0 -26 2 -58t7.5 -64.5t16 -63.5t28 -55t42.5 -38.5t60 -14.5t60 14.5t42.5 38.5t28 55t16 63.5t7.5 64.5t2 58t-2 58t-7.5 64.5t-16 63.5t-28 55t-42.5 38.5t-60 14.5t-60 -14.5t-42.5 -38.5t-28 -55t-16 -63.5t-7.5 -64.5t-2 -58zM38 354q0 60 10 125t37 118.5
t73.5 88t119.5 34.5t119.5 -34.5t73.5 -88t37 -118.5t10 -125t-10 -125t-37 -118.5t-73.5 -88t-119.5 -34.5t-119.5 34.5t-73.5 88t-37 118.5t-10 125z" />
    <glyph glyph-name="one" unicode="1" 
d="M360 0h-84v600h-2l-127 -107l-50 61l190 154h73v-708z" />
    <glyph glyph-name="two" unicode="2" 
d="M50 96l267 260q25 24 44 44.5t31.5 40t18.5 40.5t6 47q0 28 -10 50t-27.5 37.5t-41 24t-50.5 8.5q-54 0 -89 -31t-45 -82l-91 8q7 43 26.5 76.5t49 55.5t66.5 33.5t80 11.5q44 0 83 -12.5t68.5 -36.5t47 -60t17.5 -83q0 -42 -11.5 -76t-31 -62.5t-44 -54t-51.5 -50.5
l-218 -205v-2h361v-78h-456v96z" />
    <glyph glyph-name="three" unicode="3" 
d="M204 408h26q26 0 54.5 4t52 17t39 37.5t15.5 64.5q0 54 -33.5 85.5t-87.5 31.5q-45 0 -78 -20t-52 -59l-81 31q26 60 81.5 90t123.5 30q42 0 80.5 -12t67.5 -35t46 -57.5t17 -80.5q0 -56 -33.5 -100.5t-87.5 -61.5v-2q34 -6 60.5 -22t45.5 -39.5t29 -53.5t10 -63
q0 -51 -19 -89t-51 -64t-74.5 -39t-89.5 -13q-81 0 -141 35t-87 114l85 28q18 -57 51 -81t92 -24q30 0 56 10t45.5 28.5t31 44t11.5 56.5q0 39 -15.5 65.5t-41 42t-57.5 22.5t-65 7h-26v72z" />
    <glyph glyph-name="four" unicode="4" 
d="M335 610h-2l-226 -370h228v370zM419 240h102v-78h-102v-162h-84v162h-300v93l281 453h103v-468z" />
    <glyph glyph-name="five" unicode="5" 
d="M474 630h-289l-3 -191q20 10 44.5 13.5t46.5 3.5q51 0 92.5 -17.5t71.5 -49t46 -74t16 -92.5q0 -53 -18.5 -96.5t-51 -74t-77 -47.5t-96.5 -17q-81 0 -130.5 35t-78.5 94l84 32q18 -40 52.5 -64.5t79.5 -24.5q32 0 59.5 11.5t48 33t32.5 51.5t12 67q0 39 -13.5 69
t-37 50.5t-55.5 31t-69 10.5q-36 0 -74 -12.5t-70 -31.5l7 368h371v-78z" />
    <glyph glyph-name="six" unicode="6" 
d="M278 360q-32 0 -60 -10.5t-48.5 -30t-32.5 -47.5t-12 -62q0 -35 12 -62.5t32.5 -47t48.5 -30t60 -10.5t60 10.5t48.5 30t32.5 47t12 62.5q0 34 -12 62t-32.5 47.5t-48.5 30t-60 10.5zM204 413l2 -2q20 11 46.5 16t48.5 5q46 0 85.5 -16t68 -45.5t44.5 -70.5t16 -90
q0 -52 -18 -93t-50 -69.5t-75.5 -44t-93.5 -15.5t-93.5 15.5t-75.5 44t-50 69.5t-18 93q0 61 19 107t48 92l188 299h98z" />
    <glyph glyph-name="seven" unicode="7" 
d="M480 630l-283 -630h-95l288 630h-342v78h432v-78z" />
    <glyph glyph-name="eight" unicode="8" 
d="M136 201q0 -31 11 -57t30.5 -44.5t45 -29t55.5 -10.5t55.5 10.5t45 29t30.5 44.5t11 57t-11 57t-30.5 44.5t-45 29t-55.5 10.5t-55.5 -10.5t-45 -29t-30.5 -44.5t-11 -57zM160 531q0 -51 32.5 -84t85.5 -33t85.5 33t32.5 84t-32.5 84t-85.5 33t-85.5 -33t-32.5 -84z
M76 535q0 42 15.5 76t42.5 58t64 37.5t80 13.5t80 -13.5t64 -37.5t42.5 -58t15.5 -76q0 -25 -8 -50t-23 -46t-36.5 -37t-48.5 -23v-2q32 -7 58 -23.5t44 -40.5t28 -54.5t10 -63.5q0 -48 -17.5 -86.5t-48 -65.5t-72 -41t-88.5 -14t-88.5 14t-72 41t-48 65.5t-17.5 86.5
q0 33 10 63.5t28 54.5t44 40.5t58 23.5v2q-27 7 -48.5 23t-36.5 37t-23 46t-8 50z" />
    <glyph glyph-name="nine" unicode="9" 
d="M278 348q32 0 60 10.5t48.5 30t32.5 47t12 62.5q0 34 -12 62t-32.5 47.5t-48.5 30t-60 10.5t-60 -10.5t-48.5 -30t-32.5 -47.5t-12 -62q0 -35 12 -62.5t32.5 -47t48.5 -30t60 -10.5zM352 295l-2 2q-20 -11 -46.5 -16t-48.5 -5q-46 0 -85.5 16t-68 45.5t-44.5 70t-16 90.5
q0 52 18 93t50 69.5t75.5 44t93.5 15.5t93.5 -15.5t75.5 -44t50 -69.5t18 -93q0 -31 -5 -57t-14 -50t-21.5 -46.5t-26.5 -45.5l-188 -299h-98z" />
    <glyph glyph-name="colon" unicode=":" horiz-adv-x="278" 
d="M139 114q25 0 42.5 -17.5t17.5 -42.5t-18.5 -42.5t-41.5 -17.5t-41.5 17.5t-18.5 42.5t17.5 42.5t42.5 17.5zM139 480q25 0 42.5 -17.5t17.5 -42.5t-18.5 -42.5t-41.5 -17.5t-41.5 17.5t-18.5 42.5t17.5 42.5t42.5 17.5z" />
    <glyph glyph-name="semicolon" unicode=";" horiz-adv-x="278" 
d="M139 480q25 0 42.5 -17.5t17.5 -42.5t-18.5 -42.5t-41.5 -17.5t-41.5 17.5t-18.5 42.5t17.5 42.5t42.5 17.5zM129 -138h-77l68 240h91z" />
    <glyph glyph-name="semicolon" unicode="&#x37e;" horiz-adv-x="278" 
d="M139 480q25 0 42.5 -17.5t17.5 -42.5t-18.5 -42.5t-41.5 -17.5t-41.5 17.5t-18.5 42.5t17.5 42.5t42.5 17.5zM129 -138h-77l68 240h91z" />
    <glyph glyph-name="less" unicode="&#x3c;" horiz-adv-x="666" 
d="M594 498l-441 -195l441 -195v-66l-522 232v58l522 232v-66z" />
    <glyph glyph-name="equal" unicode="=" horiz-adv-x="666" 
d="M72 258h522v-66h-522v66zM72 414h522v-66h-522v66z" />
    <glyph glyph-name="greater" unicode="&#x3e;" horiz-adv-x="666" 
d="M72 108l441 195l-441 195v66l522 -232v-58l-522 -232v66z" />
    <glyph glyph-name="question" unicode="?" horiz-adv-x="482" 
d="M231 114q25 0 42.5 -17.5t17.5 -42.5t-18.5 -42.5t-41.5 -17.5t-41.5 17.5t-18.5 42.5t17.5 42.5t42.5 17.5zM189 261q0 28 3.5 46t11.5 32.5t21 28.5t33 34q15 16 30.5 31.5t28 32.5t20.5 36t8 43q0 48 -28 78.5t-78 30.5q-51 0 -82.5 -30t-39.5 -79l-90 10
q7 41 25.5 73t46.5 53.5t64 33t77 11.5t76.5 -11.5t62 -34t41.5 -56t15 -76.5q0 -33 -9.5 -59.5t-25 -49t-36.5 -43t-43 -41.5q-16 -15 -25.5 -26t-14.5 -23t-6.5 -26.5t-1.5 -35.5v-46h-84v63z" />
    <glyph glyph-name="at" unicode="@" horiz-adv-x="800" 
d="M535 267q-4 -12 -6.5 -25.5t-2.5 -24.5q0 -20 24 -20t49 18.5t45 49t33 69.5t13 81q0 59 -23 106.5t-61 81t-87 51.5t-101 18q-65 0 -121 -25.5t-97.5 -69t-65.5 -101.5t-24 -122q0 -67 25 -125t67 -101t98 -67.5t118 -24.5q75 0 143 33t109 88h63q-24 -41 -58 -73.5
t-75 -55t-87 -34.5t-95 -12q-79 0 -147 29t-118.5 79.5t-79.5 118t-29 145.5t29.5 146t80.5 118t119 79t145 29q69 0 130 -22.5t107.5 -63t73.5 -97t27 -123.5q0 -65 -23.5 -118t-58.5 -91t-76 -59t-76 -21q-26 0 -44 16t-20 50h-2q-23 -27 -52 -46.5t-73 -19.5
q-32 0 -58 12t-44.5 33t-28.5 49t-10 61q0 52 16.5 103t47 91t73.5 64.5t96 24.5q35 0 64.5 -18.5t46.5 -63.5h2l18 63h65zM262 293q0 -42 24.5 -69t62.5 -27q33 0 61 21.5t49 53.5t33 69t12 68q0 19 -7 36t-18 30t-25.5 20.5t-30.5 7.5q-35 0 -64.5 -20.5t-51 -52
t-33.5 -68t-12 -69.5z" />
    <glyph glyph-name="A" unicode="A" horiz-adv-x="704" 
d="M356 600h-2l-147 -348h289zM318 708h79l301 -708h-98l-72 174h-354l-73 -174h-95z" />
    <glyph glyph-name="B" unicode="B" horiz-adv-x="630" 
d="M172 78h142q31 0 61.5 6.5t55 21t39.5 38t15 57.5q0 37 -14.5 62t-38 40t-54 21t-62.5 6h-144v-252zM172 408h116q30 0 58.5 4t51.5 16.5t37 35t14 59.5q0 33 -13 53.5t-34.5 32.5t-49 16.5t-55.5 4.5h-125v-222zM88 708h216q44 0 86 -9t75 -29.5t53.5 -53.5t20.5 -82
q0 -62 -33.5 -102.5t-90.5 -57.5v-2q34 -3 63.5 -17.5t51 -37.5t33.5 -53.5t12 -65.5q0 -59 -24.5 -97t-64 -60.5t-89 -31.5t-98.5 -9h-211v708z" />
    <glyph glyph-name="C" unicode="C" horiz-adv-x="704" 
d="M584 562q-32 43 -79 64.5t-98 21.5q-59 0 -108.5 -24t-85.5 -64.5t-56 -94t-20 -111.5q0 -62 20 -115.5t55.5 -93t85 -62.5t109.5 -23q65 0 116 25.5t89 73.5l63 -53q-48 -64 -115.5 -94t-152.5 -30q-76 0 -142 28t-114.5 77.5t-76 117.5t-27.5 149q0 78 26.5 146
t74.5 118t114 79t145 29q72 0 138.5 -26t111.5 -85z" />
    <glyph glyph-name="D" unicode="D" horiz-adv-x="741" 
d="M159 78h160q61 0 113 16t90 49.5t60 85.5t22 125t-22 125t-60 85.5t-90 49.5t-113 16h-160v-552zM75 708h272q35 0 74 -8t77.5 -25.5t74 -45.5t62.5 -67.5t43 -91t16 -116.5t-16 -116.5t-43 -91t-62.5 -67.5t-74 -45.5t-77.5 -25.5t-74 -8h-272v708z" />
    <glyph glyph-name="E" unicode="E" horiz-adv-x="593" 
d="M88 708h445v-78h-361v-222h337v-78h-337v-252h379v-78h-463v708z" />
    <glyph glyph-name="F" unicode="F" 
d="M88 708h439v-78h-355v-234h330v-78h-330v-318h-84v708z" />
    <glyph glyph-name="G" unicode="G" horiz-adv-x="778" 
d="M690 48q-61 -34 -128.5 -50t-136.5 -16q-83 0 -152 27t-119.5 76t-78.5 117.5t-28 151.5q0 84 29.5 152.5t81.5 117t121 75.5t149 27q70 0 134.5 -21t115.5 -72l-63 -66q-36 39 -87.5 60t-105.5 21q-61 0 -113 -22t-90.5 -61t-60 -93t-21.5 -118q0 -63 21.5 -117
t60 -93.5t92.5 -61.5t119 -22q43 0 90 10.5t86 30.5v217h-163v78h247v-348z" />
    <glyph glyph-name="H" unicode="H" horiz-adv-x="722" 
d="M88 708h84v-300h378v300h84v-708h-84v330h-378v-330h-84v708z" />
    <glyph glyph-name="I" unicode="I" horiz-adv-x="260" 
d="M88 708h84v-708h-84v708z" />
    <glyph glyph-name="J" unicode="J" horiz-adv-x="482" 
d="M394 183q0 -36 -10.5 -71.5t-34 -64.5t-62 -47t-95.5 -18q-75 0 -125 38t-64 114l84 17q8 -42 34.5 -66.5t71.5 -24.5q36 0 59 13t35.5 34t17.5 48.5t5 56.5v496h84v-525z" />
    <glyph glyph-name="K" unicode="K" horiz-adv-x="630" 
d="M88 708h84v-306h12l322 306h121l-350 -323l367 -385h-123l-337 360h-12v-360h-84v708z" />
    <glyph glyph-name="L" unicode="L" horiz-adv-x="500" 
d="M88 708h84v-630h324v-78h-408v708z" />
    <glyph glyph-name="M" unicode="M" horiz-adv-x="907" 
d="M88 708h125l240 -555h2l242 555h122v-708h-84v594h-2l-254 -594h-51l-254 594h-2v-594h-84v708z" />
    <glyph glyph-name="N" unicode="N" horiz-adv-x="778" 
d="M88 708h106l410 -588h2v588h84v-708h-106l-410 588h-2v-588h-84v708z" />
    <glyph glyph-name="O" unicode="O" horiz-adv-x="834" 
d="M417 60q62 0 113.5 23t88.5 63t57.5 93.5t20.5 114.5t-20.5 114.5t-57.5 93.5t-88.5 63t-113.5 23t-113.5 -23t-88.5 -63t-57.5 -93.5t-20.5 -114.5t20.5 -114.5t57.5 -93.5t88.5 -63t113.5 -23zM417 -18q-81 0 -148.5 28t-117 77.5t-77 118t-27.5 148.5t27.5 148.5
t77 118t117 77.5t148.5 28t148.5 -28t117 -77.5t77 -118t27.5 -148.5t-27.5 -148.5t-77 -118t-117 -77.5t-148.5 -28z" />
    <glyph glyph-name="P" unicode="P" horiz-adv-x="593" 
d="M172 396h142q63 0 102.5 28.5t39.5 88.5t-39.5 88.5t-102.5 28.5h-142v-234zM88 708h210q49 0 93.5 -9.5t79 -32t55 -60t20.5 -92.5q0 -58 -22 -96t-56.5 -60t-75.5 -31t-78 -9h-142v-318h-84v708z" />
    <glyph glyph-name="Q" unicode="Q" horiz-adv-x="834" 
d="M137 363q0 -60 21 -112t57.5 -90.5t86.5 -60.5t109 -22q58 0 108.5 22t87 60.5t57.5 90.5t21 112q0 59 -20.5 111t-57 90.5t-86.5 61t-110 22.5t-110 -22.5t-86.5 -61t-57 -90.5t-20.5 -111zM822 0h-411q-78 0 -144.5 28t-115 76.5t-76.5 115t-28 143.5t28 143.5
t76.5 115t115 76.5t144.5 28t144.5 -28t115 -76.5t76.5 -115t28 -143.5q0 -45 -12 -89.5t-34.5 -83t-54 -69t-71.5 -47.5v-2h219v-72z" />
    <glyph glyph-name="R" unicode="R" horiz-adv-x="611" 
d="M172 396h75q35 0 72.5 2t69 13t52 34.5t20.5 67.5q0 38 -15 61t-39.5 35.5t-55 16.5t-61.5 4h-118v-234zM88 708h181q51 0 101.5 -6t90.5 -26t65 -58.5t25 -104.5q0 -78 -47 -126t-130 -61l201 -326h-103l-192 318h-108v-318h-84v708z" />
    <glyph glyph-name="S" unicode="S" 
d="M424 583q-21 34 -56 49.5t-73 15.5q-28 0 -55 -7t-48.5 -21t-34.5 -37t-13 -54q0 -24 7.5 -42.5t24.5 -33.5t46 -28t71 -26q41 -13 79.5 -28t68 -38t47 -57.5t17.5 -86.5q0 -53 -21 -92t-55.5 -64.5t-79.5 -38t-93 -12.5q-31 0 -62 5.5t-59.5 17t-53.5 30t-43 45.5l72 59
q23 -39 64 -59t87 -20q27 0 54.5 8t49.5 23.5t36 38.5t14 53q0 33 -11 53.5t-34 35.5t-58 27t-82 28q-38 12 -70 27.5t-55.5 38t-37 54t-13.5 75.5q0 51 20 89t54 63.5t77 38.5t90 13q60 0 109.5 -18.5t88.5 -64.5z" />
    <glyph glyph-name="T" unicode="T" horiz-adv-x="574" 
d="M563 630h-234v-630h-84v630h-234v78h552v-78z" />
    <glyph glyph-name="U" unicode="U" horiz-adv-x="704" 
d="M619 270q0 -58 -14.5 -110t-46 -91.5t-82.5 -63t-124 -23.5t-124 23.5t-82.5 63t-46 91.5t-14.5 110v438h84v-426q0 -43 9 -83t30 -71t56 -49.5t88 -18.5t88 18.5t56 49.5t30 71t9 83v426h84v-438z" />
    <glyph glyph-name="V" unicode="V" horiz-adv-x="611" 
d="M-9 708h95l218 -582h2l225 582h89l-277 -708h-81z" />
    <glyph glyph-name="W" unicode="W" horiz-adv-x="963" 
d="M6 708h93l161 -588h2l174 588h94l173 -588h2l164 588h88l-208 -708h-91l-175 600h-2l-176 -600h-92z" />
    <glyph glyph-name="X" unicode="X" horiz-adv-x="630" 
d="M255 373l-238 335h108l191 -277l189 277h105l-238 -335l261 -373h-111l-210 314l-211 -314h-104z" />
    <glyph glyph-name="Y" unicode="Y" horiz-adv-x="594" 
d="M255 305l-264 403h107l199 -320l205 320h101l-264 -403v-305h-84v305z" />
    <glyph glyph-name="Z" unicode="Z" horiz-adv-x="574" 
d="M29 75l409 555h-403v78h505v-72l-409 -558h414v-78h-516v75z" />
    <glyph glyph-name="bracketleft" unicode="[" horiz-adv-x="259" 
d="M193 672h-93v-768h93v-60h-165v888h165v-60z" />
    <glyph glyph-name="backslash" unicode="\" horiz-adv-x="370" 
d="M3 726l63 24l301 -768l-63 -25z" />
    <glyph glyph-name="bracketright" unicode="]" horiz-adv-x="259" 
d="M66 732h165v-888h-165v60h93v768h-93v60z" />
    <glyph glyph-name="asciicircum" unicode="^" horiz-adv-x="666" 
d="M303 708h60l223 -433h-74l-179 349l-179 -349h-74z" />
    <glyph glyph-name="underscore" unicode="_" horiz-adv-x="500" 
d="M0 -75h500v-50h-500v50z" />
    <glyph glyph-name="grave" unicode="`" horiz-adv-x="240" 
d="M189 564h-71l-143 144h110z" />
    <glyph glyph-name="a" unicode="a" horiz-adv-x="519" 
d="M294 225q-75 0 -119 -21t-44 -69q0 -44 29.5 -62.5t73.5 -18.5q34 0 59.5 11.5t42.5 30.5t26 44.5t10 54.5v30h-78zM68 408q36 37 85.5 54.5t100.5 17.5q104 0 150 -49t46 -149v-201q0 -20 2 -41.5t5 -39.5h-75q-4 16 -4.5 35.5t-0.5 34.5h-2q-23 -36 -61.5 -59
t-92.5 -23q-36 0 -67.5 9t-55 26.5t-37.5 43.5t-14 60q0 58 30 91t74.5 49t96 20t94.5 4h30v14q0 51 -30.5 77t-85.5 26q-38 0 -74.5 -12.5t-64.5 -38.5z" />
    <glyph glyph-name="b" unicode="b" horiz-adv-x="611" 
d="M148 234q0 -37 11.5 -68.5t33.5 -55t52.5 -37t68.5 -13.5t68.5 13.5t52.5 37t33.5 55t11.5 68.5t-11.5 68.5t-33.5 55t-52.5 37t-68.5 13.5t-68.5 -13.5t-52.5 -37t-33.5 -55t-11.5 -68.5zM70 756h78v-356h2q32 38 74.5 59t93.5 21q55 0 100.5 -18.5t77.5 -51.5t50 -78
t18 -98t-18 -98t-49.5 -78t-74.5 -51.5t-92 -18.5q-63 0 -110.5 27.5t-69.5 67.5h-2v-83h-78v756z" />
    <glyph glyph-name="c" unicode="c" horiz-adv-x="482" 
d="M407 351q-25 30 -54 43.5t-64 13.5q-39 0 -69 -13.5t-49.5 -37.5t-29.5 -55.5t-10 -67.5t11.5 -67.5t32 -55.5t49.5 -37.5t65 -13.5q77 0 119 58l58 -55q-34 -39 -80 -57t-97 -18q-54 0 -99 18t-76.5 51t-49 78t-17.5 99q0 53 17.5 98t49.5 78t76.5 51.5t98.5 18.5
q52 0 98.5 -18t81.5 -56z" />
    <glyph glyph-name="d" unicode="d" horiz-adv-x="611" 
d="M463 234q0 37 -11.5 68.5t-33.5 55t-52.5 37t-68.5 13.5t-68.5 -13.5t-52.5 -37t-33.5 -55t-11.5 -68.5t11.5 -68.5t33.5 -55t52.5 -37t68.5 -13.5t68.5 13.5t52.5 37t33.5 55t11.5 68.5zM463 83h-2q-22 -40 -69.5 -67.5t-110.5 -27.5q-49 0 -92 18.5t-74.5 51.5
t-49.5 78t-18 98t18 98t50 78t77.5 51.5t100.5 18.5q51 0 93.5 -21t74.5 -59h2v356h78v-756h-78v83z" />
    <glyph glyph-name="e" unicode="e" 
d="M425 276q-2 60 -39 96t-102 36t-105 -36t-48 -96h294zM492 85q-42 -54 -92 -75.5t-116 -21.5q-55 0 -99 19.5t-74.5 52.5t-47 78t-16.5 96q0 54 18 99.5t50 78t76 50.5t96 18q49 0 90 -16.5t70.5 -48t45.5 -77t16 -103.5v-25h-378q2 -30 14.5 -57.5t32.5 -48t47 -32.5
t59 -12q51 0 86 18t63 53z" />
    <glyph glyph-name="f" unicode="f" horiz-adv-x="315" 
d="M114 402h-102v66h102v105q0 43 8 78.5t27.5 61.5t51.5 40.5t79 14.5q15 0 32 -3t28 -9l-11 -70q-28 10 -53 10q-30 0 -47 -10.5t-25.5 -29t-10 -44.5t-1.5 -56v-88h114v-66h-114v-402h-78v402z" />
    <glyph glyph-name="g" unicode="g" horiz-adv-x="611" 
d="M131 234q0 -36 13 -66.5t35.5 -53t52.5 -35.5t64 -13q40 0 71 14t52.5 37.5t32.5 54t11 64.5q0 38 -12 69.5t-34 54.5t-53 35.5t-68 12.5t-67.5 -13.5t-52 -37t-33.5 -55t-12 -68.5zM541 21q0 -128 -65.5 -194.5t-189.5 -66.5q-69 0 -124.5 20t-105.5 69l56 64
q37 -40 78.5 -60.5t95.5 -20.5q52 0 86.5 15.5t54.5 42t28 60.5t8 71v60h-2q-28 -45 -73 -66t-92 -21q-55 0 -101 18t-79 50t-51 76t-18 96q0 57 18 103t50.5 77.5t78.5 48.5t102 17q24 0 48 -5.5t46.5 -17t40.5 -29t30 -40.5h2v80h78v-447z" />
    <glyph glyph-name="h" unicode="h" 
d="M74 756h78v-353h2q8 14 22 27.5t33.5 24.5t43.5 18t51 7q46 0 79.5 -14t55.5 -39t32.5 -60.5t10.5 -77.5v-289h-78v281q0 59 -26 93t-81 34q-38 0 -65.5 -13t-45 -37t-26 -57t-8.5 -73v-228h-78v756z" />
    <glyph glyph-name="i" unicode="i" horiz-adv-x="240" 
d="M63 651q0 23 16.5 40t40.5 17t40.5 -17t16.5 -40q0 -25 -16 -41t-41 -16t-41 16t-16 41zM81 468h78v-468h-78v468z" />
    <glyph glyph-name="j" unicode="j" horiz-adv-x="240" 
d="M63 651q0 23 16.5 40t40.5 17t40.5 -17t16.5 -40q0 -25 -16 -41t-41 -16t-41 16t-16 41zM159 -105q0 -18 -5.5 -41.5t-20.5 -44t-42.5 -35t-70.5 -14.5q-14 0 -27.5 2t-26.5 8l9 68q19 -6 38 -6q22 0 35.5 8t20.5 21.5t9.5 31.5t2.5 38v537h78v-573z" />
    <glyph glyph-name="k" unicode="k" horiz-adv-x="500" 
d="M74 756h78v-494l213 206h111l-226 -213l249 -255h-115l-232 246v-246h-78v756z" />
    <glyph glyph-name="l" unicode="l" horiz-adv-x="240" 
d="M81 756h78v-756h-78v756z" />
    <glyph glyph-name="m" unicode="m" horiz-adv-x="852" 
d="M74 357q0 32 -2 60t-2 51h74q0 -19 1 -38t1 -39h2q8 17 22.5 33t34.5 28.5t45 20t54 7.5q38 0 63.5 -9.5t42.5 -23t26.5 -29t15.5 -27.5q26 42 60 65.5t88 23.5q50 0 84 -13.5t55 -39t30 -62t9 -81.5v-284h-78v280q0 24 -5 47t-18 41t-35 29t-56 11q-25 0 -47 -10
t-38.5 -28t-26 -43.5t-9.5 -56.5v-270h-78v265q0 78 -21 110.5t-69 32.5q-38 0 -65.5 -13t-45 -37t-26 -57t-8.5 -73v-228h-78v357z" />
    <glyph glyph-name="n" unicode="n" 
d="M74 357q0 32 -2 60t-2 51h74q0 -19 1 -38t1 -39h2q8 17 22.5 33t34.5 28.5t45 20t54 7.5q46 0 79.5 -14t55.5 -39t32.5 -60.5t10.5 -77.5v-289h-78v281q0 59 -26 93t-81 34q-38 0 -65.5 -13t-45 -37t-26 -57t-8.5 -73v-228h-78v357z" />
    <glyph glyph-name="o" unicode="o" horiz-adv-x="594" 
d="M131 234q0 -37 11.5 -68.5t33.5 -55t52.5 -37t68.5 -13.5t68.5 13.5t52.5 37t33.5 55t11.5 68.5t-11.5 68.5t-33.5 55t-52.5 37t-68.5 13.5t-68.5 -13.5t-52.5 -37t-33.5 -55t-11.5 -68.5zM47 234q0 55 19 100t52 77.5t79 50.5t100 18t100 -18t79 -50.5t52 -77.5t19 -100
t-19 -100t-52 -77.5t-79 -50.5t-100 -18t-100 18t-79 50.5t-52 77.5t-19 100z" />
    <glyph glyph-name="p" unicode="p" horiz-adv-x="611" 
d="M148 234q0 -37 11.5 -68.5t33.5 -55t52.5 -37t68.5 -13.5t68.5 13.5t52.5 37t33.5 55t11.5 68.5t-11.5 68.5t-33.5 55t-52.5 37t-68.5 13.5t-68.5 -13.5t-52.5 -37t-33.5 -55t-11.5 -68.5zM70 468h78v-68h2q32 38 74.5 59t93.5 21q55 0 100.5 -18.5t77.5 -51.5t50 -78
t18 -98t-18 -98t-49.5 -78t-74.5 -51.5t-92 -18.5q-63 0 -110.5 27.5t-69.5 67.5h-2v-311h-78v696z" />
    <glyph glyph-name="q" unicode="q" horiz-adv-x="611" 
d="M463 234q0 37 -11.5 68.5t-33.5 55t-52.5 37t-68.5 13.5t-68.5 -13.5t-52.5 -37t-33.5 -55t-11.5 -68.5t11.5 -68.5t33.5 -55t52.5 -37t68.5 -13.5t68.5 13.5t52.5 37t33.5 55t11.5 68.5zM541 -228h-78v296h-2q-32 -38 -74.5 -59t-93.5 -21q-55 0 -100.5 18.5t-77.5 51.5
t-50 78t-18 98q0 52 18 97t49.5 78t74.5 52t92 19q63 0 110.5 -27.5t69.5 -67.5h2v83h78v-696z" />
    <glyph glyph-name="r" unicode="r" horiz-adv-x="352" 
d="M74 357q0 32 -2 60t-2 51h74q0 -19 1 -38t1 -39h2q8 17 22.5 33t34.5 28.5t45 20t54 7.5q8 0 16 -1t16 -4l-5 -79q-20 6 -42 6q-72 0 -104.5 -46.5t-32.5 -127.5v-228h-78v357z" />
    <glyph glyph-name="s" unicode="s" horiz-adv-x="426" 
d="M84 123q23 -29 50.5 -46t69.5 -17q18 0 36.5 4t33.5 13t24 22.5t9 32.5t-8.5 31t-22.5 20.5t-32 13.5t-37 9q-33 7 -63 16t-52.5 23.5t-36 37.5t-13.5 59q0 34 15 60t40 43t56 26t64 9q50 0 92.5 -20t66.5 -65l-65 -43q-15 25 -39.5 40.5t-59.5 15.5q-16 0 -32.5 -4
t-29.5 -12t-21.5 -20.5t-8.5 -28.5q0 -15 9.5 -25.5t26 -18.5t38 -14t44.5 -10q31 -6 59 -15.5t49 -25.5t33 -40t12 -59q0 -40 -16 -68t-42.5 -45.5t-60 -25.5t-68.5 -8q-60 0 -103.5 18.5t-78.5 68.5z" />
    <glyph glyph-name="t" unicode="t" horiz-adv-x="352" 
d="M330 402h-138v-234q0 -23 1 -42.5t8 -34t21 -23t40 -8.5q17 0 35 4t34 12l3 -71q-20 -9 -44.5 -13t-46.5 -4q-42 0 -67 11t-39 31t-18.5 49.5t-4.5 65.5v257h-102v66h102v133h78v-133h138v-66z" />
    <glyph glyph-name="u" unicode="u" 
d="M482 111q0 -32 2 -60t2 -51h-74q0 19 -1 38t-1 39h-2q-8 -17 -22.5 -33t-34.5 -28.5t-45 -20t-54 -7.5q-46 0 -79.5 14t-55.5 39t-32.5 60.5t-10.5 77.5v289h78v-281q0 -59 26 -93t81 -34q38 0 65.5 13t45 37t26 57t8.5 73v228h78v-357z" />
    <glyph glyph-name="v" unicode="v" horiz-adv-x="482" 
d="M287 0h-86l-191 468h91l146 -367h2l139 367h84z" />
    <glyph glyph-name="w" unicode="w" horiz-adv-x="741" 
d="M576 0h-77l-133 360h-2l-118 -360h-80l-152 468h86l107 -360h2l121 360h82l123 -360h2l106 360h84z" />
    <glyph glyph-name="x" unicode="x" horiz-adv-x="500" 
d="M195 252l-168 216h102l124 -168l117 168h95l-161 -216l193 -252h-103l-148 202l-146 -202h-97z" />
    <glyph glyph-name="y" unicode="y" horiz-adv-x="482" 
d="M246 -107q-12 -30 -24.5 -54.5t-30 -42t-42 -27t-59.5 -9.5q-17 0 -35.5 2t-34.5 10l10 68q12 -5 25 -6.5t30 -1.5q38 0 56 21t31 56l32 88l-194 471h91l145 -367h2l139 367h85z" />
    <glyph glyph-name="z" unicode="z" horiz-adv-x="444" 
d="M30 61l275 341h-263v66h365v-60l-275 -342h282v-66h-384v61z" />
    <glyph glyph-name="braceleft" unicode="{" horiz-adv-x="333" 
d="M294 672h-54q-16 0 -25.5 -6.5t-15 -18t-7 -25.5t-1.5 -29v-176q0 -34 -10 -57.5t-24 -38.5t-28.5 -22.5t-23.5 -9.5v-2q9 -1 23.5 -7.5t28.5 -21t24 -39t10 -61.5v-175q0 -15 1.5 -29t7 -25t15 -18t25.5 -7h54v-60h-70q-19 0 -37.5 8t-33.5 24t-24.5 39.5t-9.5 53.5v175
q0 27 -7.5 48t-19.5 36t-27.5 22.5t-31.5 7.5v60q16 0 31.5 8t27.5 22.5t19.5 35.5t7.5 47v176q0 30 10 53.5t25 39.5t33.5 24t36.5 8h70v-60z" />
    <glyph glyph-name="bar" unicode="|" horiz-adv-x="222" 
d="M144 750v-1000h-66v1000h66z" />
    <glyph glyph-name="braceright" unicode="}" horiz-adv-x="333" 
d="M39 732h70q18 0 36.5 -8t33.5 -24t25 -39.5t10 -53.5v-176q0 -26 7.5 -47t19.5 -35.5t27.5 -22.5t31.5 -8v-60q-16 0 -31.5 -7.5t-27.5 -22.5t-19.5 -36t-7.5 -48v-175q0 -30 -9.5 -53.5t-24.5 -39.5t-33.5 -24t-37.5 -8h-70v60h54q16 0 25.5 7t14.5 18t7 25t2 29v175
q0 37 10 61.5t24 39t28.5 21t23.5 7.5v2q-9 2 -23.5 9.5t-28.5 22.5t-24 38.5t-10 57.5v176q0 15 -2 29t-7 25.5t-14.5 18t-25.5 6.5h-54v60z" />
    <glyph glyph-name="asciitilde" unicode="~" horiz-adv-x="666" 
d="M563 324q-12 -16 -24 -31.5t-27 -28t-33.5 -20.5t-41.5 -8q-27 0 -52 9.5t-50 20.5q-29 13 -56 25.5t-59 12.5q-33 0 -52.5 -22t-31.5 -48l-33 48q11 16 23.5 31.5t27 28t33 20.5t41.5 8q27 0 52 -9.5t50 -20.5q29 -13 56 -25.5t59 -12.5q33 0 52.5 22t32.5 48z" />
    <glyph glyph-name="Euro" 
d="M504 614q-23 17 -55 27t-73 10q-67 0 -116 -43.5t-71 -128.5h277l-15 -59h-273q-2 -18 -3.5 -37.5t-1.5 -39.5q0 -14 0.5 -27.5t1.5 -27.5h242l-16 -57h-219q14 -83 55 -129.5t114 -46.5q42 0 73 18t53 44l46 -45q-26 -35 -73 -59.5t-105 -24.5q-102 0 -165.5 61.5
t-83.5 181.5h-73l18 57h48q-1 14 -1.5 28.5t-0.5 29.5q0 20 1 38.5t3 35.5h-66l19 59h58q14 59 40 104t62 75.5t79.5 46t93.5 15.5q42 0 83.5 -11t64.5 -25z" />
    <glyph glyph-name="Euro" unicode="&#x20ac;" 
d="M504 614q-23 17 -55 27t-73 10q-67 0 -116 -43.5t-71 -128.5h277l-15 -59h-273q-2 -18 -3.5 -37.5t-1.5 -39.5q0 -14 0.5 -27.5t1.5 -27.5h242l-16 -57h-219q14 -83 55 -129.5t114 -46.5q42 0 73 18t53 44l46 -45q-26 -35 -73 -59.5t-105 -24.5q-102 0 -165.5 61.5
t-83.5 181.5h-73l18 57h48q-1 14 -1.5 28.5t-0.5 29.5q0 20 1 38.5t3 35.5h-66l19 59h58q14 59 40 104t62 75.5t79.5 46t93.5 15.5q42 0 83.5 -11t64.5 -25z" />
    <glyph glyph-name="Zcaron" horiz-adv-x="574" 
d="M29 75l409 555h-403v78h505v-72l-409 -558h414v-78h-516v75zM333 758h-91l-111 144h81l78 -102l77 102h76z" />
    <glyph glyph-name="Zcaron" unicode="&#x17d;" horiz-adv-x="574" 
d="M29 75l409 555h-403v78h505v-72l-409 -558h414v-78h-516v75zM333 758h-91l-111 144h81l78 -102l77 102h76z" />
    <glyph glyph-name="zcaron" horiz-adv-x="444" 
d="M30 61l275 341h-263v66h365v-60l-275 -342h282v-66h-384v61zM268 580h-91l-111 144h81l78 -102l77 102h76z" />
    <glyph glyph-name="zcaron" unicode="&#x17e;" horiz-adv-x="444" 
d="M30 61l275 341h-263v66h365v-60l-275 -342h282v-66h-384v61zM268 580h-91l-111 144h81l78 -102l77 102h76z" />
    <glyph glyph-name="exclamdown" unicode="&#xa1;" horiz-adv-x="278" 
d="M139 372q-25 0 -42.5 17.5t-17.5 42.5t18.5 42.5t41.5 17.5t41.5 -17.5t18.5 -42.5t-17.5 -42.5t-42.5 -17.5zM97 288h84v-510h-84v510z" />
    <glyph glyph-name="cent" unicode="&#xa2;" 
d="M277 -12q-48 6 -86.5 26.5t-66 52.5t-42.5 74.5t-15 92.5q0 49 15 91.5t42.5 74.5t66.5 52t86 25v69h48v-66q48 -2 90 -20.5t74 -53.5l-62 -55q-42 51 -102 57v-348q64 4 103 58l58 -55q-31 -36 -72.5 -54t-88.5 -21v-66h-48v66zM277 406q-63 -12 -94.5 -60t-31.5 -112
t34 -111.5t92 -61.5v345z" />
    <glyph glyph-name="sterling" unicode="&#xa3;" 
d="M57 78h108v252h-96v66h96v80q0 65 16.5 111.5t45 76t68 43t84.5 13.5t87 -15t74 -47l-55 -59q-23 23 -49 36t-59 13q-37 0 -61.5 -12.5t-39.5 -35.5t-21 -55t-6 -71v-78h162v-66h-162v-252h246v-78h-438v78z" />
    <glyph glyph-name="currency" unicode="&#xa4;" 
d="M82 203q-54 68 -54 151q0 87 54 152l-54 54l44 44l54 -53q33 26 71.5 39.5t80.5 13.5t80.5 -13.5t71.5 -39.5l54 53l44 -44l-54 -54q54 -65 54 -152q0 -83 -54 -151l54 -55l-44 -44l-54 55q-33 -26 -71.5 -40.5t-80.5 -14.5t-80.5 14.5t-71.5 40.5l-54 -55l-44 44z
M106 354q0 -35 13.5 -67t37 -57t55 -39.5t66.5 -14.5t66.5 14.5t55 39.5t37 57t13.5 67q0 36 -13.5 68.5t-37 57t-55 38.5t-66.5 14t-66.5 -14t-55 -38.5t-37 -57t-13.5 -68.5z" />
    <glyph glyph-name="yen" unicode="&#xa5;" 
d="M236 174h-159v60h159v71l-9 16h-150v60h114l-191 327h100l178 -327l178 327h100l-191 -327h114v-60h-150l-9 -16v-71h159v-60h-159v-174h-84v174z" />
    <glyph glyph-name="brokenbar" unicode="&#xa6;" horiz-adv-x="222" 
d="M144 175v-350h-66v350h66zM144 675v-350h-66v350h66z" />
    <glyph glyph-name="section" unicode="&#xa7;" 
d="M325 183q25 11 45 34.5t20 52.5q0 21 -9.5 37t-23.5 29t-31 22.5t-33 17.5l-58 29q-15 -6 -30 -13t-27 -17t-20 -23.5t-8 -32.5q0 -20 8 -34t20 -25t27.5 -19t30.5 -15zM388 591q-12 33 -41.5 48t-61.5 15q-19 0 -38 -5t-34 -15.5t-24 -27t-9 -38.5q0 -49 44 -72l98 -49
q26 -12 53 -27t49 -34.5t36 -44.5t14 -59q0 -46 -24 -79t-62 -54q32 -21 50.5 -51t18.5 -72q0 -43 -17.5 -75t-46 -53t-65.5 -31.5t-75 -10.5q-65 0 -118.5 29.5t-78.5 93.5l77 36q14 -46 47.5 -66.5t78.5 -20.5q21 0 40.5 5t34.5 16.5t24 29t9 41.5q0 21 -9.5 36.5
t-24.5 27t-32.5 20t-33.5 16.5l-122 64q-35 18 -54 50t-19 72q0 53 28.5 86t72.5 54q-35 20 -56 48.5t-21 69.5q0 40 16.5 70.5t43.5 50.5t61.5 30.5t70.5 10.5q26 0 52 -5.5t49.5 -16.5t42.5 -29t31 -43z" />
    <glyph glyph-name="dieresis" unicode="&#xa8;" horiz-adv-x="240" 
d="M219 684q23 0 38.5 -16t15.5 -38q0 -23 -15.5 -38.5t-38.5 -15.5t-38.5 15.5t-15.5 38.5q0 22 15.5 38t38.5 16zM21 684q23 0 38.5 -16t15.5 -38q0 -23 -15.5 -38.5t-38.5 -15.5t-38.5 15.5t-15.5 38.5q0 22 15.5 38t38.5 16z" />
    <glyph glyph-name="copyright" unicode="&#xa9;" horiz-adv-x="800" 
d="M94 354q0 -68 24 -126t65 -100.5t97 -67t120 -24.5t119.5 24.5t97 67t65.5 100.5t24 126q0 67 -24 125.5t-65.5 101t-97 67t-119.5 24.5t-120 -24.5t-97 -67t-65 -101t-24 -125.5zM28 354q0 79 29.5 147.5t80.5 118t118.5 78t143.5 28.5t143.5 -28.5t118.5 -78t80.5 -118
t29.5 -147.5q0 -80 -29.5 -148t-80.5 -117.5t-118.5 -78t-143.5 -28.5t-143.5 28.5t-118.5 78t-80.5 117.5t-29.5 148zM600 282q-16 -72 -66 -114t-119 -42q-51 0 -92 17.5t-70 48t-44.5 72t-15.5 90.5t15 91t43 72t69 47t92 17q35 0 66.5 -9.5t56.5 -28.5t41.5 -47.5
t22.5 -65.5h-61q-8 42 -41.5 69.5t-83.5 27.5q-37 0 -66 -13.5t-48.5 -36.5t-29.5 -54.5t-10 -68.5q0 -35 11 -66.5t31.5 -55.5t49 -38t64.5 -14q50 0 83 29t40 73h62z" />
    <glyph glyph-name="ordfeminine" unicode="&#xaa;" horiz-adv-x="337" 
d="M192 559q-12 0 -28 -0.5t-30.5 -5t-24.5 -14t-10 -26.5t16 -26t41 -9q41 0 62.5 21t21.5 43v17h-48zM300 473q0 -11 1 -21.5t3 -21.5h-61q-3 24 -3 45h-2q-14 -28 -39 -39.5t-61 -11.5q-46 0 -75.5 21.5t-29.5 66.5q0 35 19.5 54t47.5 28t60 11t57 2h23v14q0 14 -18 29.5
t-55 15.5q-29 0 -53.5 -10t-35.5 -21l-31 42q23 22 55 32.5t65 10.5q72 0 102.5 -29.5t30.5 -89.5v-128z" />
    <glyph glyph-name="guillemotleft" unicode="&#xab;" horiz-adv-x="500" 
d="M325 240l117 -178l-55 -36l-143 214l143 214l55 -36zM139 240l117 -178l-55 -36l-143 214l143 214l55 -36z" />
    <glyph glyph-name="logicalnot" unicode="&#xac;" horiz-adv-x="666" 
d="M72 414h522v-278h-66v212h-456v66z" />
    <glyph glyph-name="registered" unicode="&#xae;" horiz-adv-x="800" 
d="M94 354q0 -68 24 -126t65 -100.5t97 -67t120 -24.5t119.5 24.5t97 67t65.5 100.5t24 126q0 67 -24 125.5t-65.5 101t-97 67t-119.5 24.5t-120 -24.5t-97 -67t-65 -101t-24 -125.5zM28 354q0 79 29.5 147.5t80.5 118t118.5 78t143.5 28.5t143.5 -28.5t118.5 -78t80.5 -118
t29.5 -147.5q0 -80 -29.5 -148t-80.5 -117.5t-118.5 -78t-143.5 -28.5t-143.5 28.5t-118.5 78t-80.5 117.5t-29.5 148zM324 378h68q22 0 43 1.5t37 8.5t26 22t10 41q0 22 -9 35.5t-23 20.5t-31 9t-34 2h-87v-140zM258 572h164q152 0 152 -124q0 -59 -33 -86.5t-82 -32.5
l125 -192h-71l-118 187h-71v-187h-66v435z" />
    <glyph glyph-name="macron" unicode="&#xaf;" horiz-adv-x="240" 
d="M258 600h-276v60h276v-60z" />
    <glyph glyph-name="macron" unicode="&#x2c9;" horiz-adv-x="240" 
d="M258 600h-276v60h276v-60z" />
    <glyph glyph-name="degree" unicode="&#xb0;" horiz-adv-x="400" 
d="M111 577q0 -15 6.5 -31t18 -29t28 -21t36.5 -8t36.5 8t28 21t18 29t6.5 31t-6.5 31t-18 29t-28 21t-36.5 8t-36.5 -8t-28 -21t-18 -29t-6.5 -31zM57 577q0 30 11 56t30.5 45.5t45.5 30.5t56 11t56 -11t45.5 -30.5t30.5 -45.5t11 -56t-11 -56t-30.5 -45.5t-45.5 -30.5
t-56 -11t-56 11t-45.5 30.5t-30.5 45.5t-11 56z" />
    <glyph glyph-name="plusminus" unicode="&#xb1;" horiz-adv-x="666" 
d="M72 108h522v-66h-522v66zM72 396h228v168h66v-168h228v-66h-228v-168h-66v168h-228v66z" />
    <glyph glyph-name="twosuperior" unicode="&#xb2;" horiz-adv-x="361" 
d="M32 347l168 151q28 25 43.5 45t15.5 52q0 33 -21.5 52t-50.5 19q-32 0 -54.5 -18t-28.5 -49l-63 5q9 60 48.5 88t95.5 28q28 0 53.5 -7.5t45 -23t30.5 -39t11 -55.5q0 -26 -7.5 -46t-20 -37.5t-28.5 -32.5t-33 -30l-120 -104v-2h213v-54h-297v58z" />
    <glyph glyph-name="threesuperior" unicode="&#xb3;" horiz-adv-x="361" 
d="M140 538h17q12 0 28 2.5t30.5 9.5t24 20.5t9.5 36.5q0 32 -21 45.5t-50 13.5q-26 0 -47.5 -9t-33.5 -33l-55 25q19 38 55 54.5t81 16.5q27 0 52 -7t44 -21t30 -35t11 -48q0 -33 -22 -60t-57 -37v-2q45 -6 69.5 -36t24.5 -70q0 -30 -12 -52.5t-33 -37.5t-48.5 -23
t-58.5 -8q-52 0 -91 20.5t-56 71.5l54 23q4 -10 11 -21t18.5 -20t27 -14.5t36.5 -5.5q33 0 59.5 17.5t26.5 52.5q0 24 -10 39t-26 23.5t-35 11.5t-37 3h-16v54z" />
    <glyph glyph-name="acute" unicode="&#xb4;" horiz-adv-x="240" 
d="M155 708h110l-143 -144h-71z" />
    <glyph glyph-name="mu" unicode="&#xb5;" 
d="M482 111q0 -32 2 -60t2 -51h-74q0 19 -1 38t-1 39h-2q-8 -17 -22.5 -33t-34.5 -28.5t-45 -20t-54 -7.5q-32 0 -54.5 5.5t-45.5 19.5v-241h-78v696h78v-281q0 -59 26 -93t81 -34q38 0 65.5 13t45 37t26 57t8.5 73v228h78v-357z" />
    <glyph glyph-name="mu" unicode="&#x3bc;" 
d="M482 111q0 -32 2 -60t2 -51h-74q0 19 -1 38t-1 39h-2q-8 -17 -22.5 -33t-34.5 -28.5t-45 -20t-54 -7.5q-32 0 -54.5 5.5t-45.5 19.5v-241h-78v696h78v-281q0 -59 26 -93t81 -34q38 0 65.5 13t45 37t26 57t8.5 73v228h78v-357z" />
    <glyph glyph-name="paragraph" unicode="&#xb6;" horiz-adv-x="600" 
d="M292 316q-46 0 -84.5 14.5t-66 39.5t-43 59t-15.5 73q0 98 61 152t167 54h243v-834h-72v768h-118v-768h-72v442z" />
    <glyph glyph-name="periodcentered" unicode="&#xb7;" horiz-adv-x="278" 
d="M139 369q25 0 42.5 -17.5t17.5 -42.5t-18.5 -42.5t-41.5 -17.5t-41.5 17.5t-18.5 42.5t17.5 42.5t42.5 17.5z" />
    <glyph glyph-name="periodcentered" unicode="&#x2219;" horiz-adv-x="278" 
d="M139 369q25 0 42.5 -17.5t17.5 -42.5t-18.5 -42.5t-41.5 -17.5t-41.5 17.5t-18.5 42.5t17.5 42.5t42.5 17.5z" />
    <glyph glyph-name="cedilla" unicode="&#xb8;" horiz-adv-x="240" 
d="M113 -64q7 1 15 2.5t20 1.5q13 0 27 -4t26 -12.5t19.5 -21.5t7.5 -31q0 -24 -10.5 -41t-27.5 -27.5t-38 -15t-41 -4.5q-26 0 -51 5t-48 16l17 37q35 -16 72 -16q10 0 20.5 2t19.5 6.5t15 12.5t6 20q0 21 -17.5 29.5t-34.5 8.5q-10 0 -20 -2.5t-19 -5.5l-20 19l62 85h45z
" />
    <glyph glyph-name="onesuperior" unicode="&#xb9;" horiz-adv-x="361" 
d="M173 641h-2l-81 -66l-33 46l124 93h58v-425h-66v352z" />
    <glyph glyph-name="ordmasculine" unicode="&#xba;" horiz-adv-x="386" 
d="M96 573q0 -19 6.5 -36t19.5 -30t30.5 -21t40.5 -8q22 0 40 8t31 21t19.5 30.5t6.5 35.5t-6.5 34.5t-19.5 29.5t-31 21t-40 8q-23 0 -40.5 -8t-30.5 -21t-19.5 -29.5t-6.5 -34.5zM30 573q0 33 12 60t34 46.5t52 30t65 10.5t65 -10.5t51.5 -30t34 -46.5t12.5 -60
q0 -34 -12.5 -61.5t-34 -47t-51.5 -30t-65 -10.5t-65 10.5t-52 30t-34 47t-12 61.5z" />
    <glyph glyph-name="guillemotright" unicode="&#xbb;" horiz-adv-x="500" 
d="M361 240l-117 178l55 36l143 -214l-143 -214l-55 36zM175 240l-117 178l55 36l143 -214l-143 -214l-55 36z" />
    <glyph glyph-name="onequarter" unicode="&#xbc;" horiz-adv-x="834" 
d="M673 347h-2l-133 -203h135v203zM739 144h56v-54h-56v-90h-66v90h-195v63l183 272h78v-281zM155 642h-2l-81 -67l-33 46l124 93h58v-425h-66v353zM593 740l55 -32l-444 -740l-55 32z" />
    <glyph glyph-name="onehalf" unicode="&#xbd;" horiz-adv-x="834" 
d="M504 58l168 151q28 25 43.5 45t15.5 52q0 33 -21.5 52t-50.5 19q-32 0 -54.5 -18t-28.5 -49l-63 5q9 60 48.5 88t95.5 28q28 0 53.5 -7.5t45 -23t30.5 -39t11 -55.5q0 -26 -7.5 -46t-20 -37.5t-28.5 -32.5t-33 -30l-120 -104v-2h213v-54h-297v58zM149 642h-2l-81 -67
l-33 46l124 93h58v-425h-66v353zM576 740l55 -32l-444 -740l-55 32z" />
    <glyph glyph-name="threequarters" unicode="&#xbe;" horiz-adv-x="834" 
d="M687 347h-2l-133 -201v-2h135v203zM753 144h56v-54h-56v-90h-66v90h-195v63l183 272h78v-281zM135 538h16q13 0 29 2.5t30 9.5t24 20.5t10 36.5q0 32 -21 45.5t-50 13.5q-26 0 -47.5 -9t-33.5 -33l-55 25q19 38 55 54.5t81 16.5q27 0 52 -7t44 -21t30 -35t11 -48
q0 -33 -22 -60t-57 -37v-2q45 -6 69.5 -36t24.5 -70q0 -30 -12 -52.5t-33 -37.5t-48.5 -23t-58.5 -8q-52 0 -91.5 20.5t-56.5 71.5l55 23q4 -10 11 -21t18.5 -20t27 -14.5t36.5 -5.5q33 0 59.5 17.5t26.5 52.5q0 24 -10 39t-26 23.5t-35 11.5t-37 3h-16v54zM632 740l55 -32
l-444 -740l-55 32z" />
    <glyph glyph-name="questiondown" unicode="&#xbf;" horiz-adv-x="482" 
d="M251 372q-25 0 -42.5 17.5t-17.5 42.5t18.5 42.5t41.5 17.5t41.5 -17.5t18.5 -42.5t-17.5 -42.5t-42.5 -17.5zM455 -69q-7 -41 -25.5 -73t-46.5 -53.5t-64 -33t-77 -11.5t-76.5 11.5t-62 34t-41.5 56t-15 76.5q0 33 9.5 59.5t25 49t36 43t43.5 41.5q16 15 25.5 26
t14.5 23t6.5 26.5t1.5 35.5v46h84v-63q0 -28 -3.5 -46t-11.5 -32.5t-21.5 -29t-32.5 -33.5q-15 -16 -30.5 -31.5t-28 -32.5t-20.5 -36t-8 -43q0 -48 28 -78.5t78 -30.5q51 0 82.5 30t39.5 79z" />
    <glyph glyph-name="Agrave" unicode="&#xc0;" horiz-adv-x="704" 
d="M356 600h-2l-147 -348h289zM318 708h79l301 -708h-98l-72 174h-354l-73 -174h-95zM421 758h-71l-143 144h110z" />
    <glyph glyph-name="Aacute" unicode="&#xc1;" horiz-adv-x="704" 
d="M356 600h-2l-147 -348h289zM318 708h79l301 -708h-98l-72 174h-354l-73 -174h-95zM387 902h110l-143 -144h-71z" />
    <glyph glyph-name="Acircumflex" unicode="&#xc2;" horiz-adv-x="704" 
d="M356 600h-2l-147 -348h289zM318 708h79l301 -708h-98l-72 174h-354l-73 -174h-95zM306 902h91l112 -144h-81l-79 102l-78 -102h-76z" />
    <glyph glyph-name="Atilde" unicode="&#xc3;" horiz-adv-x="704" 
d="M356 600h-2l-147 -348h289zM318 708h79l301 -708h-98l-72 174h-354l-73 -174h-95zM185 770q3 19 10.5 38t20 33.5t30 23.5t39.5 9q23 0 43.5 -7.5t40.5 -15.5q15 -6 26.5 -11.5t27.5 -5.5q20 0 31.5 13t16.5 31h48q-3 -19 -9.5 -37.5t-18 -33.5t-27.5 -24t-38 -9
q-21 0 -41.5 6.5t-39.5 14.5q-15 6 -32 12.5t-34 6.5q-19 0 -30 -13.5t-16 -30.5h-48z" />
    <glyph glyph-name="Adieresis" unicode="&#xc4;" horiz-adv-x="704" 
d="M356 600h-2l-147 -348h289zM318 708h79l301 -708h-98l-72 174h-354l-73 -174h-95zM451 878q23 0 38.5 -16t15.5 -38q0 -23 -15.5 -38.5t-38.5 -15.5t-38.5 15.5t-15.5 38.5q0 22 15.5 38t38.5 16zM253 878q23 0 38.5 -16t15.5 -38q0 -23 -15.5 -38.5t-38.5 -15.5
t-38.5 15.5t-15.5 38.5q0 22 15.5 38t38.5 16z" />
    <glyph glyph-name="Aring" unicode="&#xc5;" horiz-adv-x="704" 
d="M356 600h-2l-147 -348h289zM318 708h79l301 -708h-98l-72 174h-354l-73 -174h-95zM295 829q0 -25 17.5 -41t39.5 -16t39.5 16t17.5 41q0 24 -17.5 40.5t-39.5 16.5t-39.5 -16.5t-17.5 -40.5zM253 829q0 20 7.5 38t20.5 31.5t31.5 21.5t39.5 8q44 0 71.5 -29.5t27.5 -69.5
q0 -41 -28 -70t-71 -29t-71 29t-28 70z" />
    <glyph glyph-name="AE" unicode="&#xc6;" horiz-adv-x="944" 
d="M507 630h-12l-231 -360h243v360zM450 708h435v-78h-294v-222h276v-78h-276v-252h306v-78h-390v192h-293l-123 -192h-101z" />
    <glyph glyph-name="Ccedilla" unicode="&#xc7;" horiz-adv-x="704" 
d="M584 562q-32 43 -79 64.5t-98 21.5q-59 0 -108.5 -24t-85.5 -64.5t-56 -94t-20 -111.5q0 -62 20 -115.5t55.5 -93t85 -62.5t109.5 -23q65 0 116 25.5t89 73.5l63 -53q-48 -64 -115.5 -94t-152.5 -30l-32 -46q7 1 15 2.5t20 1.5q13 0 27 -4t26 -12.5t19.5 -21.5t7.5 -31
q0 -24 -10.5 -41t-27.5 -27.5t-38 -15t-41 -4.5q-26 0 -51 5t-48 16l17 37q35 -16 72 -16q10 0 20.5 2t19.5 6.5t15 12.5t6 20q0 21 -17.5 29.5t-34.5 8.5q-10 0 -20 -2.5t-19 -5.5l-20 19l51 70q-68 7 -126 37.5t-100.5 79t-66.5 113t-24 139.5q0 78 26.5 146t74.5 118
t114 79t145 29q72 0 138.5 -26t111.5 -85z" />
    <glyph glyph-name="Egrave" unicode="&#xc8;" horiz-adv-x="593" 
d="M88 708h445v-78h-361v-222h337v-78h-337v-252h379v-78h-463v708zM366 758h-71l-143 144h110z" />
    <glyph glyph-name="Eacute" unicode="&#xc9;" horiz-adv-x="593" 
d="M88 708h445v-78h-361v-222h337v-78h-337v-252h379v-78h-463v708zM332 902h110l-143 -144h-71z" />
    <glyph glyph-name="Ecircumflex" unicode="&#xca;" horiz-adv-x="593" 
d="M88 708h445v-78h-361v-222h337v-78h-337v-252h379v-78h-463v708zM251 902h91l112 -144h-81l-79 102l-78 -102h-76z" />
    <glyph glyph-name="Edieresis" unicode="&#xcb;" horiz-adv-x="593" 
d="M88 708h445v-78h-361v-222h337v-78h-337v-252h379v-78h-463v708zM396 878q23 0 38.5 -16t15.5 -38q0 -23 -15.5 -38.5t-38.5 -15.5t-38.5 15.5t-15.5 38.5q0 22 15.5 38t38.5 16zM198 878q23 0 38.5 -16t15.5 -38q0 -23 -15.5 -38.5t-38.5 -15.5t-38.5 15.5t-15.5 38.5
q0 22 15.5 38t38.5 16z" />
    <glyph glyph-name="Igrave" unicode="&#xcc;" horiz-adv-x="260" 
d="M88 708h84v-708h-84v708zM199 758h-71l-143 144h110z" />
    <glyph glyph-name="Iacute" unicode="&#xcd;" horiz-adv-x="260" 
d="M88 708h84v-708h-84v708zM165 902h110l-143 -144h-71z" />
    <glyph glyph-name="Icircumflex" unicode="&#xce;" horiz-adv-x="260" 
d="M88 708h84v-708h-84v708zM84 902h91l112 -144h-81l-79 102l-78 -102h-76z" />
    <glyph glyph-name="Idieresis" unicode="&#xcf;" horiz-adv-x="260" 
d="M88 708h84v-708h-84v708zM229 878q23 0 38.5 -16t15.5 -38q0 -23 -15.5 -38.5t-38.5 -15.5t-38.5 15.5t-15.5 38.5q0 22 15.5 38t38.5 16zM31 878q23 0 38.5 -16t15.5 -38q0 -23 -15.5 -38.5t-38.5 -15.5t-38.5 15.5t-15.5 38.5q0 22 15.5 38t38.5 16z" />
    <glyph glyph-name="Eth" unicode="&#xd0;" horiz-adv-x="741" 
d="M159 402h252v-66h-252v-258h160q61 0 113 16t90 49.5t60 85.5t22 125t-22 125t-60 85.5t-90 49.5t-113 16h-160v-228zM75 708h272q35 0 74 -8t77.5 -25.5t74 -45.5t62.5 -67.5t43 -91t16 -116.5t-16 -116.5t-43 -91t-62.5 -67.5t-74 -45.5t-77.5 -25.5t-74 -8h-272v336
h-72v66h72v306z" />
    <glyph glyph-name="Ntilde" unicode="&#xd1;" horiz-adv-x="778" 
d="M88 708h106l410 -588h2v588h84v-708h-106l-410 588h-2v-588h-84v708zM222 770q3 19 10.5 38t20 33.5t30 23.5t39.5 9q23 0 43.5 -7.5t40.5 -15.5q15 -6 26.5 -11.5t27.5 -5.5q20 0 31.5 13t16.5 31h48q-3 -19 -9.5 -37.5t-18 -33.5t-27.5 -24t-38 -9q-21 0 -41.5 6.5
t-39.5 14.5q-15 6 -32 12.5t-34 6.5q-19 0 -30 -13.5t-16 -30.5h-48z" />
    <glyph glyph-name="Ograve" unicode="&#xd2;" horiz-adv-x="834" 
d="M417 60q62 0 113.5 23t88.5 63t57.5 93.5t20.5 114.5t-20.5 114.5t-57.5 93.5t-88.5 63t-113.5 23t-113.5 -23t-88.5 -63t-57.5 -93.5t-20.5 -114.5t20.5 -114.5t57.5 -93.5t88.5 -63t113.5 -23zM417 -18q-81 0 -148.5 28t-117 77.5t-77 118t-27.5 148.5t27.5 148.5
t77 118t117 77.5t148.5 28t148.5 -28t117 -77.5t77 -118t27.5 -148.5t-27.5 -148.5t-77 -118t-117 -77.5t-148.5 -28zM486 758h-71l-143 144h110z" />
    <glyph glyph-name="Oacute" unicode="&#xd3;" horiz-adv-x="834" 
d="M417 60q62 0 113.5 23t88.5 63t57.5 93.5t20.5 114.5t-20.5 114.5t-57.5 93.5t-88.5 63t-113.5 23t-113.5 -23t-88.5 -63t-57.5 -93.5t-20.5 -114.5t20.5 -114.5t57.5 -93.5t88.5 -63t113.5 -23zM417 -18q-81 0 -148.5 28t-117 77.5t-77 118t-27.5 148.5t27.5 148.5
t77 118t117 77.5t148.5 28t148.5 -28t117 -77.5t77 -118t27.5 -148.5t-27.5 -148.5t-77 -118t-117 -77.5t-148.5 -28zM452 902h110l-143 -144h-71z" />
    <glyph glyph-name="Ocircumflex" unicode="&#xd4;" horiz-adv-x="834" 
d="M417 60q62 0 113.5 23t88.5 63t57.5 93.5t20.5 114.5t-20.5 114.5t-57.5 93.5t-88.5 63t-113.5 23t-113.5 -23t-88.5 -63t-57.5 -93.5t-20.5 -114.5t20.5 -114.5t57.5 -93.5t88.5 -63t113.5 -23zM417 -18q-81 0 -148.5 28t-117 77.5t-77 118t-27.5 148.5t27.5 148.5
t77 118t117 77.5t148.5 28t148.5 -28t117 -77.5t77 -118t27.5 -148.5t-27.5 -148.5t-77 -118t-117 -77.5t-148.5 -28zM371 902h91l112 -144h-81l-79 102l-78 -102h-76z" />
    <glyph glyph-name="Otilde" unicode="&#xd5;" horiz-adv-x="834" 
d="M417 60q62 0 113.5 23t88.5 63t57.5 93.5t20.5 114.5t-20.5 114.5t-57.5 93.5t-88.5 63t-113.5 23t-113.5 -23t-88.5 -63t-57.5 -93.5t-20.5 -114.5t20.5 -114.5t57.5 -93.5t88.5 -63t113.5 -23zM417 -18q-81 0 -148.5 28t-117 77.5t-77 118t-27.5 148.5t27.5 148.5
t77 118t117 77.5t148.5 28t148.5 -28t117 -77.5t77 -118t27.5 -148.5t-27.5 -148.5t-77 -118t-117 -77.5t-148.5 -28zM250 770q3 19 10.5 38t20 33.5t30 23.5t39.5 9q23 0 43.5 -7.5t40.5 -15.5q15 -6 26.5 -11.5t27.5 -5.5q20 0 31.5 13t16.5 31h48q-3 -19 -9.5 -37.5
t-18 -33.5t-27.5 -24t-38 -9q-21 0 -41.5 6.5t-39.5 14.5q-15 6 -32 12.5t-34 6.5q-19 0 -30 -13.5t-16 -30.5h-48z" />
    <glyph glyph-name="Odieresis" unicode="&#xd6;" horiz-adv-x="834" 
d="M417 60q62 0 113.5 23t88.5 63t57.5 93.5t20.5 114.5t-20.5 114.5t-57.5 93.5t-88.5 63t-113.5 23t-113.5 -23t-88.5 -63t-57.5 -93.5t-20.5 -114.5t20.5 -114.5t57.5 -93.5t88.5 -63t113.5 -23zM417 -18q-81 0 -148.5 28t-117 77.5t-77 118t-27.5 148.5t27.5 148.5
t77 118t117 77.5t148.5 28t148.5 -28t117 -77.5t77 -118t27.5 -148.5t-27.5 -148.5t-77 -118t-117 -77.5t-148.5 -28zM516 878q23 0 38.5 -16t15.5 -38q0 -23 -15.5 -38.5t-38.5 -15.5t-38.5 15.5t-15.5 38.5q0 22 15.5 38t38.5 16zM318 878q23 0 38.5 -16t15.5 -38
q0 -23 -15.5 -38.5t-38.5 -15.5t-38.5 15.5t-15.5 38.5q0 22 15.5 38t38.5 16z" />
    <glyph glyph-name="multiply" unicode="&#xd7;" horiz-adv-x="666" 
d="M333 351l193 193l48 -47l-194 -194l194 -192l-48 -49l-193 194l-193 -194l-48 47l193 194l-193 192l49 49z" />
    <glyph glyph-name="Oslash" unicode="&#xd8;" horiz-adv-x="834" 
d="M141 99q-45 50 -69.5 114.5t-24.5 140.5q0 80 27.5 148.5t77 118t117 77.5t148.5 28q67 0 124.5 -19.5t105.5 -55.5l79 87l42 -38l-79 -86q46 -49 72 -115.5t26 -144.5q0 -80 -27.5 -148.5t-77 -118t-117 -77.5t-148.5 -28q-70 0 -129.5 20.5t-106.5 58.5l-81 -88l-40 38
zM590 589q-35 28 -78.5 43.5t-94.5 15.5q-62 0 -113.5 -23t-88.5 -63t-57.5 -93.5t-20.5 -114.5q0 -55 16.5 -103.5t46.5 -86.5zM239 124q35 -30 80 -47t98 -17q62 0 113.5 23t88.5 63t57.5 93.5t20.5 114.5q0 57 -17.5 107t-49.5 89z" />
    <glyph glyph-name="Ugrave" unicode="&#xd9;" horiz-adv-x="704" 
d="M619 270q0 -58 -14.5 -110t-46 -91.5t-82.5 -63t-124 -23.5t-124 23.5t-82.5 63t-46 91.5t-14.5 110v438h84v-426q0 -43 9 -83t30 -71t56 -49.5t88 -18.5t88 18.5t56 49.5t30 71t9 83v426h84v-438zM421 758h-71l-143 144h110z" />
    <glyph glyph-name="Uacute" unicode="&#xda;" horiz-adv-x="704" 
d="M619 270q0 -58 -14.5 -110t-46 -91.5t-82.5 -63t-124 -23.5t-124 23.5t-82.5 63t-46 91.5t-14.5 110v438h84v-426q0 -43 9 -83t30 -71t56 -49.5t88 -18.5t88 18.5t56 49.5t30 71t9 83v426h84v-438zM387 902h110l-143 -144h-71z" />
    <glyph glyph-name="Ucircumflex" unicode="&#xdb;" horiz-adv-x="704" 
d="M619 270q0 -58 -14.5 -110t-46 -91.5t-82.5 -63t-124 -23.5t-124 23.5t-82.5 63t-46 91.5t-14.5 110v438h84v-426q0 -43 9 -83t30 -71t56 -49.5t88 -18.5t88 18.5t56 49.5t30 71t9 83v426h84v-438zM306 902h91l112 -144h-81l-79 102l-78 -102h-76z" />
    <glyph glyph-name="Udieresis" unicode="&#xdc;" horiz-adv-x="704" 
d="M619 270q0 -58 -14.5 -110t-46 -91.5t-82.5 -63t-124 -23.5t-124 23.5t-82.5 63t-46 91.5t-14.5 110v438h84v-426q0 -43 9 -83t30 -71t56 -49.5t88 -18.5t88 18.5t56 49.5t30 71t9 83v426h84v-438zM451 878q23 0 38.5 -16t15.5 -38q0 -23 -15.5 -38.5t-38.5 -15.5
t-38.5 15.5t-15.5 38.5q0 22 15.5 38t38.5 16zM253 878q23 0 38.5 -16t15.5 -38q0 -23 -15.5 -38.5t-38.5 -15.5t-38.5 15.5t-15.5 38.5q0 22 15.5 38t38.5 16z" />
    <glyph glyph-name="Yacute" unicode="&#xdd;" horiz-adv-x="594" 
d="M255 305l-264 403h107l199 -320l205 320h101l-264 -403v-305h-84v305zM332 902h110l-143 -144h-71z" />
    <glyph glyph-name="Thorn" unicode="&#xde;" horiz-adv-x="593" 
d="M172 271h142q63 0 102.5 28.5t39.5 88.5t-39.5 88.5t-102.5 28.5h-142v-234zM88 708h84v-125h126q49 0 93.5 -9.5t79 -32t55 -60t20.5 -92.5q0 -58 -22 -96t-56.5 -60t-75.5 -31t-78 -9h-142v-193h-84v708z" />
    <glyph glyph-name="germandbls" unicode="&#xdf;" horiz-adv-x="593" 
d="M74 540q0 46 12 87t38.5 72.5t68 50t100.5 18.5q41 0 76.5 -12t62 -34.5t42 -55.5t15.5 -76q0 -57 -28 -98t-82 -60v-2q42 -4 73.5 -22.5t53 -47.5t32.5 -65.5t11 -76.5q0 -53 -18 -95.5t-50 -72.5t-76 -46t-95 -16q-16 0 -31.5 2t-30.5 7v71q23 -8 52 -8q37 0 67.5 12
t52.5 33.5t33.5 52t11.5 67.5q0 40 -13 71.5t-36.5 53.5t-56 33.5t-71.5 11.5h-23v66h22q54 0 89 32t35 88q0 54 -35 84.5t-87 30.5q-40 0 -66.5 -13.5t-42 -36t-22 -52t-6.5 -61.5v-533h-78v540z" />
    <glyph glyph-name="agrave" unicode="&#xe0;" horiz-adv-x="519" 
d="M294 225q-75 0 -119 -21t-44 -69q0 -44 29.5 -62.5t73.5 -18.5q34 0 59.5 11.5t42.5 30.5t26 44.5t10 54.5v30h-78zM68 408q36 37 85.5 54.5t100.5 17.5q104 0 150 -49t46 -149v-201q0 -20 2 -41.5t5 -39.5h-75q-4 16 -4.5 35.5t-0.5 34.5h-2q-23 -36 -61.5 -59
t-92.5 -23q-36 0 -67.5 9t-55 26.5t-37.5 43.5t-14 60q0 58 30 91t74.5 49t96 20t94.5 4h30v14q0 51 -30.5 77t-85.5 26q-38 0 -74.5 -12.5t-64.5 -38.5zM329 580h-71l-143 144h110z" />
    <glyph glyph-name="aacute" unicode="&#xe1;" horiz-adv-x="519" 
d="M294 225q-75 0 -119 -21t-44 -69q0 -44 29.5 -62.5t73.5 -18.5q34 0 59.5 11.5t42.5 30.5t26 44.5t10 54.5v30h-78zM68 408q36 37 85.5 54.5t100.5 17.5q104 0 150 -49t46 -149v-201q0 -20 2 -41.5t5 -39.5h-75q-4 16 -4.5 35.5t-0.5 34.5h-2q-23 -36 -61.5 -59
t-92.5 -23q-36 0 -67.5 9t-55 26.5t-37.5 43.5t-14 60q0 58 30 91t74.5 49t96 20t94.5 4h30v14q0 51 -30.5 77t-85.5 26q-38 0 -74.5 -12.5t-64.5 -38.5zM295 724h110l-143 -144h-71z" />
    <glyph glyph-name="acircumflex" unicode="&#xe2;" horiz-adv-x="519" 
d="M294 225q-75 0 -119 -21t-44 -69q0 -44 29.5 -62.5t73.5 -18.5q34 0 59.5 11.5t42.5 30.5t26 44.5t10 54.5v30h-78zM68 408q36 37 85.5 54.5t100.5 17.5q104 0 150 -49t46 -149v-201q0 -20 2 -41.5t5 -39.5h-75q-4 16 -4.5 35.5t-0.5 34.5h-2q-23 -36 -61.5 -59
t-92.5 -23q-36 0 -67.5 9t-55 26.5t-37.5 43.5t-14 60q0 58 30 91t74.5 49t96 20t94.5 4h30v14q0 51 -30.5 77t-85.5 26q-38 0 -74.5 -12.5t-64.5 -38.5zM214 724h91l112 -144h-81l-79 102l-78 -102h-76z" />
    <glyph glyph-name="atilde" unicode="&#xe3;" horiz-adv-x="519" 
d="M294 225q-75 0 -119 -21t-44 -69q0 -44 29.5 -62.5t73.5 -18.5q34 0 59.5 11.5t42.5 30.5t26 44.5t10 54.5v30h-78zM68 408q36 37 85.5 54.5t100.5 17.5q104 0 150 -49t46 -149v-201q0 -20 2 -41.5t5 -39.5h-75q-4 16 -4.5 35.5t-0.5 34.5h-2q-23 -36 -61.5 -59
t-92.5 -23q-36 0 -67.5 9t-55 26.5t-37.5 43.5t-14 60q0 58 30 91t74.5 49t96 20t94.5 4h30v14q0 51 -30.5 77t-85.5 26q-38 0 -74.5 -12.5t-64.5 -38.5zM93 592q3 19 10.5 38t20 33.5t30 23.5t39.5 9q23 0 43.5 -7.5t40.5 -15.5q15 -6 26.5 -11.5t27.5 -5.5q20 0 31.5 13
t16.5 31h48q-3 -19 -9.5 -37.5t-18 -33.5t-27.5 -24t-38 -9q-21 0 -41.5 6.5t-39.5 14.5q-15 6 -32 12.5t-34 6.5q-19 0 -30 -13.5t-16 -30.5h-48z" />
    <glyph glyph-name="adieresis" unicode="&#xe4;" horiz-adv-x="519" 
d="M294 225q-75 0 -119 -21t-44 -69q0 -44 29.5 -62.5t73.5 -18.5q34 0 59.5 11.5t42.5 30.5t26 44.5t10 54.5v30h-78zM68 408q36 37 85.5 54.5t100.5 17.5q104 0 150 -49t46 -149v-201q0 -20 2 -41.5t5 -39.5h-75q-4 16 -4.5 35.5t-0.5 34.5h-2q-23 -36 -61.5 -59
t-92.5 -23q-36 0 -67.5 9t-55 26.5t-37.5 43.5t-14 60q0 58 30 91t74.5 49t96 20t94.5 4h30v14q0 51 -30.5 77t-85.5 26q-38 0 -74.5 -12.5t-64.5 -38.5zM359 700q23 0 38.5 -16t15.5 -38q0 -23 -15.5 -38.5t-38.5 -15.5t-38.5 15.5t-15.5 38.5q0 22 15.5 38t38.5 16z
M161 700q23 0 38.5 -16t15.5 -38q0 -23 -15.5 -38.5t-38.5 -15.5t-38.5 15.5t-15.5 38.5q0 22 15.5 38t38.5 16z" />
    <glyph glyph-name="aring" unicode="&#xe5;" horiz-adv-x="519" 
d="M294 225q-75 0 -119 -21t-44 -69q0 -44 29.5 -62.5t73.5 -18.5q34 0 59.5 11.5t42.5 30.5t26 44.5t10 54.5v30h-78zM68 408q36 37 85.5 54.5t100.5 17.5q104 0 150 -49t46 -149v-201q0 -20 2 -41.5t5 -39.5h-75q-4 16 -4.5 35.5t-0.5 34.5h-2q-23 -36 -61.5 -59
t-92.5 -23q-36 0 -67.5 9t-55 26.5t-37.5 43.5t-14 60q0 58 30 91t74.5 49t96 20t94.5 4h30v14q0 51 -30.5 77t-85.5 26q-38 0 -74.5 -12.5t-64.5 -38.5zM203 661q0 -25 17.5 -41t39.5 -16t39.5 16t17.5 41q0 24 -17.5 40.5t-39.5 16.5t-39.5 -16.5t-17.5 -40.5zM161 661
q0 20 7.5 38t20.5 31.5t31.5 21.5t39.5 8q44 0 71.5 -29.5t27.5 -69.5q0 -41 -28 -70t-71 -29t-71 29t-28 70z" />
    <glyph glyph-name="ae" unicode="&#xe6;" horiz-adv-x="852" 
d="M726 276q-2 60 -39 96t-102 36q-29 0 -53.5 -11.5t-42.5 -30t-28.5 -42.5t-11.5 -48h277zM260 210q-21 0 -43.5 -3.5t-41.5 -12t-31.5 -23.5t-12.5 -39q0 -20 9.5 -33.5t25.5 -22t35 -12.5t39 -4q61 0 99 38t38 99v13h-117zM793 85q-42 -54 -92 -75.5t-116 -21.5
q-34 0 -62.5 9t-51 23.5t-39 32.5t-25.5 36q-28 -56 -77.5 -78.5t-109.5 -22.5q-30 0 -61 8t-56 25t-40.5 43.5t-15.5 64.5q0 48 22.5 77t57 44.5t75.5 20.5t79 5h96v12q0 51 -28.5 85.5t-88.5 34.5q-43 0 -74 -11.5t-63 -34.5l-50 52q38 33 87 49.5t100 16.5q48 0 92 -17.5
t70 -61.5q41 43 82 61t84 18q49 0 90 -16.5t70.5 -48t45.5 -77t16 -103.5v-25h-361q0 -31 10.5 -58t28.5 -47.5t43 -32.5t54 -12q51 0 86 18t63 53z" />
    <glyph glyph-name="ccedilla" unicode="&#xe7;" horiz-adv-x="482" 
d="M407 351q-25 30 -54 43.5t-64 13.5q-39 0 -69 -13.5t-49.5 -37.5t-29.5 -55.5t-10 -67.5t11.5 -67.5t32 -55.5t49.5 -37.5t65 -13.5q77 0 119 58l58 -55q-31 -35 -72 -53t-87 -20l-38 -54q7 1 15 2.5t20 1.5q13 0 27 -4t26 -12.5t19.5 -21.5t7.5 -31q0 -24 -10.5 -41
t-27.5 -27.5t-38 -15t-41 -4.5q-26 0 -51 5t-48 16l17 37q35 -16 72 -16q10 0 20.5 2t19.5 6.5t15 12.5t6 20q0 21 -17.5 29.5t-34.5 8.5q-10 0 -20 -2.5t-19 -5.5l-20 19l55 76q-49 4 -88.5 23.5t-67.5 51.5t-43.5 74.5t-15.5 93.5q0 53 17.5 98t49.5 78t76.5 51.5
t98.5 18.5q52 0 98.5 -18t81.5 -56z" />
    <glyph glyph-name="egrave" unicode="&#xe8;" 
d="M425 276q-2 60 -39 96t-102 36t-105 -36t-48 -96h294zM492 85q-42 -54 -92 -75.5t-116 -21.5q-55 0 -99 19.5t-74.5 52.5t-47 78t-16.5 96q0 54 18 99.5t50 78t76 50.5t96 18q49 0 90 -16.5t70.5 -48t45.5 -77t16 -103.5v-25h-378q2 -30 14.5 -57.5t32.5 -48t47 -32.5
t59 -12q51 0 86 18t63 53zM347 580h-71l-143 144h110z" />
    <glyph glyph-name="eacute" unicode="&#xe9;" 
d="M425 276q-2 60 -39 96t-102 36t-105 -36t-48 -96h294zM492 85q-42 -54 -92 -75.5t-116 -21.5q-55 0 -99 19.5t-74.5 52.5t-47 78t-16.5 96q0 54 18 99.5t50 78t76 50.5t96 18q49 0 90 -16.5t70.5 -48t45.5 -77t16 -103.5v-25h-378q2 -30 14.5 -57.5t32.5 -48t47 -32.5
t59 -12q51 0 86 18t63 53zM313 724h110l-143 -144h-71z" />
    <glyph glyph-name="ecircumflex" unicode="&#xea;" 
d="M425 276q-2 60 -39 96t-102 36t-105 -36t-48 -96h294zM492 85q-42 -54 -92 -75.5t-116 -21.5q-55 0 -99 19.5t-74.5 52.5t-47 78t-16.5 96q0 54 18 99.5t50 78t76 50.5t96 18q49 0 90 -16.5t70.5 -48t45.5 -77t16 -103.5v-25h-378q2 -30 14.5 -57.5t32.5 -48t47 -32.5
t59 -12q51 0 86 18t63 53zM232 724h91l112 -144h-81l-79 102l-78 -102h-76z" />
    <glyph glyph-name="edieresis" unicode="&#xeb;" 
d="M425 276q-2 60 -39 96t-102 36t-105 -36t-48 -96h294zM492 85q-42 -54 -92 -75.5t-116 -21.5q-55 0 -99 19.5t-74.5 52.5t-47 78t-16.5 96q0 54 18 99.5t50 78t76 50.5t96 18q49 0 90 -16.5t70.5 -48t45.5 -77t16 -103.5v-25h-378q2 -30 14.5 -57.5t32.5 -48t47 -32.5
t59 -12q51 0 86 18t63 53zM377 700q23 0 38.5 -16t15.5 -38q0 -23 -15.5 -38.5t-38.5 -15.5t-38.5 15.5t-15.5 38.5q0 22 15.5 38t38.5 16zM179 700q23 0 38.5 -16t15.5 -38q0 -23 -15.5 -38.5t-38.5 -15.5t-38.5 15.5t-15.5 38.5q0 22 15.5 38t38.5 16z" />
    <glyph glyph-name="igrave" unicode="&#xec;" horiz-adv-x="240" 
d="M81 468h78v-468h-78v468zM189 580h-71l-143 144h110z" />
    <glyph glyph-name="iacute" unicode="&#xed;" horiz-adv-x="240" 
d="M81 468h78v-468h-78v468zM155 724h110l-143 -144h-71z" />
    <glyph glyph-name="icircumflex" unicode="&#xee;" horiz-adv-x="240" 
d="M81 468h78v-468h-78v468zM74 724h91l112 -144h-81l-79 102l-78 -102h-76z" />
    <glyph glyph-name="idieresis" unicode="&#xef;" horiz-adv-x="240" 
d="M81 468h78v-468h-78v468zM219 700q23 0 38.5 -16t15.5 -38q0 -23 -15.5 -38.5t-38.5 -15.5t-38.5 15.5t-15.5 38.5q0 22 15.5 38t38.5 16zM21 700q23 0 38.5 -16t15.5 -38q0 -23 -15.5 -38.5t-38.5 -15.5t-38.5 15.5t-15.5 38.5q0 22 15.5 38t38.5 16z" />
    <glyph glyph-name="eth" unicode="&#xf0;" horiz-adv-x="594" 
d="M131 234q0 -37 11.5 -68.5t33.5 -55t52.5 -37t68.5 -13.5t68.5 13.5t52.5 37t33.5 55t11.5 68.5t-11.5 68.5t-33.5 55t-52.5 37t-68.5 13.5t-68.5 -13.5t-52.5 -37t-33.5 -55t-11.5 -68.5zM234 663q-20 20 -43 39.5t-45 36.5l69 40q22 -18 46.5 -39t44.5 -41l107 54
l46 -39l-111 -56q40 -38 76 -79t63.5 -88.5t43.5 -103.5t16 -122q0 -61 -15.5 -112t-46.5 -87.5t-78 -57t-110 -20.5q-54 0 -100 18t-79 50.5t-52 77.5t-19 100t19 100t52 77.5t79 50.5t100 18q38 0 71.5 -12t58.5 -37l1 2q-28 52 -67.5 99t-83.5 91l-107 -54l-42 41z" />
    <glyph glyph-name="ntilde" unicode="&#xf1;" 
d="M74 357q0 32 -2 60t-2 51h74q0 -19 1 -38t1 -39h2q8 17 22.5 33t34.5 28.5t45 20t54 7.5q46 0 79.5 -14t55.5 -39t32.5 -60.5t10.5 -77.5v-289h-78v281q0 59 -26 93t-81 34q-38 0 -65.5 -13t-45 -37t-26 -57t-8.5 -73v-228h-78v357zM111 592q3 19 10.5 38t20 33.5
t30 23.5t39.5 9q23 0 43.5 -7.5t40.5 -15.5q15 -6 26.5 -11.5t27.5 -5.5q20 0 31.5 13t16.5 31h48q-3 -19 -9.5 -37.5t-18 -33.5t-27.5 -24t-38 -9q-21 0 -41.5 6.5t-39.5 14.5q-15 6 -32 12.5t-34 6.5q-19 0 -30 -13.5t-16 -30.5h-48z" />
    <glyph glyph-name="ograve" unicode="&#xf2;" horiz-adv-x="594" 
d="M131 234q0 -37 11.5 -68.5t33.5 -55t52.5 -37t68.5 -13.5t68.5 13.5t52.5 37t33.5 55t11.5 68.5t-11.5 68.5t-33.5 55t-52.5 37t-68.5 13.5t-68.5 -13.5t-52.5 -37t-33.5 -55t-11.5 -68.5zM47 234q0 55 19 100t52 77.5t79 50.5t100 18t100 -18t79 -50.5t52 -77.5t19 -100
t-19 -100t-52 -77.5t-79 -50.5t-100 -18t-100 18t-79 50.5t-52 77.5t-19 100zM366 580h-71l-143 144h110z" />
    <glyph glyph-name="oacute" unicode="&#xf3;" horiz-adv-x="594" 
d="M131 234q0 -37 11.5 -68.5t33.5 -55t52.5 -37t68.5 -13.5t68.5 13.5t52.5 37t33.5 55t11.5 68.5t-11.5 68.5t-33.5 55t-52.5 37t-68.5 13.5t-68.5 -13.5t-52.5 -37t-33.5 -55t-11.5 -68.5zM47 234q0 55 19 100t52 77.5t79 50.5t100 18t100 -18t79 -50.5t52 -77.5t19 -100
t-19 -100t-52 -77.5t-79 -50.5t-100 -18t-100 18t-79 50.5t-52 77.5t-19 100zM332 724h110l-143 -144h-71z" />
    <glyph glyph-name="ocircumflex" unicode="&#xf4;" horiz-adv-x="594" 
d="M131 234q0 -37 11.5 -68.5t33.5 -55t52.5 -37t68.5 -13.5t68.5 13.5t52.5 37t33.5 55t11.5 68.5t-11.5 68.5t-33.5 55t-52.5 37t-68.5 13.5t-68.5 -13.5t-52.5 -37t-33.5 -55t-11.5 -68.5zM47 234q0 55 19 100t52 77.5t79 50.5t100 18t100 -18t79 -50.5t52 -77.5t19 -100
t-19 -100t-52 -77.5t-79 -50.5t-100 -18t-100 18t-79 50.5t-52 77.5t-19 100zM251 724h91l112 -144h-81l-79 102l-78 -102h-76z" />
    <glyph glyph-name="otilde" unicode="&#xf5;" horiz-adv-x="594" 
d="M131 234q0 -37 11.5 -68.5t33.5 -55t52.5 -37t68.5 -13.5t68.5 13.5t52.5 37t33.5 55t11.5 68.5t-11.5 68.5t-33.5 55t-52.5 37t-68.5 13.5t-68.5 -13.5t-52.5 -37t-33.5 -55t-11.5 -68.5zM47 234q0 55 19 100t52 77.5t79 50.5t100 18t100 -18t79 -50.5t52 -77.5t19 -100
t-19 -100t-52 -77.5t-79 -50.5t-100 -18t-100 18t-79 50.5t-52 77.5t-19 100zM130 592q3 19 10.5 38t20 33.5t30 23.5t39.5 9q23 0 43.5 -7.5t40.5 -15.5q15 -6 26.5 -11.5t27.5 -5.5q20 0 31.5 13t16.5 31h48q-3 -19 -9.5 -37.5t-18 -33.5t-27.5 -24t-38 -9
q-21 0 -41.5 6.5t-39.5 14.5q-15 6 -32 12.5t-34 6.5q-19 0 -30 -13.5t-16 -30.5h-48z" />
    <glyph glyph-name="odieresis" unicode="&#xf6;" horiz-adv-x="594" 
d="M131 234q0 -37 11.5 -68.5t33.5 -55t52.5 -37t68.5 -13.5t68.5 13.5t52.5 37t33.5 55t11.5 68.5t-11.5 68.5t-33.5 55t-52.5 37t-68.5 13.5t-68.5 -13.5t-52.5 -37t-33.5 -55t-11.5 -68.5zM47 234q0 55 19 100t52 77.5t79 50.5t100 18t100 -18t79 -50.5t52 -77.5t19 -100
t-19 -100t-52 -77.5t-79 -50.5t-100 -18t-100 18t-79 50.5t-52 77.5t-19 100zM396 700q23 0 38.5 -16t15.5 -38q0 -23 -15.5 -38.5t-38.5 -15.5t-38.5 15.5t-15.5 38.5q0 22 15.5 38t38.5 16zM198 700q23 0 38.5 -16t15.5 -38q0 -23 -15.5 -38.5t-38.5 -15.5t-38.5 15.5
t-15.5 38.5q0 22 15.5 38t38.5 16z" />
    <glyph glyph-name="divide" unicode="&#xf7;" horiz-adv-x="666" 
d="M276 138q0 24 17 40.5t40 16.5t40 -17t17 -40q0 -24 -17 -40.5t-40 -16.5t-40 17t-17 40zM276 468q0 24 17 40.5t40 16.5t40 -17t17 -40q0 -24 -17 -40.5t-40 -16.5t-40 17t-17 40zM72 336h522v-66h-522v66z" />
    <glyph glyph-name="oslash" unicode="&#xf8;" horiz-adv-x="594" 
d="M105 72q-28 31 -43 72t-15 90q0 55 19 100t52 77.5t79 50.5t100 18q47 0 87 -13.5t72 -37.5l67 69l34 -32l-67 -69q27 -32 42 -73t15 -90q0 -55 -19 -100t-52 -77.5t-79 -50.5t-100 -18q-47 0 -87 13.5t-71 38.5l-68 -70l-34 32zM193 95q41 -35 104 -35q38 0 68.5 13.5
t52.5 37t33.5 55t11.5 68.5q0 61 -31 104zM401 373q-20 17 -46.5 26t-57.5 9q-38 0 -68.5 -13.5t-52.5 -37t-33.5 -55t-11.5 -68.5q0 -61 31 -104z" />
    <glyph glyph-name="ugrave" unicode="&#xf9;" 
d="M482 111q0 -32 2 -60t2 -51h-74q0 19 -1 38t-1 39h-2q-8 -17 -22.5 -33t-34.5 -28.5t-45 -20t-54 -7.5q-46 0 -79.5 14t-55.5 39t-32.5 60.5t-10.5 77.5v289h78v-281q0 -59 26 -93t81 -34q38 0 65.5 13t45 37t26 57t8.5 73v228h78v-357zM347 580h-71l-143 144h110z" />
    <glyph glyph-name="uacute" unicode="&#xfa;" 
d="M482 111q0 -32 2 -60t2 -51h-74q0 19 -1 38t-1 39h-2q-8 -17 -22.5 -33t-34.5 -28.5t-45 -20t-54 -7.5q-46 0 -79.5 14t-55.5 39t-32.5 60.5t-10.5 77.5v289h78v-281q0 -59 26 -93t81 -34q38 0 65.5 13t45 37t26 57t8.5 73v228h78v-357zM313 724h110l-143 -144h-71z" />
    <glyph glyph-name="ucircumflex" unicode="&#xfb;" 
d="M482 111q0 -32 2 -60t2 -51h-74q0 19 -1 38t-1 39h-2q-8 -17 -22.5 -33t-34.5 -28.5t-45 -20t-54 -7.5q-46 0 -79.5 14t-55.5 39t-32.5 60.5t-10.5 77.5v289h78v-281q0 -59 26 -93t81 -34q38 0 65.5 13t45 37t26 57t8.5 73v228h78v-357zM232 724h91l112 -144h-81l-79 102
l-78 -102h-76z" />
    <glyph glyph-name="udieresis" unicode="&#xfc;" 
d="M482 111q0 -32 2 -60t2 -51h-74q0 19 -1 38t-1 39h-2q-8 -17 -22.5 -33t-34.5 -28.5t-45 -20t-54 -7.5q-46 0 -79.5 14t-55.5 39t-32.5 60.5t-10.5 77.5v289h78v-281q0 -59 26 -93t81 -34q38 0 65.5 13t45 37t26 57t8.5 73v228h78v-357zM377 700q23 0 38.5 -16t15.5 -38
q0 -23 -15.5 -38.5t-38.5 -15.5t-38.5 15.5t-15.5 38.5q0 22 15.5 38t38.5 16zM179 700q23 0 38.5 -16t15.5 -38q0 -23 -15.5 -38.5t-38.5 -15.5t-38.5 15.5t-15.5 38.5q0 22 15.5 38t38.5 16z" />
    <glyph glyph-name="yacute" unicode="&#xfd;" horiz-adv-x="482" 
d="M246 -107q-12 -30 -24.5 -54.5t-30 -42t-42 -27t-59.5 -9.5q-17 0 -35.5 2t-34.5 10l10 68q12 -5 25 -6.5t30 -1.5q38 0 56 21t31 56l32 88l-194 471h91l145 -367h2l139 367h85zM276 724h110l-143 -144h-71z" />
    <glyph glyph-name="thorn" unicode="&#xfe;" horiz-adv-x="611" 
d="M148 234q0 -37 11.5 -68.5t33.5 -55t52.5 -37t68.5 -13.5t68.5 13.5t52.5 37t33.5 55t11.5 68.5t-11.5 68.5t-33.5 55t-52.5 37t-68.5 13.5t-68.5 -13.5t-52.5 -37t-33.5 -55t-11.5 -68.5zM70 756h78v-356h2q32 38 74.5 59t93.5 21q55 0 100.5 -18.5t77.5 -51.5t50 -78
t18 -98t-18 -98t-49.5 -78t-74.5 -51.5t-92 -18.5q-63 0 -110.5 27.5t-69.5 67.5h-2v-311h-78v984z" />
    <glyph glyph-name="ydieresis" unicode="&#xff;" horiz-adv-x="482" 
d="M246 -107q-12 -30 -24.5 -54.5t-30 -42t-42 -27t-59.5 -9.5q-17 0 -35.5 2t-34.5 10l10 68q12 -5 25 -6.5t30 -1.5q38 0 56 21t31 56l32 88l-194 471h91l145 -367h2l139 367h85zM340 700q23 0 38.5 -16t15.5 -38q0 -23 -15.5 -38.5t-38.5 -15.5t-38.5 15.5t-15.5 38.5
q0 22 15.5 38t38.5 16zM142 700q23 0 38.5 -16t15.5 -38q0 -23 -15.5 -38.5t-38.5 -15.5t-38.5 15.5t-15.5 38.5q0 22 15.5 38t38.5 16z" />
    <glyph glyph-name="dotlessi" unicode="&#x131;" horiz-adv-x="240" 
d="M81 468h78v-468h-78v468z" />
    <glyph glyph-name="Lslash" unicode="&#x141;" horiz-adv-x="500" 
d="M88 221l-78 -67v79l78 67v408h84v-336l216 186v-79l-216 -186v-215h324v-78h-408v221z" />
    <glyph glyph-name="lslash" unicode="&#x142;" horiz-adv-x="240" 
d="M81 308l-81 -81v82l81 81v366h78v-288l81 81v-81l-81 -81v-387h-78v308z" />
    <glyph glyph-name="OE" unicode="&#x152;" horiz-adv-x="963" 
d="M518 630h-66q-80 0 -137.5 -24t-95.5 -63t-56 -88.5t-18 -100.5t18 -100.5t56 -88.5t95.5 -63t137.5 -24h66v552zM602 408h282v-78h-282v-252h306v-78h-460q-98 0 -171.5 29.5t-122.5 78.5t-74 113t-25 133t25 133t74 113t122.5 78.5t171.5 29.5h454v-78h-300v-222z" />
    <glyph glyph-name="oe" unicode="&#x153;" horiz-adv-x="907" 
d="M787 276q-2 60 -39 96t-102 36q-29 0 -53.5 -11.5t-42.5 -30t-28.5 -42.5t-11.5 -48h277zM120 234q0 -34 9.5 -65.5t29 -55.5t49 -38.5t68.5 -14.5q40 0 70 13.5t50.5 37.5t31 55.5t10.5 67.5q0 34 -10 65.5t-29.5 55.5t-49.5 38.5t-69 14.5t-69 -14t-50.5 -37.5
t-30.5 -55t-10 -67.5zM510 210q0 -31 10.5 -58t28.5 -47.5t43 -32.5t54 -12q51 0 86 18t63 53l59 -46q-42 -54 -92 -75.5t-116 -21.5q-51 0 -97 22.5t-77 73.5q-36 -48 -82.5 -72t-109.5 -24q-56 0 -101 17.5t-76.5 50t-49 77.5t-17.5 101q0 53 17.5 98t49.5 78t76.5 51.5
t97.5 18.5q63 0 110 -22t85 -72q73 94 177 94q49 0 90 -16.5t70.5 -48t45.5 -77t16 -103.5v-25h-361z" />
    <glyph glyph-name="Scaron" unicode="&#x160;" 
d="M424 583q-21 34 -56 49.5t-73 15.5q-28 0 -55 -7t-48.5 -21t-34.5 -37t-13 -54q0 -24 7.5 -42.5t24.5 -33.5t46 -28t71 -26q41 -13 79.5 -28t68 -38t47 -57.5t17.5 -86.5q0 -53 -21 -92t-55.5 -64.5t-79.5 -38t-93 -12.5q-31 0 -62 5.5t-59.5 17t-53.5 30t-43 45.5l72 59
q23 -39 64 -59t87 -20q27 0 54.5 8t49.5 23.5t36 38.5t14 53q0 33 -11 53.5t-34 35.5t-58 27t-82 28q-38 12 -70 27.5t-55.5 38t-37 54t-13.5 75.5q0 51 20 89t54 63.5t77 38.5t90 13q60 0 109.5 -18.5t88.5 -64.5zM324 758h-91l-111 144h81l78 -102l77 102h76z" />
    <glyph glyph-name="scaron" unicode="&#x161;" horiz-adv-x="426" 
d="M84 123q23 -29 50.5 -46t69.5 -17q18 0 36.5 4t33.5 13t24 22.5t9 32.5t-8.5 31t-22.5 20.5t-32 13.5t-37 9q-33 7 -63 16t-52.5 23.5t-36 37.5t-13.5 59q0 34 15 60t40 43t56 26t64 9q50 0 92.5 -20t66.5 -65l-65 -43q-15 25 -39.5 40.5t-59.5 15.5q-16 0 -32.5 -4
t-29.5 -12t-21.5 -20.5t-8.5 -28.5q0 -15 9.5 -25.5t26 -18.5t38 -14t44.5 -10q31 -6 59 -15.5t49 -25.5t33 -40t12 -59q0 -40 -16 -68t-42.5 -45.5t-60 -25.5t-68.5 -8q-60 0 -103.5 18.5t-78.5 68.5zM259 580h-91l-111 144h81l78 -102l77 102h76z" />
    <glyph glyph-name="Ydieresis" unicode="&#x178;" horiz-adv-x="594" 
d="M255 305l-264 403h107l199 -320l205 320h101l-264 -403v-305h-84v305zM396 878q23 0 38.5 -16t15.5 -38q0 -23 -15.5 -38.5t-38.5 -15.5t-38.5 15.5t-15.5 38.5q0 22 15.5 38t38.5 16zM198 878q23 0 38.5 -16t15.5 -38q0 -23 -15.5 -38.5t-38.5 -15.5t-38.5 15.5
t-15.5 38.5q0 22 15.5 38t38.5 16z" />
    <glyph glyph-name="florin" unicode="&#x192;" 
d="M431 359h-126l-65 -344q-7 -35 -18.5 -64t-30.5 -50t-47 -33t-68 -12q-23 0 -45 6t-41 18l36 63q11 -8 24.5 -11.5t27.5 -3.5q24 0 39 10t24 25.5t13.5 34.5t7.5 37l60 324h-108v66h121l21 110q7 36 17 69.5t28.5 59t47 41t71.5 15.5q53 0 100 -28l-37 -62
q-13 8 -27.5 13t-29.5 5q-24 0 -39.5 -10.5t-25 -27t-14.5 -36.5t-9 -39l-21 -110h114v-66z" />
    <glyph glyph-name="circumflex" unicode="&#x2c6;" horiz-adv-x="240" 
d="M74 708h91l112 -144h-81l-79 102l-78 -102h-76z" />
    <glyph glyph-name="caron" unicode="&#x2c7;" horiz-adv-x="240" 
d="M166 564h-91l-111 144h81l78 -102l77 102h76z" />
    <glyph glyph-name="breve" unicode="&#x2d8;" horiz-adv-x="240" 
d="M16 702q8 -39 36.5 -58.5t66.5 -19.5q44 0 69.5 17t36.5 61h48q-7 -66 -48.5 -99t-105.5 -33q-63 0 -105.5 33t-46.5 99h49z" />
    <glyph glyph-name="dotaccent" unicode="&#x2d9;" horiz-adv-x="240" 
d="M120 684q23 0 38.5 -16t15.5 -38q0 -23 -15.5 -38.5t-38.5 -15.5t-38.5 15.5t-15.5 38.5q0 22 15.5 38t38.5 16z" />
    <glyph glyph-name="ring" unicode="&#x2da;" horiz-adv-x="240" 
d="M63 645q0 -25 17.5 -41t39.5 -16t39.5 16t17.5 41q0 24 -17.5 40.5t-39.5 16.5t-39.5 -16.5t-17.5 -40.5zM21 645q0 20 7.5 38t20.5 31.5t31.5 21.5t39.5 8q44 0 71.5 -29.5t27.5 -69.5q0 -41 -28 -70t-71 -29t-71 29t-28 70z" />
    <glyph glyph-name="ogonek" unicode="&#x2db;" horiz-adv-x="240" 
d="M203 -182q-19 -18 -42.5 -28.5t-49.5 -10.5q-18 0 -35 6t-30 17.5t-20.5 27t-7.5 34.5q0 21 8.5 41t21.5 38t29 32.5t32 24.5h51q-11 -8 -24.5 -20t-25 -27t-19 -32.5t-7.5 -35.5q0 -20 12 -33.5t36 -12.5q13 0 27 5.5t23 14.5z" />
    <glyph glyph-name="tilde" unicode="&#x2dc;" horiz-adv-x="240" 
d="M-47 576q3 19 10.5 38t20 33.5t30 23.5t39.5 9q23 0 43.5 -7.5t40.5 -15.5q15 -6 26.5 -11.5t27.5 -5.5q20 0 31.5 13t16.5 31h48q-3 -19 -9.5 -37.5t-18 -33.5t-27.5 -24t-38 -9q-21 0 -41.5 6.5t-39.5 14.5q-15 6 -32 12.5t-34 6.5q-19 0 -30 -13.5t-16 -30.5h-48z" />
    <glyph glyph-name="hungarumlaut" unicode="&#x2dd;" horiz-adv-x="240" 
d="M202 564h-68l109 144h102zM45 564h-67l100 144h96z" />
    <glyph glyph-name="endash" unicode="&#x2013;" horiz-adv-x="500" 
d="M500 204h-500v72h500v-72z" />
    <glyph glyph-name="emdash" unicode="&#x2014;" horiz-adv-x="1000" 
d="M0 276h1000v-72h-1000v72z" />
    <glyph glyph-name="quoteleft" unicode="&#x2018;" horiz-adv-x="278" 
d="M142 708h76l-67 -240h-91z" />
    <glyph glyph-name="quoteright" unicode="&#x2019;" horiz-adv-x="278" 
d="M136 468h-76l67 240h91z" />
    <glyph glyph-name="quotesinglbase" unicode="&#x201a;" horiz-adv-x="278" 
d="M136 -138h-76l67 240h91z" />
    <glyph glyph-name="quotedblleft" unicode="&#x201c;" horiz-adv-x="519" 
d="M356 708h76l-67 -240h-91zM169 708h76l-67 -240h-91z" />
    <glyph glyph-name="quotedblright" unicode="&#x201d;" horiz-adv-x="519" 
d="M350 468h-76l67 240h91zM163 468h-76l67 240h91z" />
    <glyph glyph-name="quotedblbase" unicode="&#x201e;" horiz-adv-x="519" 
d="M350 -138h-76l67 240h91zM163 -138h-76l67 240h91z" />
    <glyph glyph-name="dagger" unicode="&#x2020;" 
d="M317 505h204v-66h-204v-565h-78v565h-204v66h204v203h78v-203z" />
    <glyph glyph-name="daggerdbl" unicode="&#x2021;" 
d="M317 516h198v-66h-198v-318h198v-66h-198v-192h-78v192h-198v66h198v318h-198v66h198v192h78v-192z" />
    <glyph glyph-name="bullet" unicode="&#x2022;" horiz-adv-x="500" 
d="M73 354q0 37 14 69t38 56t56 38t69 14t69 -14t56 -38t38 -56t14 -69t-14 -69t-38 -56t-56 -38t-69 -14t-69 14t-56 38t-38 56t-14 69z" />
    <glyph glyph-name="ellipsis" unicode="&#x2026;" horiz-adv-x="1000" 
d="M833 114q25 0 42.5 -17.5t17.5 -42.5t-18.5 -42.5t-41.5 -17.5t-41.5 17.5t-18.5 42.5t17.5 42.5t42.5 17.5zM500 114q25 0 42.5 -17.5t17.5 -42.5t-18.5 -42.5t-41.5 -17.5t-41.5 17.5t-18.5 42.5t17.5 42.5t42.5 17.5zM167 114q25 0 42.5 -17.5t17.5 -42.5t-18.5 -42.5
t-41.5 -17.5t-41.5 17.5t-18.5 42.5t17.5 42.5t42.5 17.5z" />
    <glyph glyph-name="perthousand" unicode="&#x2030;" horiz-adv-x="1018" 
d="M525 740l55 -32l-444 -740l-55 32zM752 144q0 -18 7.5 -34.5t20 -29t29 -20t34.5 -7.5t34.5 7.5t29 20t20 29t7.5 34.5t-7.5 34.5t-20 29t-29 20t-34.5 7.5t-34.5 -7.5t-29 -20t-20 -29t-7.5 -34.5zM686 145q0 32 12.5 60.5t34 50t50 34t60.5 12.5t60.5 -12.5t50 -34
t34 -50t12.5 -60.5q0 -33 -12.5 -61.5t-33.5 -49.5t-49.5 -33.5t-61.5 -12.5t-61.5 12.5t-49.5 33.5t-33.5 49.5t-12.5 61.5zM392 145q0 -18 7.5 -34.5t20 -29t29 -20t34.5 -7.5t34.5 7.5t29 20t20 29t7.5 34.5t-7.5 34.5t-20 29t-29 20t-34.5 7.5t-34.5 -7.5t-29 -20
t-20 -29t-7.5 -34.5zM326 145q0 32 12.5 60.5t34 50t50 34t60.5 12.5t60.5 -12.5t50 -34t34 -50t12.5 -60.5q0 -33 -12.5 -61.5t-33.5 -49.5t-49.5 -33.5t-61.5 -12.5t-61.5 12.5t-49.5 33.5t-33.5 49.5t-12.5 61.5zM84 563q0 -18 7.5 -34.5t20 -29t29 -20t34.5 -7.5
t34.5 7.5t29 20t20 29t7.5 34.5t-7.5 34.5t-20 29t-29 20t-34.5 7.5t-34.5 -7.5t-29 -20t-20 -29t-7.5 -34.5zM18 563q0 32 12.5 60.5t34 50t50 34t60.5 12.5t60.5 -12.5t50 -34t34 -50t12.5 -60.5q0 -33 -12.5 -61.5t-33.5 -49.5t-49.5 -33.5t-61.5 -12.5t-61.5 12.5
t-49.5 33.5t-33.5 49.5t-12.5 61.5z" />
    <glyph glyph-name="guilsinglleft" unicode="&#x2039;" horiz-adv-x="314" 
d="M139 240l117 -178l-55 -36l-143 214l143 214l55 -36z" />
    <glyph glyph-name="guilsinglright" unicode="&#x203a;" horiz-adv-x="314" 
d="M175 240l-117 178l55 36l143 -214l-143 -214l-55 36z" />
    <glyph glyph-name="trademark" unicode="&#x2122;" horiz-adv-x="990" 
d="M473 708h105l123 -313l123 313h102v-412h-66v346h-2l-136 -346h-45l-136 346h-2v-346h-66v412zM194 642h-130v66h326v-66h-130v-346h-66v346z" />
    <glyph glyph-name="minus" unicode="&#x2212;" horiz-adv-x="666" 
d="M594 336v-66h-522v66h522z" />
    <glyph glyph-name="fraction" unicode="&#x2215;" horiz-adv-x="167" 
d="M278 740l55 -32l-444 -740l-55 32z" />
    <glyph glyph-name="fi" unicode="&#xfb01;" horiz-adv-x="537" 
d="M360 651q0 23 16.5 40t40.5 17t40.5 -17t16.5 -40q0 -25 -16 -41t-41 -16t-41 16t-16 41zM378 468h78v-468h-78v468zM306 402h-114v-402h-78v402h-102v66h102v105q0 43 8 78.5t27.5 61.5t51.5 40.5t79 14.5q15 0 32 -3t28 -9l-11 -70q-28 10 -53 10q-30 0 -47 -10.5
t-25.5 -29t-10 -44.5t-1.5 -56v-88h114v-66z" />
    <glyph glyph-name="fl" unicode="&#xfb02;" horiz-adv-x="537" 
d="M378 756h78v-756h-78v756zM114 402h-102v66h102v105q0 43 8 78.5t27.5 61.5t51.5 40.5t79 14.5q15 0 32 -3t28 -9l-11 -70q-28 10 -53 10q-30 0 -47 -10.5t-25.5 -29t-10 -44.5t-1.5 -56v-88h114v-66h-114v-402h-78v402z" />
    <glyph glyph-name="nonbreakingspace" horiz-adv-x="278" 
 />
    <hkern u1="A" u2="&#x2019;" k="74" />
    <hkern u1="A" u2="y" k="18" />
    <hkern u1="A" u2="w" k="18" />
    <hkern u1="A" u2="v" k="18" />
    <hkern u1="A" u2="Y" k="74" />
    <hkern u1="A" u2="W" k="24" />
    <hkern u1="A" u2="V" k="46" />
    <hkern u1="A" u2="T" k="92" />
    <hkern u1="F" u2="A" k="55" />
    <hkern u1="F" u2="&#x2e;" k="157" />
    <hkern u1="F" u2="&#x2c;" k="157" />
    <hkern u1="L" u2="&#x2019;" k="74" />
    <hkern u1="L" u2="y" k="37" />
    <hkern u1="L" u2="Y" k="111" />
    <hkern u1="L" u2="W" k="55" />
    <hkern u1="L" u2="V" k="92" />
    <hkern u1="L" u2="T" k="92" />
    <hkern u1="P" u2="A" k="74" />
    <hkern u1="P" u2="&#x2e;" k="179" />
    <hkern u1="P" u2="&#x2c;" k="179" />
    <hkern u1="R" u2="Y" k="37" />
    <hkern u1="R" u2="W" k="18" />
    <hkern u1="R" u2="V" k="18" />
    <hkern u1="R" u2="T" k="18" />
    <hkern u1="T" u2="y" k="111" />
    <hkern u1="T" u2="w" k="111" />
    <hkern u1="T" u2="u" k="92" />
    <hkern u1="T" u2="s" k="111" />
    <hkern u1="T" u2="r" k="92" />
    <hkern u1="T" u2="o" k="111" />
    <hkern u1="T" u2="e" k="111" />
    <hkern u1="T" u2="c" k="111" />
    <hkern u1="T" u2="a" k="111" />
    <hkern u1="T" u2="A" k="92" />
    <hkern u1="T" u2="&#x3b;" k="111" />
    <hkern u1="T" u2="&#x3a;" k="111" />
    <hkern u1="T" u2="&#x2e;" k="111" />
    <hkern u1="T" u2="&#x2d;" k="129" />
    <hkern u1="T" u2="&#x2c;" k="111" />
    <hkern u1="V" u2="y" k="18" />
    <hkern u1="V" u2="u" k="37" />
    <hkern u1="V" u2="r" k="37" />
    <hkern u1="V" u2="o" k="55" />
    <hkern u1="V" u2="i" k="18" />
    <hkern u1="V" u2="e" k="55" />
    <hkern u1="V" u2="a" k="55" />
    <hkern u1="V" u2="A" k="46" />
    <hkern u1="V" u2="&#x3b;" k="46" />
    <hkern u1="V" u2="&#x3a;" k="46" />
    <hkern u1="V" u2="&#x2e;" k="129" />
    <hkern u1="V" u2="&#x2d;" k="55" />
    <hkern u1="V" u2="&#x2c;" k="129" />
    <hkern u1="W" u2="u" k="18" />
    <hkern u1="W" u2="r" k="18" />
    <hkern u1="W" u2="o" k="57" />
    <hkern u1="W" u2="e" k="47" />
    <hkern u1="W" u2="a" k="37" />
    <hkern u1="W" u2="A" k="24" />
    <hkern u1="W" u2="&#x3b;" k="18" />
    <hkern u1="W" u2="&#x3a;" k="18" />
    <hkern u1="W" u2="&#x2e;" k="74" />
    <hkern u1="W" u2="&#x2c;" k="74" />
    <hkern u1="Y" u2="v" k="55" />
    <hkern u1="Y" u2="u" k="74" />
    <hkern u1="Y" u2="q" k="92" />
    <hkern u1="Y" u2="p" k="74" />
    <hkern u1="Y" u2="o" k="111" />
    <hkern u1="Y" u2="i" k="37" />
    <hkern u1="Y" u2="e" k="111" />
    <hkern u1="Y" u2="a" k="92" />
    <hkern u1="Y" u2="A" k="74" />
    <hkern u1="Y" u2="&#x3b;" k="92" />
    <hkern u1="Y" u2="&#x3a;" k="92" />
    <hkern u1="Y" u2="&#x2e;" k="139" />
    <hkern u1="Y" u2="&#x2d;" k="111" />
    <hkern u1="Y" u2="&#x2c;" k="139" />
    <hkern u1="f" u2="&#x2019;" k="-18" />
    <hkern u1="f" u2="f" k="18" />
    <hkern u1="r" u2="q" k="18" />
    <hkern u1="r" u2="o" k="18" />
    <hkern u1="r" u2="g" k="18" />
    <hkern u1="r" u2="e" k="18" />
    <hkern u1="r" u2="d" k="18" />
    <hkern u1="r" u2="c" k="18" />
    <hkern u1="r" u2="&#x2e;" k="92" />
    <hkern u1="r" u2="&#x2d;" k="55" />
    <hkern u1="r" u2="&#x2c;" k="92" />
    <hkern u1="v" u2="&#x2e;" k="74" />
    <hkern u1="v" u2="&#x2c;" k="74" />
    <hkern u1="w" u2="&#x2e;" k="55" />
    <hkern u1="w" u2="&#x2c;" k="55" />
    <hkern u1="y" u2="&#x2e;" k="74" />
    <hkern u1="y" u2="&#x2c;" k="74" />
    <hkern u1="&#x2018;" u2="&#x2018;" k="91" />
    <hkern u1="&#x2019;" u2="&#x2019;" k="91" />
    <hkern u1="&#x2019;" u2="t" k="18" />
    <hkern u1="&#x2019;" u2="s" k="74" />
  </font>
</defs></svg>
